<?xml version="1.0" encoding="UTF-8"?>
<model ref="r:07443cde-2c17-40ff-a780-d12c9b17e02e(MetaJade.agent.constraints)">
  <persistence version="9" />
  <languages>
    <use id="5dae8159-ab99-46bb-a40d-0cee30ee7018" name="jetbrains.mps.lang.constraints.rules.kinds" version="0" />
    <use id="ea3159bf-f48e-4720-bde2-86dba75f0d34" name="jetbrains.mps.lang.context.defs" version="0" />
    <use id="e51810c5-7308-4642-bcb6-469e61b5dd18" name="jetbrains.mps.lang.constraints.msg.specification" version="0" />
    <use id="134c38d4-e3af-4d9e-b069-1c7df0a4005d" name="jetbrains.mps.lang.constraints.rules.skeleton" version="0" />
    <use id="b3551702-269c-4f05-ba61-58060cef4292" name="jetbrains.mps.lang.rulesAndMessages" version="0" />
    <use id="3f4bc5f5-c6c1-4a28-8b10-c83066ffa4a1" name="jetbrains.mps.lang.constraints" version="6" />
    <use id="13744753-c81f-424a-9c1b-cf8943bf4e86" name="jetbrains.mps.lang.sharedConcepts" version="0" />
    <use id="3ad5badc-1d9c-461c-b7b1-fa2fcd0a0ae7" name="jetbrains.mps.lang.context" version="0" />
    <use id="ad93155d-79b2-4759-b10c-55123e763903" name="jetbrains.mps.lang.messages" version="0" />
    <devkit ref="00000000-0000-4000-0000-5604ebd4f22c(jetbrains.mps.devkit.aspect.constraints)" />
  </languages>
  <imports>
    <import index="os74" ref="r:0a69036a-4d31-45e1-887d-acbe5b8039f5(MetaJade.core.structure)" />
    <import index="o8zo" ref="r:314576fc-3aee-4386-a0a5-a38348ac317d(jetbrains.mps.scope)" />
    <import index="hwgx" ref="r:fd2980c8-676c-4b19-b524-18c70e02f8b7(com.mbeddr.core.base.behavior)" />
    <import index="vs0r" ref="r:f7764ca4-8c75-4049-922b-08516400a727(com.mbeddr.core.base.structure)" />
    <import index="pbu6" ref="r:83e946de-2a7f-4a4c-b3c9-4f671aa7f2db(org.iets3.core.expr.base.behavior)" />
    <import index="hm2y" ref="r:66e07cb4-a4b0-4bf3-a36d-5e9ed1ff1bd3(org.iets3.core.expr.base.structure)" />
    <import index="zzzn" ref="r:af0af2e7-f7e1-4536-83b5-6bf010d4afd2(org.iets3.core.expr.lambda.structure)" />
    <import index="skfy" ref="r:b0f3cf14-1c2e-4882-b77c-6277e17e479f(MetaJade.agent.structure)" implicit="true" />
  </imports>
  <registry>
    <language id="f3061a53-9226-4cc5-a443-f952ceaf5816" name="jetbrains.mps.baseLanguage">
      <concept id="4836112446988635817" name="jetbrains.mps.baseLanguage.structure.UndefinedType" flags="in" index="2jxLKc" />
      <concept id="1197027756228" name="jetbrains.mps.baseLanguage.structure.DotExpression" flags="nn" index="2OqwBi">
        <child id="1197027771414" name="operand" index="2Oq$k0" />
        <child id="1197027833540" name="operation" index="2OqNvi" />
      </concept>
      <concept id="1137021947720" name="jetbrains.mps.baseLanguage.structure.ConceptFunction" flags="in" index="2VMwT0">
        <child id="1137022507850" name="body" index="2VODD2" />
      </concept>
      <concept id="1081236700937" name="jetbrains.mps.baseLanguage.structure.StaticMethodCall" flags="nn" index="2YIFZM">
        <reference id="1144433194310" name="classConcept" index="1Pybhc" />
      </concept>
      <concept id="1070534934090" name="jetbrains.mps.baseLanguage.structure.CastExpression" flags="nn" index="10QFUN">
        <child id="1070534934091" name="type" index="10QFUM" />
        <child id="1070534934092" name="expression" index="10QFUP" />
      </concept>
      <concept id="1068431474542" name="jetbrains.mps.baseLanguage.structure.VariableDeclaration" flags="ng" index="33uBYm">
        <child id="1068431790190" name="initializer" index="33vP2m" />
      </concept>
      <concept id="1068498886296" name="jetbrains.mps.baseLanguage.structure.VariableReference" flags="nn" index="37vLTw">
        <reference id="1068581517664" name="variableDeclaration" index="3cqZAo" />
      </concept>
      <concept id="4972933694980447171" name="jetbrains.mps.baseLanguage.structure.BaseVariableDeclaration" flags="ng" index="19Szcq">
        <child id="5680397130376446158" name="type" index="1tU5fm" />
      </concept>
      <concept id="1068580123155" name="jetbrains.mps.baseLanguage.structure.ExpressionStatement" flags="nn" index="3clFbF">
        <child id="1068580123156" name="expression" index="3clFbG" />
      </concept>
      <concept id="1068580123157" name="jetbrains.mps.baseLanguage.structure.Statement" flags="nn" index="3clFbH" />
      <concept id="1068580123136" name="jetbrains.mps.baseLanguage.structure.StatementList" flags="sn" stub="5293379017992965193" index="3clFbS">
        <child id="1068581517665" name="statement" index="3cqZAp" />
      </concept>
      <concept id="1068581242864" name="jetbrains.mps.baseLanguage.structure.LocalVariableDeclarationStatement" flags="nn" index="3cpWs8">
        <child id="1068581242865" name="localVariableDeclaration" index="3cpWs9" />
      </concept>
      <concept id="1068581242863" name="jetbrains.mps.baseLanguage.structure.LocalVariableDeclaration" flags="nr" index="3cpWsn" />
      <concept id="1079359253375" name="jetbrains.mps.baseLanguage.structure.ParenthesizedExpression" flags="nn" index="1eOMI4">
        <child id="1079359253376" name="expression" index="1eOMHV" />
      </concept>
      <concept id="1081516740877" name="jetbrains.mps.baseLanguage.structure.NotExpression" flags="nn" index="3fqX7Q">
        <child id="1081516765348" name="expression" index="3fr31v" />
      </concept>
      <concept id="1204053956946" name="jetbrains.mps.baseLanguage.structure.IMethodCall" flags="ng" index="1ndlxa">
        <reference id="1068499141037" name="baseMethodDeclaration" index="37wK5l" />
        <child id="1068499141038" name="actualArgument" index="37wK5m" />
      </concept>
      <concept id="1081773326031" name="jetbrains.mps.baseLanguage.structure.BinaryOperation" flags="nn" index="3uHJSO">
        <child id="1081773367579" name="rightExpression" index="3uHU7w" />
        <child id="1081773367580" name="leftExpression" index="3uHU7B" />
      </concept>
      <concept id="1073239437375" name="jetbrains.mps.baseLanguage.structure.NotEqualsExpression" flags="nn" index="3y3z36" />
      <concept id="1163668896201" name="jetbrains.mps.baseLanguage.structure.TernaryOperatorExpression" flags="nn" index="3K4zz7">
        <child id="1163668914799" name="condition" index="3K4Cdx" />
        <child id="1163668922816" name="ifTrue" index="3K4E3e" />
        <child id="1163668934364" name="ifFalse" index="3K4GZi" />
      </concept>
      <concept id="1080120340718" name="jetbrains.mps.baseLanguage.structure.AndExpression" flags="nn" index="1Wc70l" />
    </language>
    <language id="3f4bc5f5-c6c1-4a28-8b10-c83066ffa4a1" name="jetbrains.mps.lang.constraints">
      <concept id="6702802731807351367" name="jetbrains.mps.lang.constraints.structure.ConstraintFunction_CanBeAChild" flags="in" index="9S07l" />
      <concept id="1202989658459" name="jetbrains.mps.lang.constraints.structure.ConstraintFunctionParameter_parentNode" flags="nn" index="nLn13" />
      <concept id="8966504967485224688" name="jetbrains.mps.lang.constraints.structure.ConstraintFunctionParameter_contextNode" flags="nn" index="2rP1CM" />
      <concept id="5564765827938091039" name="jetbrains.mps.lang.constraints.structure.ConstraintFunction_ReferentSearchScope_Scope" flags="ig" index="3dgokm" />
      <concept id="1163200647017" name="jetbrains.mps.lang.constraints.structure.ConstraintFunctionParameter_referenceNode" flags="nn" index="3kakTB" />
      <concept id="1213093968558" name="jetbrains.mps.lang.constraints.structure.ConceptConstraints" flags="ng" index="1M2fIO">
        <reference id="1213093996982" name="concept" index="1M2myG" />
        <child id="6702802731807737306" name="canBeChild" index="9Vyp8" />
        <child id="1213100494875" name="referent" index="1Mr941" />
      </concept>
      <concept id="1148687176410" name="jetbrains.mps.lang.constraints.structure.NodeReferentConstraint" flags="ng" index="1N5Pfh">
        <reference id="1148687202698" name="applicableLink" index="1N5Vy1" />
        <child id="1148687345559" name="searchScopeFactory" index="1N6uqs" />
      </concept>
    </language>
    <language id="fd392034-7849-419d-9071-12563d152375" name="jetbrains.mps.baseLanguage.closures">
      <concept id="1199569711397" name="jetbrains.mps.baseLanguage.closures.structure.ClosureLiteral" flags="nn" index="1bVj0M">
        <child id="1199569906740" name="parameter" index="1bW2Oz" />
        <child id="1199569916463" name="body" index="1bW5cS" />
      </concept>
    </language>
    <language id="7866978e-a0f0-4cc7-81bc-4d213d9375e1" name="jetbrains.mps.lang.smodel">
      <concept id="1177026924588" name="jetbrains.mps.lang.smodel.structure.RefConcept_Reference" flags="nn" index="chp4Y">
        <reference id="1177026940964" name="conceptDeclaration" index="cht4Q" />
      </concept>
      <concept id="1138411891628" name="jetbrains.mps.lang.smodel.structure.SNodeOperation" flags="nn" index="eCIE_">
        <child id="1144104376918" name="parameter" index="1xVPHs" />
      </concept>
      <concept id="1179409122411" name="jetbrains.mps.lang.smodel.structure.Node_ConceptMethodCall" flags="nn" index="2qgKlT" />
      <concept id="1143234257716" name="jetbrains.mps.lang.smodel.structure.Node_GetModelOperation" flags="nn" index="I4A8Y" />
      <concept id="1145383075378" name="jetbrains.mps.lang.smodel.structure.SNodeListType" flags="in" index="2I9FWS">
        <reference id="1145383142433" name="elementConcept" index="2I9WkF" />
      </concept>
      <concept id="1171407110247" name="jetbrains.mps.lang.smodel.structure.Node_GetAncestorOperation" flags="nn" index="2Xjw5R" />
      <concept id="2644386474300074836" name="jetbrains.mps.lang.smodel.structure.ConceptIdRefExpression" flags="nn" index="35c_gC">
        <reference id="2644386474300074837" name="conceptDeclaration" index="35c_gD" />
      </concept>
      <concept id="1182511038748" name="jetbrains.mps.lang.smodel.structure.Model_NodesIncludingImportedOperation" flags="nn" index="1j9C0f">
        <child id="6750920497477143623" name="conceptArgument" index="3MHPCF" />
      </concept>
      <concept id="1139613262185" name="jetbrains.mps.lang.smodel.structure.Node_GetParentOperation" flags="nn" index="1mfA1w" />
      <concept id="1139621453865" name="jetbrains.mps.lang.smodel.structure.Node_IsInstanceOfOperation" flags="nn" index="1mIQ4w">
        <child id="1177027386292" name="conceptArgument" index="cj9EA" />
      </concept>
      <concept id="1171999116870" name="jetbrains.mps.lang.smodel.structure.Node_IsNullOperation" flags="nn" index="3w_OXm" />
      <concept id="1172008320231" name="jetbrains.mps.lang.smodel.structure.Node_IsNotNullOperation" flags="nn" index="3x8VRR" />
      <concept id="1144100932627" name="jetbrains.mps.lang.smodel.structure.OperationParm_Inclusion" flags="ng" index="1xIGOp" />
      <concept id="1144101972840" name="jetbrains.mps.lang.smodel.structure.OperationParm_Concept" flags="ng" index="1xMEDy">
        <child id="1207343664468" name="conceptArgument" index="ri$Ld" />
      </concept>
      <concept id="1138055754698" name="jetbrains.mps.lang.smodel.structure.SNodeType" flags="in" index="3Tqbb2">
        <reference id="1138405853777" name="concept" index="ehGHo" />
      </concept>
      <concept id="1138056282393" name="jetbrains.mps.lang.smodel.structure.SLinkListAccess" flags="nn" index="3Tsc0h">
        <reference id="1138056546658" name="link" index="3TtcxE" />
      </concept>
    </language>
    <language id="ceab5195-25ea-4f22-9b92-103b95ca8c0c" name="jetbrains.mps.lang.core">
      <concept id="1133920641626" name="jetbrains.mps.lang.core.structure.BaseConcept" flags="ng" index="2VYdi">
        <property id="1193676396447" name="virtualPackage" index="3GE5qa" />
      </concept>
      <concept id="1169194658468" name="jetbrains.mps.lang.core.structure.INamedConcept" flags="ng" index="TrEIO">
        <property id="1169194664001" name="name" index="TrG5h" />
      </concept>
    </language>
    <language id="83888646-71ce-4f1c-9c53-c54016f6ad4f" name="jetbrains.mps.baseLanguage.collections">
      <concept id="1204796164442" name="jetbrains.mps.baseLanguage.collections.structure.InternalSequenceOperation" flags="nn" index="23sCx2">
        <child id="1204796294226" name="closure" index="23t8la" />
      </concept>
      <concept id="1151689724996" name="jetbrains.mps.baseLanguage.collections.structure.SequenceType" flags="in" index="A3Dl8">
        <child id="1151689745422" name="elementType" index="A3Ik2" />
      </concept>
      <concept id="1203518072036" name="jetbrains.mps.baseLanguage.collections.structure.SmartClosureParameterDeclaration" flags="ig" index="Rh6nW" />
      <concept id="1202120902084" name="jetbrains.mps.baseLanguage.collections.structure.WhereOperation" flags="nn" index="3zZkjj" />
    </language>
  </registry>
  <node concept="1M2fIO" id="2aA5E1pf1$">
    <ref role="1M2myG" to="skfy:1wDV7BCwUkH" resolve="AgentDependency" />
    <node concept="1N5Pfh" id="2aA5E1u15B" role="1Mr941">
      <ref role="1N5Vy1" to="os74:2aA5E1e5qp" resolve="chunk" />
      <node concept="3dgokm" id="2aA5E1u15F" role="1N6uqs">
        <node concept="3clFbS" id="2aA5E1u15H" role="2VODD2">
          <node concept="3cpWs8" id="2aA5E17oSa" role="3cqZAp">
            <node concept="3cpWsn" id="2aA5E17oSd" role="3cpWs9">
              <property role="TrG5h" value="availableChunks" />
              <node concept="A3Dl8" id="2aA5E17oS7" role="1tU5fm">
                <node concept="3Tqbb2" id="2aA5E17uMv" role="A3Ik2">
                  <ref role="ehGHo" to="vs0r:6clJcrJYOUA" resolve="Chunk" />
                </node>
              </node>
              <node concept="2OqwBi" id="2aA5E1dS2T" role="33vP2m">
                <node concept="2OqwBi" id="2aA5E1dS2U" role="2Oq$k0">
                  <node concept="2OqwBi" id="2aA5E1dS2V" role="2Oq$k0">
                    <node concept="2rP1CM" id="2aA5E1dS2W" role="2Oq$k0" />
                    <node concept="I4A8Y" id="2aA5E1dS2X" role="2OqNvi" />
                  </node>
                  <node concept="1j9C0f" id="2aA5E1dS2Y" role="2OqNvi">
                    <node concept="chp4Y" id="2aA5E1dS2Z" role="3MHPCF">
                      <ref role="cht4Q" to="vs0r:6clJcrJYOUA" resolve="Chunk" />
                    </node>
                  </node>
                </node>
                <node concept="3zZkjj" id="2aA5E1dS30" role="2OqNvi">
                  <node concept="1bVj0M" id="2aA5E1dS31" role="23t8la">
                    <node concept="3clFbS" id="2aA5E1dS32" role="1bW5cS">
                      <node concept="3clFbF" id="2aA5E1dS33" role="3cqZAp">
                        <node concept="1Wc70l" id="2aA5E1sBAM" role="3clFbG">
                          <node concept="3fqX7Q" id="2aA5E1u_yM" role="3uHU7w">
                            <node concept="2OqwBi" id="2aA5E1u_yO" role="3fr31v">
                              <node concept="37vLTw" id="2aA5E1u_yP" role="2Oq$k0">
                                <ref role="3cqZAo" node="2aA5E1dS3b" resolve="it" />
                              </node>
                              <node concept="1mIQ4w" id="2aA5E1u_yQ" role="2OqNvi">
                                <node concept="chp4Y" id="2aA5E1u_yR" role="cj9EA">
                                  <ref role="cht4Q" to="skfy:3dwesrXQjRO" resolve="Agent" />
                                </node>
                              </node>
                            </node>
                          </node>
                          <node concept="1Wc70l" id="2aA5E1dS35" role="3uHU7B">
                            <node concept="2OqwBi" id="2aA5E1dS36" role="3uHU7B">
                              <node concept="37vLTw" id="2aA5E1dS37" role="2Oq$k0">
                                <ref role="3cqZAo" node="2aA5E1dS3b" resolve="it" />
                              </node>
                              <node concept="2qgKlT" id="2aA5E1dS38" role="2OqNvi">
                                <ref role="37wK5l" to="hwgx:7aNtjNmcVtH" resolve="importedByDefGenChunkDep" />
                              </node>
                            </node>
                            <node concept="3y3z36" id="2aA5E1dS39" role="3uHU7w">
                              <node concept="37vLTw" id="2aA5E1dS3a" role="3uHU7B">
                                <ref role="3cqZAo" node="2aA5E1dS3b" resolve="it" />
                              </node>
                              <node concept="2rP1CM" id="2aA5E1fQQv" role="3uHU7w" />
                            </node>
                          </node>
                        </node>
                      </node>
                    </node>
                    <node concept="Rh6nW" id="2aA5E1dS3b" role="1bW2Oz">
                      <property role="TrG5h" value="it" />
                      <node concept="2jxLKc" id="2aA5E1dS3c" role="1tU5fm" />
                    </node>
                  </node>
                </node>
              </node>
            </node>
          </node>
          <node concept="3clFbH" id="2aA5E1tZw9" role="3cqZAp" />
          <node concept="3clFbF" id="2aA5E1dS3d" role="3cqZAp">
            <node concept="2YIFZM" id="2aA5E17tgO" role="3clFbG">
              <ref role="1Pybhc" to="o8zo:4IP40Bi3e_R" resolve="ListScope" />
              <ref role="37wK5l" to="o8zo:4IP40Bi3eAf" resolve="forNamedElements" />
              <node concept="37vLTw" id="2aA5E18Qr0" role="37wK5m">
                <ref role="3cqZAo" node="2aA5E17oSd" resolve="availableChunks" />
              </node>
            </node>
          </node>
        </node>
      </node>
    </node>
    <node concept="9S07l" id="2aA5E1pf1_" role="9Vyp8">
      <node concept="3clFbS" id="2aA5E1pf1A" role="2VODD2">
        <node concept="3clFbF" id="2aA5E1pdd_" role="3cqZAp">
          <node concept="2OqwBi" id="2aA5E1pdpT" role="3clFbG">
            <node concept="nLn13" id="2aA5E1pdd$" role="2Oq$k0" />
            <node concept="1mIQ4w" id="2aA5E1pdLg" role="2OqNvi">
              <node concept="chp4Y" id="2aA5E1pdUK" role="cj9EA">
                <ref role="cht4Q" to="skfy:3dwesrXQjRO" resolve="Agent" />
              </node>
            </node>
          </node>
        </node>
      </node>
    </node>
  </node>
  <node concept="1M2fIO" id="4AcBPh2BCYs">
    <property role="3GE5qa" value="statements" />
    <ref role="1M2myG" to="skfy:1wDV7BCuPNV" resolve="AbstractDfExpression" />
    <node concept="9S07l" id="4AcBPh2BCYt" role="9Vyp8">
      <node concept="3clFbS" id="4AcBPh2BCYu" role="2VODD2">
        <node concept="3clFbF" id="4AcBPh2BD2s" role="3cqZAp">
          <node concept="2OqwBi" id="vQ6nfZNbCx" role="3clFbG">
            <node concept="2OqwBi" id="vQ6nfZNbCy" role="2Oq$k0">
              <node concept="nLn13" id="7_YVLVlbD86" role="2Oq$k0" />
              <node concept="2Xjw5R" id="vQ6nfZNbC$" role="2OqNvi">
                <node concept="1xMEDy" id="vQ6nfZNbC_" role="1xVPHs">
                  <node concept="chp4Y" id="3A64HzfO_6U" role="ri$Ld">
                    <ref role="cht4Q" to="os74:2tMu91FTK9z" resolve="AbstractChunk" />
                  </node>
                </node>
                <node concept="1xIGOp" id="3NjOp6FKPyY" role="1xVPHs" />
              </node>
            </node>
            <node concept="3x8VRR" id="vQ6nfZNbCB" role="2OqNvi" />
          </node>
        </node>
      </node>
    </node>
  </node>
  <node concept="1M2fIO" id="1ekdGpN3mWn">
    <ref role="1M2myG" to="skfy:7HKtlVl5Fas" resolve="AgentArgRef" />
    <node concept="1N5Pfh" id="1ekdGpN3r_o" role="1Mr941">
      <ref role="1N5Vy1" to="skfy:7HKtlVl5Fat" resolve="arg" />
      <node concept="3dgokm" id="1ekdGpN3rCv" role="1N6uqs">
        <node concept="3clFbS" id="1ekdGpN3rCw" role="2VODD2">
          <node concept="3cpWs8" id="3I8nNvsKRPT" role="3cqZAp">
            <node concept="3cpWsn" id="3I8nNvsKRPW" role="3cpWs9">
              <property role="TrG5h" value="all" />
              <node concept="2I9FWS" id="3I8nNvsKRPS" role="1tU5fm">
                <ref role="2I9WkF" to="skfy:Oow4MZ5Inv" resolve="AgentArgument" />
              </node>
              <node concept="2OqwBi" id="3I8nNvsKSVK" role="33vP2m">
                <node concept="2OqwBi" id="3I8nNvsKSaa" role="2Oq$k0">
                  <node concept="2rP1CM" id="3I8nNvsKRVy" role="2Oq$k0" />
                  <node concept="2Xjw5R" id="3I8nNvsKSlH" role="2OqNvi">
                    <node concept="1xMEDy" id="3I8nNvsKSlJ" role="1xVPHs">
                      <node concept="chp4Y" id="3I8nNvsKSnY" role="ri$Ld">
                        <ref role="cht4Q" to="skfy:3dwesrXQjRO" resolve="Agent" />
                      </node>
                    </node>
                    <node concept="1xIGOp" id="3I8nNvsKSxV" role="1xVPHs" />
                  </node>
                </node>
                <node concept="3Tsc0h" id="3I8nNvsKVnc" role="2OqNvi">
                  <ref role="3TtcxE" to="skfy:Oow4MZ5IlW" resolve="inputParams" />
                </node>
              </node>
            </node>
          </node>
          <node concept="3clFbF" id="3I8nNvsKVxg" role="3cqZAp">
            <node concept="2YIFZM" id="3I8nNvsKVCs" role="3clFbG">
              <ref role="37wK5l" to="o8zo:3jEbQoczdCs" resolve="forResolvableElements" />
              <ref role="1Pybhc" to="o8zo:4IP40Bi3e_R" resolve="ListScope" />
              <node concept="1eOMI4" id="1F1F0IUZA7f" role="37wK5m">
                <node concept="10QFUN" id="1F1F0IUZA7g" role="1eOMHV">
                  <node concept="2OqwBi" id="1F1F0IUZA7h" role="10QFUP">
                    <node concept="35c_gC" id="1F1F0IUZA7i" role="2Oq$k0">
                      <ref role="35c_gD" to="hm2y:3kzwyUOs05a" resolve="ISingleSymbolRef" />
                    </node>
                    <node concept="2qgKlT" id="1F1F0IUZA7j" role="2OqNvi">
                      <ref role="37wK5l" to="pbu6:3kzwyUOs0AQ" resolve="filterScope" />
                      <node concept="1eOMI4" id="1F1F0IUZA7k" role="37wK5m">
                        <node concept="3K4zz7" id="1F1F0IUZA7l" role="1eOMHV">
                          <node concept="2rP1CM" id="1F1F0IUZA7m" role="3K4E3e" />
                          <node concept="2OqwBi" id="1F1F0IUZA7n" role="3K4Cdx">
                            <node concept="3kakTB" id="1F1F0IUZA7o" role="2Oq$k0" />
                            <node concept="3w_OXm" id="1F1F0IUZA7p" role="2OqNvi" />
                          </node>
                          <node concept="2OqwBi" id="1F1F0IUZA7q" role="3K4GZi">
                            <node concept="3kakTB" id="1F1F0IUZA7r" role="2Oq$k0" />
                            <node concept="1mfA1w" id="1F1F0IUZA7s" role="2OqNvi" />
                          </node>
                        </node>
                      </node>
                      <node concept="37vLTw" id="1F1F0IUZA7t" role="37wK5m">
                        <ref role="3cqZAo" node="3I8nNvsKRPW" resolve="all" />
                      </node>
                    </node>
                  </node>
                  <node concept="A3Dl8" id="1F1F0IUZA7u" role="10QFUM">
                    <node concept="3Tqbb2" id="1F1F0IUZA7v" role="A3Ik2">
                      <ref role="ehGHo" to="zzzn:6zmBjqUkws9" resolve="IArgument" />
                    </node>
                  </node>
                </node>
              </node>
            </node>
          </node>
        </node>
      </node>
    </node>
    <node concept="9S07l" id="1ekdGpN3qe_" role="9Vyp8">
      <node concept="3clFbS" id="1ekdGpN3qeA" role="2VODD2">
        <node concept="3clFbF" id="1ekdGpN3qeW" role="3cqZAp">
          <node concept="2OqwBi" id="3I8nNvsKQsS" role="3clFbG">
            <node concept="2OqwBi" id="3I8nNvsKPtX" role="2Oq$k0">
              <node concept="nLn13" id="1ekdGpN3rlJ" role="2Oq$k0" />
              <node concept="2Xjw5R" id="3I8nNvsKPDz" role="2OqNvi">
                <node concept="1xMEDy" id="3I8nNvsKPD_" role="1xVPHs">
                  <node concept="chp4Y" id="3I8nNvsKPL0" role="ri$Ld">
                    <ref role="cht4Q" to="skfy:3dwesrXQjRO" resolve="Agent" />
                  </node>
                </node>
                <node concept="1xIGOp" id="3I8nNvsKPYX" role="1xVPHs" />
              </node>
            </node>
            <node concept="3x8VRR" id="3I8nNvsKRat" role="2OqNvi" />
          </node>
        </node>
      </node>
    </node>
  </node>
</model>

