<?xml version="1.0" encoding="UTF-8"?>
<model ref="r:3c601dd3-56a8-40ab-a417-66a36a925be1(MetaJade.core.editor)">
  <persistence version="9" />
  <languages>
    <use id="18bc6592-03a6-4e29-a83a-7ff23bde13ba" name="jetbrains.mps.lang.editor" version="14" />
    <use id="aee9cad2-acd4-4608-aef2-0004f6a1cdbd" name="jetbrains.mps.lang.actions" version="4" />
    <use id="9d69e719-78c8-4286-90db-fb19c107d049" name="com.mbeddr.mpsutil.grammarcells" version="2" />
    <devkit ref="fbc25dd2-5da4-483a-8b19-70928e1b62d7(jetbrains.mps.devkit.general-purpose)" />
  </languages>
  <imports>
    <import index="700h" ref="r:61b1de80-490d-4fee-8e95-b956503290e9(org.iets3.core.expr.collections.structure)" />
    <import index="tpco" ref="r:00000000-0000-4000-0000-011c89590284(jetbrains.mps.lang.core.editor)" />
    <import index="itrz" ref="r:80fb0853-eb3b-4e84-aebd-cc7fdb011d97(org.iets3.core.base.editor)" />
    <import index="zzzn" ref="r:af0af2e7-f7e1-4536-83b5-6bf010d4afd2(org.iets3.core.expr.lambda.structure)" />
    <import index="hm2y" ref="r:66e07cb4-a4b0-4bf3-a36d-5e9ed1ff1bd3(org.iets3.core.expr.base.structure)" />
    <import index="oq0c" ref="r:6c6155f0-4bbe-4af5-8c26-244d570e21e4(org.iets3.core.expr.base.plugin)" />
    <import index="yv47" ref="r:da65683e-ff6f-430d-ab68-32a77df72c93(org.iets3.core.expr.toplevel.structure)" />
    <import index="av4b" ref="r:ba7faab6-2b80-43d5-8b95-0c440665312c(org.iets3.core.expr.tests.structure)" />
    <import index="rie3" ref="r:ec4fadfa-b752-42e1-9d44-ff41929cb381(org.iets3.core.expr.tests.editor)" />
    <import index="os74" ref="r:0a69036a-4d31-45e1-887d-acbe5b8039f5(MetaJade.core.structure)" />
    <import index="m999" ref="r:1d6bd88a-7393-4b32-b0e6-2d8b3094776e(org.iets3.core.expr.toplevel.editor)" />
    <import index="z60i" ref="6354ebe7-c22a-4a0f-ac54-50b52ab9b065/java:java.awt(JDK/)" />
    <import index="r4b4" ref="r:1784e088-20fd-4fdb-96b8-bc57f0056d94(com.mbeddr.core.base.editor)" />
    <import index="wtll" ref="r:142b83fd-ec1c-45fe-a1a4-55a13210bd7b(org.iets3.core.expr.repl.structure)" />
    <import index="8lgj" ref="r:69a1255c-62e5-4b5d-ae54-d3a534a3ad07(org.iets3.core.expr.mutable.structure)" />
    <import index="5qo5" ref="r:6d93ddb1-b0b0-4eee-8079-51303666672a(org.iets3.core.expr.simpleTypes.structure)" />
    <import index="av1m" ref="1ed103c3-3aa6-49b7-9c21-6765ee11f224/java:jetbrains.mps.openapi.editor.menus.style(MPS.Editor/)" />
    <import index="fulz" ref="r:6f792c44-2a5d-40e8-9f05-33f7d4ae26ec(jetbrains.mps.editor.runtime.completion)" />
    <import index="tpck" ref="r:00000000-0000-4000-0000-011c89590288(jetbrains.mps.lang.core.structure)" implicit="true" />
    <import index="gv6i" ref="r:9bc9d7aa-ccc3-46bd-805d-a743ad42928e(MetaJade.behaviour.structure)" implicit="true" />
  </imports>
  <registry>
    <language id="18bc6592-03a6-4e29-a83a-7ff23bde13ba" name="jetbrains.mps.lang.editor">
      <concept id="5991739802479784073" name="jetbrains.mps.lang.editor.structure.MenuTypeDefault" flags="ng" index="22hDWj" />
      <concept id="2000375450116423800" name="jetbrains.mps.lang.editor.structure.SubstituteMenu" flags="ng" index="22mcaB" />
      <concept id="1071666914219" name="jetbrains.mps.lang.editor.structure.ConceptEditorDeclaration" flags="ig" index="24kQdi">
        <child id="2597348684684069742" name="contextHints" index="CpUAK" />
      </concept>
      <concept id="1176897764478" name="jetbrains.mps.lang.editor.structure.QueryFunction_NodeFactory" flags="in" index="4$FPG" />
      <concept id="1226339813308" name="jetbrains.mps.lang.editor.structure.PaddingBottomStyleClassItem" flags="ln" index="27z8qx" />
      <concept id="6822301196700715228" name="jetbrains.mps.lang.editor.structure.ConceptEditorHintDeclarationReference" flags="ig" index="2aJ2om">
        <reference id="5944657839026714445" name="hint" index="2$4xQ3" />
      </concept>
      <concept id="1140524381322" name="jetbrains.mps.lang.editor.structure.CellModel_ListWithRole" flags="ng" index="2czfm3">
        <property id="1140524450557" name="separatorText" index="2czwfO" />
        <child id="1176897874615" name="nodeFactory" index="4_6I_" />
        <child id="1140524464360" name="cellLayout" index="2czzBx" />
        <child id="1140524464359" name="emptyCellModel" index="2czzBI" />
      </concept>
      <concept id="1078308402140" name="jetbrains.mps.lang.editor.structure.CellModel_Custom" flags="sg" stub="8104358048506730068" index="gc7cB">
        <child id="1176795024817" name="cellProvider" index="3YsKMw" />
      </concept>
      <concept id="1106270549637" name="jetbrains.mps.lang.editor.structure.CellLayout_Horizontal" flags="nn" index="2iRfu4" />
      <concept id="1106270571710" name="jetbrains.mps.lang.editor.structure.CellLayout_Vertical" flags="nn" index="2iRkQZ" />
      <concept id="1237303669825" name="jetbrains.mps.lang.editor.structure.CellLayout_Indent" flags="nn" index="l2Vlx" />
      <concept id="1237307900041" name="jetbrains.mps.lang.editor.structure.IndentLayoutIndentStyleClassItem" flags="ln" index="lj46D" />
      <concept id="1142886221719" name="jetbrains.mps.lang.editor.structure.QueryFunction_NodeCondition" flags="in" index="pkWqt" />
      <concept id="1142886811589" name="jetbrains.mps.lang.editor.structure.ConceptFunctionParameter_node" flags="nn" index="pncrf" />
      <concept id="1237385578942" name="jetbrains.mps.lang.editor.structure.IndentLayoutOnNewLineStyleClassItem" flags="ln" index="pVoyu" />
      <concept id="4242538589859161874" name="jetbrains.mps.lang.editor.structure.ExplicitHintsSpecification" flags="ng" index="2w$q5c">
        <child id="4242538589859162459" name="hints" index="2w$qW5" />
      </concept>
      <concept id="1080736578640" name="jetbrains.mps.lang.editor.structure.BaseEditorComponent" flags="ig" index="2wURMF">
        <child id="1080736633877" name="cellModel" index="2wV5jI" />
      </concept>
      <concept id="5944657839000868711" name="jetbrains.mps.lang.editor.structure.ConceptEditorContextHints" flags="ig" index="2ABfQD">
        <child id="5944657839000877563" name="hints" index="2ABdcP" />
      </concept>
      <concept id="5944657839003601246" name="jetbrains.mps.lang.editor.structure.ConceptEditorHintDeclaration" flags="ig" index="2BsEeg">
        <property id="168363875802087287" name="showInUI" index="2gpH_U" />
        <property id="5944657839012629576" name="presentation" index="2BUmq6" />
      </concept>
      <concept id="7250830207897895674" name="jetbrains.mps.lang.editor.structure.CompletionCustomizationContextSpecificator_Concept" flags="ng" index="KNhPi">
        <reference id="9115396979021131941" name="conceptDeclaration" index="2RIln$" />
      </concept>
      <concept id="7250830207897895678" name="jetbrains.mps.lang.editor.structure.CompletionCustomizationConceptCreatingSpecificator" flags="ng" index="KNhPm" />
      <concept id="1160493135005" name="jetbrains.mps.lang.editor.structure.CellMenuPart_PropertyValues_GetValues" flags="in" index="MLZmj" />
      <concept id="1164824717996" name="jetbrains.mps.lang.editor.structure.CellMenuDescriptor" flags="ng" index="OXEIz">
        <child id="1164824815888" name="cellMenuPart" index="OY2wv" />
      </concept>
      <concept id="1164833692343" name="jetbrains.mps.lang.editor.structure.CellMenuPart_PropertyValues" flags="ng" index="PvTIS">
        <child id="1164833692344" name="valuesFunction" index="PvTIR" />
      </concept>
      <concept id="1078938745671" name="jetbrains.mps.lang.editor.structure.EditorComponentDeclaration" flags="ig" index="PKFIW" />
      <concept id="1078939183254" name="jetbrains.mps.lang.editor.structure.CellModel_Component" flags="sg" stub="3162947552742194261" index="PMmxH">
        <reference id="1078939183255" name="editorComponent" index="PMmxG" />
      </concept>
      <concept id="1186402211651" name="jetbrains.mps.lang.editor.structure.StyleSheet" flags="ng" index="V5hpn">
        <child id="1186402402630" name="styles" index="V601i" />
      </concept>
      <concept id="1186403694788" name="jetbrains.mps.lang.editor.structure.ColorStyleClassItem" flags="ln" index="VaVBg">
        <property id="1186403713874" name="color" index="Vb096" />
      </concept>
      <concept id="1186403751766" name="jetbrains.mps.lang.editor.structure.FontStyleStyleClassItem" flags="ln" index="Vb9p2">
        <property id="1186403771423" name="style" index="Vbekb" />
        <child id="1220975211821" name="query" index="17MNgL" />
      </concept>
      <concept id="1186404549998" name="jetbrains.mps.lang.editor.structure.ForegroundColorStyleClassItem" flags="ln" index="VechU" />
      <concept id="1186414536763" name="jetbrains.mps.lang.editor.structure.BooleanStyleSheetItem" flags="ln" index="VOi$J">
        <property id="1186414551515" name="flag" index="VOm3f" />
        <child id="1223387335081" name="query" index="3n$kyP" />
      </concept>
      <concept id="1186414860679" name="jetbrains.mps.lang.editor.structure.EditableStyleClassItem" flags="ln" index="VPxyj" />
      <concept id="1186414928363" name="jetbrains.mps.lang.editor.structure.SelectableStyleSheetItem" flags="ln" index="VPM3Z" />
      <concept id="1186415722038" name="jetbrains.mps.lang.editor.structure.FontSizeStyleClassItem" flags="ln" index="VSNWy">
        <property id="1221209241505" name="value" index="1lJzqX" />
      </concept>
      <concept id="1630016958697344083" name="jetbrains.mps.lang.editor.structure.IMenu_Concept" flags="ng" index="2ZABuq">
        <reference id="6591946374543067572" name="conceptDeclaration" index="aqKnT" />
        <child id="5991739802479788259" name="type" index="22hAXT" />
      </concept>
      <concept id="1233758997495" name="jetbrains.mps.lang.editor.structure.PunctuationLeftStyleClassItem" flags="ln" index="11L4FC" />
      <concept id="1233759184865" name="jetbrains.mps.lang.editor.structure.PunctuationRightStyleClassItem" flags="ln" index="11LMrY" />
      <concept id="3383245079137382180" name="jetbrains.mps.lang.editor.structure.StyleClass" flags="ig" index="14StLt" />
      <concept id="1220974635399" name="jetbrains.mps.lang.editor.structure.QueryFunction_FontStyle" flags="in" index="17KAyr" />
      <concept id="3360401466585705291" name="jetbrains.mps.lang.editor.structure.CellModel_ContextAssistant" flags="ng" index="18a60v" />
      <concept id="7818019076292260194" name="jetbrains.mps.lang.editor.structure.CompletionStyling" flags="ig" index="3dRTYf">
        <child id="7250830207897909099" name="specificator" index="KNiz3" />
        <child id="772883491827840107" name="customizeFunction" index="3l$a4r" />
      </concept>
      <concept id="1088013125922" name="jetbrains.mps.lang.editor.structure.CellModel_RefCell" flags="sg" stub="730538219795941030" index="1iCGBv">
        <child id="1088186146602" name="editorComponent" index="1sWHZn" />
      </concept>
      <concept id="1381004262292414836" name="jetbrains.mps.lang.editor.structure.ICellStyle" flags="ng" index="1k5N5V">
        <reference id="1381004262292426837" name="parentStyleClass" index="1k5W1q" />
      </concept>
      <concept id="772883491827578824" name="jetbrains.mps.lang.editor.structure.CompletionCustomization_CustomizeFunction" flags="ig" index="3lBaaS" />
      <concept id="772883491827671409" name="jetbrains.mps.lang.editor.structure.ConceptFunctionParameterCustomize_CompletionItemInformation" flags="ng" index="3lBNg1" />
      <concept id="772883491827671446" name="jetbrains.mps.lang.editor.structure.ConceptFunctionParameterCustomize_Style" flags="ng" index="3lBNjA" />
      <concept id="1223387125302" name="jetbrains.mps.lang.editor.structure.QueryFunction_Boolean" flags="in" index="3nzxsE" />
      <concept id="1088185857835" name="jetbrains.mps.lang.editor.structure.InlineEditorComponent" flags="ig" index="1sVBvm" />
      <concept id="9122903797312246523" name="jetbrains.mps.lang.editor.structure.StyleReference" flags="ng" index="1wgc9g">
        <reference id="9122903797312247166" name="style" index="1wgcnl" />
      </concept>
      <concept id="1215007762405" name="jetbrains.mps.lang.editor.structure.FloatStyleClassItem" flags="ln" index="3$6MrZ">
        <property id="1215007802031" name="value" index="3$6WeP" />
      </concept>
      <concept id="1215007897487" name="jetbrains.mps.lang.editor.structure.PaddingRightStyleClassItem" flags="ln" index="3$7jql" />
      <concept id="1139848536355" name="jetbrains.mps.lang.editor.structure.CellModel_WithRole" flags="ng" index="1$h60E">
        <property id="1139852716018" name="noTargetText" index="1$x2rV" />
        <property id="1140017977771" name="readOnly" index="1Intyy" />
        <reference id="1140103550593" name="relationDeclaration" index="1NtTu8" />
      </concept>
      <concept id="1073389214265" name="jetbrains.mps.lang.editor.structure.EditorCellModel" flags="ng" index="3EYTF0">
        <reference id="1139959269582" name="actionMap" index="1ERwB7" />
        <child id="1142887637401" name="renderingCondition" index="pqm2j" />
        <child id="1164826688380" name="menuDescriptor" index="P5bDN" />
      </concept>
      <concept id="1073389446423" name="jetbrains.mps.lang.editor.structure.CellModel_Collection" flags="sn" stub="3013115976261988961" index="3EZMnI">
        <child id="1106270802874" name="cellLayout" index="2iSdaV" />
        <child id="1073389446424" name="childCellModel" index="3EZMnx" />
      </concept>
      <concept id="1073389577006" name="jetbrains.mps.lang.editor.structure.CellModel_Constant" flags="sn" stub="3610246225209162225" index="3F0ifn">
        <property id="1082639509531" name="nullText" index="ilYzB" />
        <property id="1073389577007" name="text" index="3F0ifm" />
      </concept>
      <concept id="1073389658414" name="jetbrains.mps.lang.editor.structure.CellModel_Property" flags="sg" stub="730538219796134133" index="3F0A7n" />
      <concept id="1219418625346" name="jetbrains.mps.lang.editor.structure.IStyleContainer" flags="ng" index="3F0Thp">
        <child id="1219418656006" name="styleItem" index="3F10Kt" />
      </concept>
      <concept id="1073389882823" name="jetbrains.mps.lang.editor.structure.CellModel_RefNode" flags="sg" stub="730538219795960754" index="3F1sOY">
        <child id="5861024100072578575" name="addHints" index="3xwHhi" />
      </concept>
      <concept id="1073390211982" name="jetbrains.mps.lang.editor.structure.CellModel_RefNodeList" flags="sg" stub="2794558372793454595" index="3F2HdR">
        <child id="7279578193766667846" name="addHints" index="78xua" />
      </concept>
      <concept id="1163613822479" name="jetbrains.mps.lang.editor.structure.CellMenuPart_Abstract_editedNode" flags="nn" index="3GMtW1" />
      <concept id="625126330682908270" name="jetbrains.mps.lang.editor.structure.CellModel_ReferencePresentation" flags="sg" stub="730538219795961225" index="3SHvHV" />
      <concept id="1176749715029" name="jetbrains.mps.lang.editor.structure.QueryFunction_CellProvider" flags="in" index="3VJUX4" />
      <concept id="1950447826681509042" name="jetbrains.mps.lang.editor.structure.ApplyStyleClass" flags="lg" index="3Xmtl4">
        <child id="1950447826683828796" name="target" index="3XvnJa" />
      </concept>
      <concept id="1198256887712" name="jetbrains.mps.lang.editor.structure.CellModel_Indent" flags="ng" index="3XFhqQ" />
      <concept id="1166049232041" name="jetbrains.mps.lang.editor.structure.AbstractComponent" flags="ng" index="1XWOmA">
        <reference id="1166049300910" name="conceptDeclaration" index="1XX52x" />
      </concept>
    </language>
    <language id="f3061a53-9226-4cc5-a443-f952ceaf5816" name="jetbrains.mps.baseLanguage">
      <concept id="1202948039474" name="jetbrains.mps.baseLanguage.structure.InstanceMethodCallOperation" flags="nn" index="liA8E" />
      <concept id="1197027756228" name="jetbrains.mps.baseLanguage.structure.DotExpression" flags="nn" index="2OqwBi">
        <child id="1197027771414" name="operand" index="2Oq$k0" />
        <child id="1197027833540" name="operation" index="2OqNvi" />
      </concept>
      <concept id="1145552977093" name="jetbrains.mps.baseLanguage.structure.GenericNewExpression" flags="nn" index="2ShNRf">
        <child id="1145553007750" name="creator" index="2ShVmc" />
      </concept>
      <concept id="1137021947720" name="jetbrains.mps.baseLanguage.structure.ConceptFunction" flags="in" index="2VMwT0">
        <child id="1137022507850" name="body" index="2VODD2" />
      </concept>
      <concept id="1070462154015" name="jetbrains.mps.baseLanguage.structure.StaticFieldDeclaration" flags="ig" index="Wx3nA" />
      <concept id="1070475926800" name="jetbrains.mps.baseLanguage.structure.StringLiteral" flags="nn" index="Xl_RD">
        <property id="1070475926801" name="value" index="Xl_RC" />
      </concept>
      <concept id="1081236700937" name="jetbrains.mps.baseLanguage.structure.StaticMethodCall" flags="nn" index="2YIFZM">
        <reference id="1144433194310" name="classConcept" index="1Pybhc" />
      </concept>
      <concept id="1070533707846" name="jetbrains.mps.baseLanguage.structure.StaticFieldReference" flags="nn" index="10M0yZ">
        <reference id="1144433057691" name="classifier" index="1PxDUh" />
      </concept>
      <concept id="1070534058343" name="jetbrains.mps.baseLanguage.structure.NullLiteral" flags="nn" index="10Nm6u" />
      <concept id="1068390468198" name="jetbrains.mps.baseLanguage.structure.ClassConcept" flags="ig" index="312cEu" />
      <concept id="1068431474542" name="jetbrains.mps.baseLanguage.structure.VariableDeclaration" flags="ng" index="33uBYm">
        <child id="1068431790190" name="initializer" index="33vP2m" />
      </concept>
      <concept id="1068498886296" name="jetbrains.mps.baseLanguage.structure.VariableReference" flags="nn" index="37vLTw">
        <reference id="1068581517664" name="variableDeclaration" index="3cqZAo" />
      </concept>
      <concept id="1225271283259" name="jetbrains.mps.baseLanguage.structure.NPEEqualsExpression" flags="nn" index="17R0WA" />
      <concept id="4972933694980447171" name="jetbrains.mps.baseLanguage.structure.BaseVariableDeclaration" flags="ng" index="19Szcq">
        <child id="5680397130376446158" name="type" index="1tU5fm" />
      </concept>
      <concept id="1068580123155" name="jetbrains.mps.baseLanguage.structure.ExpressionStatement" flags="nn" index="3clFbF">
        <child id="1068580123156" name="expression" index="3clFbG" />
      </concept>
      <concept id="1068580123159" name="jetbrains.mps.baseLanguage.structure.IfStatement" flags="nn" index="3clFbJ">
        <child id="1068580123160" name="condition" index="3clFbw" />
        <child id="1068580123161" name="ifTrue" index="3clFbx" />
      </concept>
      <concept id="1068580123136" name="jetbrains.mps.baseLanguage.structure.StatementList" flags="sn" stub="5293379017992965193" index="3clFbS">
        <child id="1068581517665" name="statement" index="3cqZAp" />
      </concept>
      <concept id="1068580320020" name="jetbrains.mps.baseLanguage.structure.IntegerConstant" flags="nn" index="3cmrfG">
        <property id="1068580320021" name="value" index="3cmrfH" />
      </concept>
      <concept id="1068581242878" name="jetbrains.mps.baseLanguage.structure.ReturnStatement" flags="nn" index="3cpWs6">
        <child id="1068581517676" name="expression" index="3cqZAk" />
      </concept>
      <concept id="1081516740877" name="jetbrains.mps.baseLanguage.structure.NotExpression" flags="nn" index="3fqX7Q">
        <child id="1081516765348" name="expression" index="3fr31v" />
      </concept>
      <concept id="1204053956946" name="jetbrains.mps.baseLanguage.structure.IMethodCall" flags="ng" index="1ndlxa">
        <reference id="1068499141037" name="baseMethodDeclaration" index="37wK5l" />
        <child id="1068499141038" name="actualArgument" index="37wK5m" />
      </concept>
      <concept id="1212685548494" name="jetbrains.mps.baseLanguage.structure.ClassCreator" flags="nn" index="1pGfFk" />
      <concept id="1107461130800" name="jetbrains.mps.baseLanguage.structure.Classifier" flags="ng" index="3pOWGL">
        <child id="5375687026011219971" name="member" index="jymVt" unordered="true" />
      </concept>
      <concept id="1081773326031" name="jetbrains.mps.baseLanguage.structure.BinaryOperation" flags="nn" index="3uHJSO">
        <child id="1081773367579" name="rightExpression" index="3uHU7w" />
        <child id="1081773367580" name="leftExpression" index="3uHU7B" />
      </concept>
      <concept id="1073239437375" name="jetbrains.mps.baseLanguage.structure.NotEqualsExpression" flags="nn" index="3y3z36" />
      <concept id="1178549954367" name="jetbrains.mps.baseLanguage.structure.IVisible" flags="ng" index="1B3ioH">
        <child id="1178549979242" name="visibility" index="1B3o_S" />
      </concept>
      <concept id="1146644602865" name="jetbrains.mps.baseLanguage.structure.PublicVisibility" flags="nn" index="3Tm1VV" />
    </language>
    <language id="9d69e719-78c8-4286-90db-fb19c107d049" name="com.mbeddr.mpsutil.grammarcells">
      <concept id="5083944728298846680" name="com.mbeddr.mpsutil.grammarcells.structure.OptionalCell" flags="ng" index="_tjkj">
        <child id="5083944728298846681" name="option" index="_tjki" />
        <child id="8945098465480008160" name="transformationText" index="ZWbT9" />
      </concept>
      <concept id="8945098465480383073" name="com.mbeddr.mpsutil.grammarcells.structure.OptionalCell_TransformationText" flags="ig" index="ZYGn8" />
      <concept id="7363578995839203705" name="com.mbeddr.mpsutil.grammarcells.structure.FlagCell" flags="sg" stub="1984422498400729024" index="1kHk_G" />
    </language>
    <language id="7866978e-a0f0-4cc7-81bc-4d213d9375e1" name="jetbrains.mps.lang.smodel">
      <concept id="1177026924588" name="jetbrains.mps.lang.smodel.structure.RefConcept_Reference" flags="nn" index="chp4Y">
        <reference id="1177026940964" name="conceptDeclaration" index="cht4Q" />
      </concept>
      <concept id="2644386474300074836" name="jetbrains.mps.lang.smodel.structure.ConceptIdRefExpression" flags="nn" index="35c_gC">
        <reference id="2644386474300074837" name="conceptDeclaration" index="35c_gD" />
      </concept>
      <concept id="6677504323281689838" name="jetbrains.mps.lang.smodel.structure.SConceptType" flags="in" index="3bZ5Sz" />
      <concept id="1139621453865" name="jetbrains.mps.lang.smodel.structure.Node_IsInstanceOfOperation" flags="nn" index="1mIQ4w">
        <child id="1177027386292" name="conceptArgument" index="cj9EA" />
      </concept>
      <concept id="1180636770613" name="jetbrains.mps.lang.smodel.structure.SNodeCreator" flags="nn" index="3zrR0B">
        <child id="1180636770616" name="createdType" index="3zrR0E" />
      </concept>
      <concept id="1138055754698" name="jetbrains.mps.lang.smodel.structure.SNodeType" flags="in" index="3Tqbb2">
        <reference id="1138405853777" name="concept" index="ehGHo" />
      </concept>
      <concept id="1138056022639" name="jetbrains.mps.lang.smodel.structure.SPropertyAccess" flags="nn" index="3TrcHB">
        <reference id="1138056395725" name="property" index="3TsBF5" />
      </concept>
      <concept id="1138056143562" name="jetbrains.mps.lang.smodel.structure.SLinkAccess" flags="nn" index="3TrEf2">
        <reference id="1138056516764" name="link" index="3Tt5mk" />
      </concept>
    </language>
    <language id="ceab5195-25ea-4f22-9b92-103b95ca8c0c" name="jetbrains.mps.lang.core">
      <concept id="1133920641626" name="jetbrains.mps.lang.core.structure.BaseConcept" flags="ng" index="2VYdi">
        <property id="1193676396447" name="virtualPackage" index="3GE5qa" />
      </concept>
      <concept id="1169194658468" name="jetbrains.mps.lang.core.structure.INamedConcept" flags="ng" index="TrEIO">
        <property id="1169194664001" name="name" index="TrG5h" />
      </concept>
    </language>
    <language id="83888646-71ce-4f1c-9c53-c54016f6ad4f" name="jetbrains.mps.baseLanguage.collections">
      <concept id="540871147943773365" name="jetbrains.mps.baseLanguage.collections.structure.SingleArgumentSequenceOperation" flags="nn" index="25WWJ4">
        <child id="540871147943773366" name="argument" index="25WWJ7" />
      </concept>
      <concept id="1151688443754" name="jetbrains.mps.baseLanguage.collections.structure.ListType" flags="in" index="_YKpA">
        <child id="1151688676805" name="elementType" index="_ZDj9" />
      </concept>
      <concept id="1237721394592" name="jetbrains.mps.baseLanguage.collections.structure.AbstractContainerCreator" flags="nn" index="HWqM0">
        <child id="1237721435808" name="initValue" index="HW$Y0" />
        <child id="1237721435807" name="elementType" index="HW$YZ" />
      </concept>
      <concept id="1160600644654" name="jetbrains.mps.baseLanguage.collections.structure.ListCreatorWithInit" flags="nn" index="Tc6Ow" />
      <concept id="1172254888721" name="jetbrains.mps.baseLanguage.collections.structure.ContainsOperation" flags="nn" index="3JPx81" />
    </language>
  </registry>
  <node concept="2ABfQD" id="3HAWN8I6gaB">
    <property role="TrG5h" value="CollectionsHints" />
    <property role="3GE5qa" value="hints.collections" />
    <node concept="2BsEeg" id="wO0wsRnNTe" role="2ABdcP">
      <property role="2gpH_U" value="true" />
      <property role="TrG5h" value="PseudocodeListPresentation" />
      <property role="2BUmq6" value="With List Pseudocode Presentation" />
    </node>
    <node concept="2BsEeg" id="2WQ3iBRGN5o" role="2ABdcP">
      <property role="2gpH_U" value="true" />
      <property role="TrG5h" value="PseudocodeSetPresentation" />
      <property role="2BUmq6" value="With Set Pseudocode Presentation" />
    </node>
    <node concept="2BsEeg" id="2WQ3iBRGNcR" role="2ABdcP">
      <property role="2gpH_U" value="true" />
      <property role="TrG5h" value="PseudocodeMapPresentation" />
      <property role="2BUmq6" value="With Map Pseudocode Presentation" />
    </node>
  </node>
  <node concept="24kQdi" id="2WQ3iBRGNcS">
    <property role="3GE5qa" value="hints.collections" />
    <ref role="1XX52x" to="700h:7kYh9WszdBQ" resolve="MapType" />
    <node concept="3EZMnI" id="7kYh9WszdCm" role="2wV5jI">
      <node concept="PMmxH" id="4_KMC82DZTM" role="3EZMnx">
        <ref role="1k5W1q" to="itrz:7D7uZV2g_XJ" resolve="iets3Type" />
        <ref role="PMmxG" to="tpco:2wZex4PafBj" resolve="alias" />
      </node>
      <node concept="3F0ifn" id="2WQ3iBRGNed" role="3EZMnx">
        <property role="3F0ifm" value="of" />
        <node concept="Vb9p2" id="2WQ3iBRHvAR" role="3F10Kt" />
        <node concept="VechU" id="2WQ3iBRHvAV" role="3F10Kt">
          <property role="Vb096" value="fLJRk5_/gray" />
        </node>
      </node>
      <node concept="3F1sOY" id="7kYh9WszdCz" role="3EZMnx">
        <ref role="1NtTu8" to="700h:7kYh9WszdBR" resolve="keyType" />
      </node>
      <node concept="3F0ifn" id="7kYh9WszdCF" role="3EZMnx">
        <property role="3F0ifm" value="," />
        <node concept="Vb9p2" id="2WQ3iBRHI2l" role="3F10Kt">
          <property role="Vbekb" value="g1_k_vY/BOLD" />
        </node>
        <node concept="VechU" id="2WQ3iBRHI2i" role="3F10Kt">
          <property role="Vb096" value="6cZGtrcKCoS/black" />
        </node>
        <node concept="11L4FC" id="7kYh9WszdHA" role="3F10Kt">
          <property role="VOm3f" value="true" />
        </node>
      </node>
      <node concept="3F1sOY" id="7kYh9WszdCP" role="3EZMnx">
        <ref role="1NtTu8" to="700h:7kYh9WszdBT" resolve="valueType" />
      </node>
      <node concept="l2Vlx" id="7kuDSjsnPg3" role="2iSdaV" />
    </node>
    <node concept="2aJ2om" id="2WQ3iBRGNeb" role="CpUAK">
      <ref role="2$4xQ3" node="2WQ3iBRGNcR" resolve="PseudocodeMapPresentation" />
    </node>
  </node>
  <node concept="24kQdi" id="wO0wsRn2sQ">
    <property role="3GE5qa" value="hints.collections" />
    <ref role="1XX52x" to="700h:6zmBjqUinsw" resolve="ListType" />
    <node concept="2aJ2om" id="wO0wsRnNOX" role="CpUAK">
      <ref role="2$4xQ3" node="wO0wsRnNTe" resolve="PseudocodeListPresentation" />
    </node>
    <node concept="3EZMnI" id="6zmBjqUintF" role="2wV5jI">
      <node concept="3F0ifn" id="4iLN_rFH1$Z" role="3EZMnx">
        <property role="3F0ifm" value="list" />
        <ref role="1k5W1q" to="itrz:7D7uZV2g_XJ" resolve="iets3Type" />
      </node>
      <node concept="3F0ifn" id="wO0wsRnO1z" role="3EZMnx">
        <property role="3F0ifm" value="of" />
        <node concept="Vb9p2" id="7kuDSjszFT_" role="3F10Kt" />
        <node concept="VechU" id="7kuDSjszFTA" role="3F10Kt">
          <property role="Vb096" value="fLJRk5_/gray" />
        </node>
      </node>
      <node concept="3F1sOY" id="6zmBjqUintJ" role="3EZMnx">
        <ref role="1NtTu8" to="700h:6zmBjqUily6" resolve="baseType" />
      </node>
      <node concept="_tjkj" id="3tudP__qJOE" role="3EZMnx">
        <node concept="3F1sOY" id="3tudP__qJOF" role="_tjki">
          <ref role="1NtTu8" to="700h:3tudP__pYOT" resolve="sizeConstraint" />
          <node concept="11L4FC" id="3tudP__qJOG" role="3F10Kt">
            <property role="VOm3f" value="true" />
          </node>
        </node>
        <node concept="ZYGn8" id="3tudP__qJOH" role="ZWbT9">
          <node concept="3clFbS" id="3tudP__qJOI" role="2VODD2">
            <node concept="3clFbF" id="3tudP__qJOJ" role="3cqZAp">
              <node concept="Xl_RD" id="3tudP__qJOK" role="3clFbG">
                <property role="Xl_RC" value="[" />
              </node>
            </node>
          </node>
        </node>
      </node>
      <node concept="l2Vlx" id="7kuDSjsnPfO" role="2iSdaV" />
    </node>
  </node>
  <node concept="24kQdi" id="2WQ3iBRGN5p">
    <property role="3GE5qa" value="hints.collections" />
    <ref role="1XX52x" to="700h:7GwCuf2Wbm7" resolve="SetType" />
    <node concept="2aJ2om" id="2WQ3iBRGN5r" role="CpUAK">
      <ref role="2$4xQ3" node="2WQ3iBRGN5o" resolve="PseudocodeSetPresentation" />
    </node>
    <node concept="3EZMnI" id="6DR5zXWAe8g" role="2wV5jI">
      <node concept="PMmxH" id="6QPHMFf0TrI" role="3EZMnx">
        <ref role="PMmxG" to="tpco:2wZex4PafBj" resolve="alias" />
        <ref role="1k5W1q" to="itrz:7D7uZV2g_XJ" resolve="iets3Type" />
      </node>
      <node concept="3F0ifn" id="2WQ3iBRGNaj" role="3EZMnx">
        <property role="3F0ifm" value="of" />
        <node concept="Vb9p2" id="7kuDSjszFSg" role="3F10Kt" />
        <node concept="VechU" id="7kuDSjszFSh" role="3F10Kt">
          <property role="Vb096" value="fLJRk5_/gray" />
        </node>
      </node>
      <node concept="3F1sOY" id="6DR5zXWAe8n" role="3EZMnx">
        <ref role="1NtTu8" to="700h:6zmBjqUily6" resolve="baseType" />
      </node>
      <node concept="l2Vlx" id="7kuDSjsnPgg" role="2iSdaV" />
    </node>
  </node>
  <node concept="V5hpn" id="2WQ3iBR4gzq">
    <property role="TrG5h" value="Code_Style" />
    <node concept="14StLt" id="2WQ3iBR5Hx0" role="V601i">
      <property role="TrG5h" value="metajadeType" />
      <node concept="3Xmtl4" id="2WQ3iBR5Hx2" role="3F10Kt">
        <node concept="1wgc9g" id="2WQ3iBR5Hx3" role="3XvnJa">
          <ref role="1wgcnl" to="itrz:7D7uZV2g_XJ" resolve="iets3Type" />
        </node>
      </node>
    </node>
    <node concept="14StLt" id="7kuDSjsqD3B" role="V601i">
      <property role="TrG5h" value="metajadeKeyword" />
      <node concept="3Xmtl4" id="7kuDSjsqD3Q" role="3F10Kt">
        <node concept="1wgc9g" id="7kuDSjsqD3S" role="3XvnJa">
          <ref role="1wgcnl" to="itrz:4rZeNQ6MfR7" resolve="iets3Keyword" />
        </node>
      </node>
    </node>
    <node concept="14StLt" id="5PmnIeGXqcA" role="V601i">
      <property role="TrG5h" value="metajadeComment" />
      <node concept="Vb9p2" id="5PmnIeGYqyQ" role="3F10Kt" />
      <node concept="VechU" id="5PmnIeGYqz0" role="3F10Kt">
        <property role="Vb096" value="fLJRk5_/gray" />
      </node>
    </node>
    <node concept="14StLt" id="3JB$QJ89Iu0" role="V601i">
      <property role="TrG5h" value="virtualSpace" />
      <node concept="27z8qx" id="3JB$QJ89kAe" role="3F10Kt">
        <property role="3$6WeP" value="50" />
      </node>
      <node concept="VPM3Z" id="3JB$QJ89Iug" role="3F10Kt" />
    </node>
  </node>
  <node concept="2ABfQD" id="7cuAgGgXqbX">
    <property role="3GE5qa" value="hints.localval" />
    <property role="TrG5h" value="LocalValExpressionHints" />
    <node concept="2BsEeg" id="7cuAgGgXqbY" role="2ABdcP">
      <property role="2gpH_U" value="true" />
      <property role="TrG5h" value="PseudocodeLocalValPresentation" />
      <property role="2BUmq6" value="With Local ValExpr Pseudocode Presentation" />
    </node>
  </node>
  <node concept="24kQdi" id="7cuAgGgZ32e">
    <property role="3GE5qa" value="hints.localval" />
    <ref role="1XX52x" to="zzzn:49WTic8ix6I" resolve="ValExpression" />
    <node concept="2aJ2om" id="7cuAgGgZ32g" role="CpUAK">
      <ref role="2$4xQ3" node="7cuAgGgXqbY" resolve="PseudocodeLocalValPresentation" />
    </node>
    <node concept="3EZMnI" id="49WTic8ix7d" role="2wV5jI">
      <node concept="l2Vlx" id="49WTic8ix7e" role="2iSdaV" />
      <node concept="3F0ifn" id="49WTic8ix7j" role="3EZMnx">
        <property role="3F0ifm" value="val" />
        <ref role="1k5W1q" node="7kuDSjsqD3B" resolve="metajadeKeyword" />
      </node>
      <node concept="3F0A7n" id="49WTic8ix7p" role="3EZMnx">
        <ref role="1NtTu8" to="tpck:h0TrG11" resolve="name" />
        <node concept="OXEIz" id="UwUtc1Ii5F" role="P5bDN">
          <node concept="PvTIS" id="UwUtc1oj6x" role="OY2wv">
            <node concept="MLZmj" id="UwUtc1oj6y" role="PvTIR">
              <node concept="3clFbS" id="UwUtc1oj6z" role="2VODD2">
                <node concept="3clFbF" id="UwUtc1vXWO" role="3cqZAp">
                  <node concept="2YIFZM" id="UwUtc1smm3" role="3clFbG">
                    <ref role="37wK5l" to="oq0c:UwUtc1okvZ" resolve="proposals" />
                    <ref role="1Pybhc" to="oq0c:UwUtc1nzGQ" resolve="NC" />
                    <node concept="3GMtW1" id="UwUtc1smm4" role="37wK5m" />
                    <node concept="2OqwBi" id="UwUtc1smm5" role="37wK5m">
                      <node concept="3GMtW1" id="UwUtc1smm6" role="2Oq$k0" />
                      <node concept="3TrcHB" id="UwUtc1smm7" role="2OqNvi">
                        <ref role="3TsBF5" to="tpck:h0TrG11" resolve="name" />
                      </node>
                    </node>
                  </node>
                </node>
              </node>
            </node>
          </node>
        </node>
      </node>
      <node concept="_tjkj" id="69zaTr1ELbW" role="3EZMnx">
        <node concept="3EZMnI" id="69zaTr1ELc6" role="_tjki">
          <node concept="3F0ifn" id="69zaTr1ELcf" role="3EZMnx">
            <property role="3F0ifm" value="of type" />
            <ref role="1k5W1q" node="5PmnIeGXqcA" resolve="metajadeComment" />
          </node>
          <node concept="3F1sOY" id="69zaTr1ELcl" role="3EZMnx">
            <ref role="1NtTu8" to="hm2y:69zaTr1EKHX" resolve="type" />
          </node>
          <node concept="l2Vlx" id="7DVIKqRy3hg" role="2iSdaV" />
        </node>
        <node concept="ZYGn8" id="1MgVVihv2tc" role="ZWbT9">
          <node concept="3clFbS" id="1MgVVihv2td" role="2VODD2">
            <node concept="3clFbF" id="1MgVVihv2tn" role="3cqZAp">
              <node concept="Xl_RD" id="1MgVVihv2tm" role="3clFbG">
                <property role="Xl_RC" value="of" />
              </node>
            </node>
          </node>
        </node>
      </node>
      <node concept="3F0ifn" id="49WTic8ix7x" role="3EZMnx">
        <property role="3F0ifm" value="as" />
        <ref role="1k5W1q" node="5PmnIeGXqcA" resolve="metajadeComment" />
      </node>
      <node concept="3F1sOY" id="49WTic8ix7F" role="3EZMnx">
        <ref role="1NtTu8" to="zzzn:49WTic8ix6L" resolve="expr" />
      </node>
    </node>
  </node>
  <node concept="24kQdi" id="2tMu91EWsLH">
    <property role="3GE5qa" value="" />
    <ref role="1XX52x" to="os74:2tMu91EWsLG" resolve="TestSuite" />
    <node concept="3EZMnI" id="2tMu91EYQxe" role="2wV5jI">
      <node concept="2iRkQZ" id="2tMu91EYQxf" role="2iSdaV" />
      <node concept="PMmxH" id="1mu$Ayqm_bP" role="3EZMnx">
        <ref role="PMmxG" to="rie3:6vTsh3ZZ$b7" resolve="testStatus" />
      </node>
      <node concept="3EZMnI" id="2tMu91EWsLM" role="3EZMnx">
        <node concept="l2Vlx" id="2tMu91EWsLN" role="2iSdaV" />
        <node concept="3F0ifn" id="7dT_6n14ziT" role="3EZMnx">
          <property role="3F0ifm" value="test suite" />
          <ref role="1k5W1q" node="7kuDSjsqD3B" resolve="metajadeKeyword" />
          <node concept="VSNWy" id="7dT_6n15lp1" role="3F10Kt">
            <property role="1lJzqX" value="21" />
          </node>
          <node concept="VPM3Z" id="7dT_6n15lp6" role="3F10Kt" />
        </node>
        <node concept="3F0A7n" id="2tMu91EWsLX" role="3EZMnx">
          <ref role="1NtTu8" to="tpck:h0TrG11" resolve="name" />
          <node concept="VSNWy" id="1mu$Ayqwygy" role="3F10Kt">
            <property role="1lJzqX" value="21" />
          </node>
        </node>
      </node>
      <node concept="3F0ifn" id="2tMu91Fb_op" role="3EZMnx">
        <node concept="VPM3Z" id="2tMu91Fb_oM" role="3F10Kt" />
      </node>
      <node concept="3EZMnI" id="6HHp2WmWVic" role="3EZMnx">
        <node concept="2iRkQZ" id="6HHp2WmWVid" role="2iSdaV" />
        <node concept="3EZMnI" id="7m_MLaK8Fm2" role="3EZMnx">
          <node concept="3XFhqQ" id="1mu$Ayqop67" role="3EZMnx" />
          <node concept="3F0ifn" id="7m_MLaK8Fm4" role="3EZMnx">
            <property role="3F0ifm" value="show types             " />
          </node>
          <node concept="3F0ifn" id="7dT_6n1rLzo" role="3EZMnx">
            <property role="3F0ifm" value=":" />
          </node>
          <node concept="3F0A7n" id="7m_MLaK8Fm5" role="3EZMnx">
            <ref role="1NtTu8" to="av4b:7m_MLaK8FlX" resolve="showTypes" />
          </node>
          <node concept="l2Vlx" id="1mu$Ayqop5P" role="2iSdaV" />
        </node>
        <node concept="3EZMnI" id="6HHp2WmWVoa" role="3EZMnx">
          <node concept="3XFhqQ" id="1mu$Ayqop6g" role="3EZMnx" />
          <node concept="3F0ifn" id="6HHp2WmWVoc" role="3EZMnx">
            <property role="3F0ifm" value="only local declarations" />
          </node>
          <node concept="3F0ifn" id="7dT_6n1rLzz" role="3EZMnx">
            <property role="3F0ifm" value=":" />
          </node>
          <node concept="3F0A7n" id="6HHp2WmWVod" role="3EZMnx">
            <ref role="1NtTu8" to="av4b:6HHp2WmWVi9" resolve="referenceOnlyLocalStuff" />
          </node>
          <node concept="l2Vlx" id="1mu$Ayqop5T" role="2iSdaV" />
        </node>
        <node concept="3EZMnI" id="1KPsfaLHyY0" role="3EZMnx">
          <node concept="3XFhqQ" id="1mu$Ayqop6r" role="3EZMnx" />
          <node concept="3F0ifn" id="1KPsfaLHyY2" role="3EZMnx">
            <property role="3F0ifm" value="inherit scope from     " />
          </node>
          <node concept="3F0ifn" id="7dT_6n1rLzK" role="3EZMnx">
            <property role="3F0ifm" value=":" />
          </node>
          <node concept="1iCGBv" id="1KPsfaLHzLs" role="3EZMnx">
            <ref role="1NtTu8" to="av4b:1KPsfaLHqZZ" resolve="scoper" />
            <node concept="1sVBvm" id="1KPsfaLHzLu" role="1sWHZn">
              <node concept="3SHvHV" id="1KPsfaLHzLA" role="2wV5jI" />
            </node>
          </node>
          <node concept="l2Vlx" id="1mu$Ayqop5X" role="2iSdaV" />
        </node>
      </node>
      <node concept="3F0ifn" id="1mu$AyqmHjF" role="3EZMnx">
        <node concept="VPM3Z" id="1mu$AyqmHjG" role="3F10Kt" />
      </node>
      <node concept="3EZMnI" id="2tMu91F9v66" role="3EZMnx">
        <node concept="2iRkQZ" id="2tMu91F9v67" role="2iSdaV" />
        <node concept="3EZMnI" id="2tMu91F9v6t" role="3EZMnx">
          <node concept="3XFhqQ" id="2tMu91F9v6D" role="3EZMnx" />
          <node concept="3F2HdR" id="1mu$Ayqm_ei" role="3EZMnx">
            <ref role="1NtTu8" to="av4b:ub9nkyK62i" resolve="contents" />
            <node concept="2iRkQZ" id="1mu$Ayqm_eo" role="2czzBx" />
            <node concept="4$FPG" id="1mu$Ayqm_es" role="4_6I_">
              <node concept="3clFbS" id="1mu$Ayqm_et" role="2VODD2">
                <node concept="3clFbF" id="1mu$Ayqm_gs" role="3cqZAp">
                  <node concept="2ShNRf" id="1mu$Ayqm_gq" role="3clFbG">
                    <node concept="3zrR0B" id="1mu$AyqmHfD" role="2ShVmc">
                      <node concept="3Tqbb2" id="1mu$AyqmHfF" role="3zrR0E">
                        <ref role="ehGHo" to="yv47:ub9nkyKjdj" resolve="EmptyToplevelContent" />
                      </node>
                    </node>
                  </node>
                </node>
              </node>
            </node>
            <node concept="3F0ifn" id="1mu$AyqmHj$" role="2czzBI">
              <node concept="VPxyj" id="1mu$AyqmHjD" role="3F10Kt">
                <property role="VOm3f" value="true" />
              </node>
            </node>
            <node concept="2w$q5c" id="1mu$Ayqq11L" role="78xua">
              <node concept="2aJ2om" id="2umCVQRue4i" role="2w$qW5">
                <ref role="2$4xQ3" node="3PPOQnmOdWB" resolve="FunctionPresentation" />
              </node>
              <node concept="2aJ2om" id="2umCVQRue4l" role="2w$qW5">
                <ref role="2$4xQ3" node="4YVd2MAQA35" resolve="PseudocodeConstant" />
              </node>
              <node concept="2aJ2om" id="2umCVQRue4p" role="2w$qW5">
                <ref role="2$4xQ3" node="7cuAgGgXqbY" resolve="PseudocodeLocalValPresentation" />
              </node>
            </node>
          </node>
          <node concept="l2Vlx" id="2tMu91F9v6u" role="2iSdaV" />
        </node>
      </node>
    </node>
  </node>
  <node concept="PKFIW" id="1mu$AyqjPJJ">
    <property role="TrG5h" value="DummyForGrammarCells" />
    <ref role="1XX52x" to="tpck:gw2VY9q" resolve="BaseConcept" />
    <node concept="3F0ifn" id="1mu$AyqjPJK" role="2wV5jI">
      <property role="3F0ifm" value="Workaround to fix contributions to BaseConcept generated by grammarCells." />
    </node>
  </node>
  <node concept="24kQdi" id="28q_2hFeqCP">
    <property role="3GE5qa" value="module" />
    <ref role="1XX52x" to="os74:28q_2hFej6t" resolve="Module" />
    <node concept="3EZMnI" id="3JB$QJ8aPjx" role="2wV5jI">
      <node concept="2iRkQZ" id="3JB$QJ8aPjy" role="2iSdaV" />
      <node concept="3EZMnI" id="28q_2hFeusQ" role="3EZMnx">
        <node concept="3EZMnI" id="28q_2hFeusX" role="3EZMnx">
          <node concept="VPM3Z" id="28q_2hFeusZ" role="3F10Kt" />
          <node concept="3F0ifn" id="28q_2hFeut8" role="3EZMnx">
            <property role="3F0ifm" value="module" />
            <ref role="1k5W1q" node="7kuDSjsqD3B" resolve="metajadeKeyword" />
            <node concept="VSNWy" id="28q_2hFuWXG" role="3F10Kt">
              <property role="1lJzqX" value="21" />
            </node>
            <node concept="VPM3Z" id="28q_2hFxsrJ" role="3F10Kt" />
          </node>
          <node concept="3F0A7n" id="28q_2hFeute" role="3EZMnx">
            <ref role="1NtTu8" to="tpck:h0TrG11" resolve="name" />
            <node concept="VSNWy" id="28q_2hFuWXI" role="3F10Kt">
              <property role="1lJzqX" value="21" />
            </node>
          </node>
          <node concept="l2Vlx" id="28q_2hFeut2" role="2iSdaV" />
        </node>
        <node concept="3F0ifn" id="28q_2hFuO2f" role="3EZMnx">
          <node concept="VPM3Z" id="28q_2hFuOgG" role="3F10Kt" />
        </node>
        <node concept="3EZMnI" id="4YVd2MB9$8K" role="3EZMnx">
          <node concept="3XFhqQ" id="4YVd2MB9$9h" role="3EZMnx" />
          <node concept="PMmxH" id="4YVd2MB9$9n" role="3EZMnx">
            <ref role="PMmxG" node="4YVd2MB9$6U" resolve="AbstractChunkFullImports_Component" />
          </node>
          <node concept="l2Vlx" id="4YVd2MB9$8P" role="2iSdaV" />
        </node>
        <node concept="3F0ifn" id="7dT_6n1vhsB" role="3EZMnx">
          <node concept="VPM3Z" id="7dT_6n1vht0" role="3F10Kt" />
        </node>
        <node concept="3F0ifn" id="28q_2hFuWWJ" role="3EZMnx">
          <node concept="VPM3Z" id="28q_2hFwoo4" role="3F10Kt" />
        </node>
        <node concept="3EZMnI" id="5rieTHdIyf0" role="3EZMnx">
          <node concept="3XFhqQ" id="5rieTHdIyic" role="3EZMnx" />
          <node concept="PMmxH" id="3PPOQnmI2VB" role="3EZMnx">
            <ref role="PMmxG" node="3PPOQnmI2QP" resolve="TopLevelExprContainer_Component" />
          </node>
          <node concept="l2Vlx" id="5rieTHdIyf1" role="2iSdaV" />
        </node>
        <node concept="2iRkQZ" id="28q_2hFeusT" role="2iSdaV" />
      </node>
    </node>
  </node>
  <node concept="PKFIW" id="3PPOQnmI2QP">
    <property role="TrG5h" value="TopLevelExprContainer_Component" />
    <property role="3GE5qa" value="toplevel" />
    <ref role="1XX52x" to="os74:3PPOQnmA6ox" resolve="ITopLevelExprContainer" />
    <node concept="3F2HdR" id="5rieTHdHoJc" role="2wV5jI">
      <ref role="1NtTu8" to="os74:1wDV7BCzfng" resolve="contents" />
      <node concept="2iRkQZ" id="5rieTHdHoJd" role="2czzBx" />
      <node concept="3F0ifn" id="5rieTHdHoJe" role="2czzBI">
        <property role="ilYzB" value="&lt;empty body&gt;" />
        <node concept="VPxyj" id="5rieTHdHoJf" role="3F10Kt">
          <property role="VOm3f" value="true" />
        </node>
      </node>
      <node concept="4$FPG" id="5rieTHdHoJg" role="4_6I_">
        <node concept="3clFbS" id="5rieTHdHoJh" role="2VODD2">
          <node concept="3clFbF" id="5rieTHdHoJi" role="3cqZAp">
            <node concept="2ShNRf" id="5rieTHdHoJj" role="3clFbG">
              <node concept="3zrR0B" id="5rieTHdHoJk" role="2ShVmc">
                <node concept="3Tqbb2" id="5rieTHdHoJl" role="3zrR0E">
                  <ref role="ehGHo" to="yv47:ub9nkyKjdj" resolve="EmptyToplevelContent" />
                </node>
              </node>
            </node>
          </node>
        </node>
      </node>
      <node concept="2w$q5c" id="1SvJ3Hz9eTW" role="78xua">
        <node concept="2aJ2om" id="1SvJ3Hz9eU0" role="2w$qW5">
          <ref role="2$4xQ3" node="4YVd2MAQA35" resolve="PseudocodeConstant" />
        </node>
        <node concept="2aJ2om" id="1SvJ3Hz9eU3" role="2w$qW5">
          <ref role="2$4xQ3" node="3PPOQnmOdWB" resolve="FunctionPresentation" />
        </node>
        <node concept="2aJ2om" id="6cOMG4RZnbU" role="2w$qW5">
          <ref role="2$4xQ3" node="2WQ3iBRGNcR" resolve="PseudocodeMapPresentation" />
        </node>
        <node concept="2aJ2om" id="6cOMG4RZnbY" role="2w$qW5">
          <ref role="2$4xQ3" node="2WQ3iBRGN5o" resolve="PseudocodeSetPresentation" />
        </node>
        <node concept="2aJ2om" id="6cOMG4RZnc3" role="2w$qW5">
          <ref role="2$4xQ3" node="wO0wsRnNTe" resolve="PseudocodeListPresentation" />
        </node>
      </node>
    </node>
  </node>
  <node concept="PKFIW" id="3PPOQnmJ82V">
    <property role="TrG5h" value="AbstractChunkImports_Component" />
    <property role="3GE5qa" value="chunk" />
    <ref role="1XX52x" to="os74:2tMu91FTK9z" resolve="AbstractChunk" />
    <node concept="3F2HdR" id="3PPOQnmJ83D" role="2wV5jI">
      <property role="2czwfO" value="," />
      <ref role="1NtTu8" to="os74:28q_2hFENgT" resolve="imports" />
      <node concept="3F0ifn" id="3PPOQnmJ83F" role="2czzBI">
        <property role="ilYzB" value="&lt;no dependencies&gt;" />
        <node concept="VPxyj" id="3PPOQnmJ83G" role="3F10Kt">
          <property role="VOm3f" value="true" />
        </node>
      </node>
      <node concept="l2Vlx" id="4YVd2MB6$Tq" role="2czzBx" />
    </node>
  </node>
  <node concept="2ABfQD" id="3PPOQnmOdWA">
    <property role="3GE5qa" value="hints.function" />
    <property role="TrG5h" value="Function" />
    <node concept="2BsEeg" id="3PPOQnmOdWB" role="2ABdcP">
      <property role="2gpH_U" value="true" />
      <property role="TrG5h" value="FunctionPresentation" />
      <property role="2BUmq6" value="With Function Presentation" />
    </node>
  </node>
  <node concept="24kQdi" id="3PPOQnmOdWD">
    <property role="3GE5qa" value="hints.function" />
    <ref role="1XX52x" to="yv47:49WTic8f4iz" resolve="Function" />
    <node concept="2aJ2om" id="3PPOQnmOdWF" role="CpUAK">
      <ref role="2$4xQ3" node="3PPOQnmOdWB" resolve="FunctionPresentation" />
    </node>
    <node concept="3EZMnI" id="49WTic8f4ou" role="2wV5jI">
      <node concept="l2Vlx" id="2PhSkOgg7II" role="2iSdaV" />
      <node concept="3EZMnI" id="1tPb0nsiq3J" role="3EZMnx">
        <node concept="VPM3Z" id="1tPb0nsiq3L" role="3F10Kt">
          <property role="VOm3f" value="false" />
        </node>
        <node concept="1kHk_G" id="2uR5X5azvkk" role="3EZMnx">
          <ref role="1k5W1q" to="itrz:4rZeNQ6MfR7" resolve="iets3Keyword" />
          <ref role="1NtTu8" to="zzzn:2uR5X5azvjH" resolve="ext" />
        </node>
        <node concept="3F0ifn" id="49WTic8f4or" role="3EZMnx">
          <property role="3F0ifm" value="fun" />
          <ref role="1k5W1q" to="itrz:4rZeNQ6MfR7" resolve="iets3Keyword" />
        </node>
        <node concept="3F0A7n" id="49WTic8f4tF" role="3EZMnx">
          <ref role="1NtTu8" to="tpck:h0TrG11" resolve="name" />
          <ref role="1k5W1q" to="itrz:ub9nkyQsN2" resolve="iets3Identifier" />
          <node concept="Vb9p2" id="2uR5X5b1JP3" role="3F10Kt">
            <property role="Vbekb" value="hL7GYu6/QUERY" />
            <node concept="17KAyr" id="2uR5X5b1JP6" role="17MNgL">
              <node concept="3clFbS" id="2uR5X5b1JP7" role="2VODD2">
                <node concept="3clFbJ" id="2uR5X5b1JRN" role="3cqZAp">
                  <node concept="2OqwBi" id="2uR5X5b1JY9" role="3clFbw">
                    <node concept="pncrf" id="2uR5X5b1JRZ" role="2Oq$k0" />
                    <node concept="3TrcHB" id="2uR5X5b1Kaq" role="2OqNvi">
                      <ref role="3TsBF5" to="zzzn:2uR5X5azvjH" resolve="ext" />
                    </node>
                  </node>
                  <node concept="3clFbS" id="2uR5X5b1JRP" role="3clFbx">
                    <node concept="3cpWs6" id="2uR5X5b1Kt9" role="3cqZAp">
                      <node concept="10M0yZ" id="2uR5X5b2ntE" role="3cqZAk">
                        <ref role="3cqZAo" to="z60i:~Font.ITALIC" resolve="ITALIC" />
                        <ref role="1PxDUh" to="z60i:~Font" resolve="Font" />
                      </node>
                    </node>
                  </node>
                </node>
                <node concept="3clFbF" id="2uR5X5b2FVf" role="3cqZAp">
                  <node concept="10M0yZ" id="3PPOQnmQgb5" role="3clFbG">
                    <ref role="3cqZAo" to="z60i:~Font.PLAIN" resolve="PLAIN" />
                    <ref role="1PxDUh" to="z60i:~Font" resolve="Font" />
                  </node>
                </node>
              </node>
            </node>
          </node>
          <node concept="OXEIz" id="UwUtc1IhgD" role="P5bDN">
            <node concept="PvTIS" id="UwUtc1IhBX" role="OY2wv">
              <node concept="MLZmj" id="UwUtc1IhBY" role="PvTIR">
                <node concept="3clFbS" id="UwUtc1IhBZ" role="2VODD2">
                  <node concept="3clFbF" id="UwUtc1IhC0" role="3cqZAp">
                    <node concept="2YIFZM" id="UwUtc1IhC1" role="3clFbG">
                      <ref role="37wK5l" to="oq0c:UwUtc1okvZ" resolve="proposals" />
                      <ref role="1Pybhc" to="oq0c:UwUtc1nzGQ" resolve="NC" />
                      <node concept="3GMtW1" id="UwUtc1IhC2" role="37wK5m" />
                      <node concept="2OqwBi" id="UwUtc1IhC3" role="37wK5m">
                        <node concept="3GMtW1" id="UwUtc1IhC4" role="2Oq$k0" />
                        <node concept="3TrcHB" id="UwUtc1IhC5" role="2OqNvi">
                          <ref role="3TsBF5" to="tpck:h0TrG11" resolve="name" />
                        </node>
                      </node>
                    </node>
                  </node>
                </node>
              </node>
            </node>
          </node>
        </node>
        <node concept="_tjkj" id="6KxoTHgSIsJ" role="3EZMnx">
          <node concept="3F1sOY" id="6KxoTHgSIsZ" role="_tjki">
            <ref role="1NtTu8" to="zzzn:3npF9QX0lor" resolve="effect" />
          </node>
        </node>
        <node concept="3F0ifn" id="49WTic8f4tT" role="3EZMnx">
          <property role="3F0ifm" value="(" />
          <ref role="1ERwB7" to="m999:2KGel$SrnV0" resolve="deleteFunParens" />
          <node concept="11LMrY" id="49WTic8f4xz" role="3F10Kt">
            <property role="VOm3f" value="true" />
          </node>
          <node concept="11L4FC" id="6LLGpXJ5G1O" role="3F10Kt">
            <property role="VOm3f" value="true" />
          </node>
          <node concept="Vb9p2" id="3PPOQnmRfyu" role="3F10Kt" />
        </node>
        <node concept="3F2HdR" id="49WTic8f4u3" role="3EZMnx">
          <property role="2czwfO" value="," />
          <ref role="1NtTu8" to="zzzn:49WTic8eSCZ" resolve="args" />
          <ref role="1ERwB7" to="m999:2KGel$SrnV0" resolve="deleteFunParens" />
          <node concept="2iRfu4" id="49WTic8f4u5" role="2czzBx" />
          <node concept="3F0ifn" id="49WTic8f4uY" role="2czzBI">
            <property role="3F0ifm" value="" />
            <node concept="VPxyj" id="49WTic8f4vO" role="3F10Kt">
              <property role="VOm3f" value="true" />
            </node>
          </node>
          <node concept="2w$q5c" id="7DVIKqRxa6L" role="78xua">
            <node concept="2aJ2om" id="7DVIKqRxa6N" role="2w$qW5">
              <ref role="2$4xQ3" node="wO0wsRnNTe" resolve="PseudocodeListPresentation" />
            </node>
            <node concept="2aJ2om" id="7DVIKqRxa6P" role="2w$qW5">
              <ref role="2$4xQ3" node="2WQ3iBRGN5o" resolve="PseudocodeSetPresentation" />
            </node>
            <node concept="2aJ2om" id="7DVIKqRxa6X" role="2w$qW5">
              <ref role="2$4xQ3" node="2WQ3iBRGNcR" resolve="PseudocodeMapPresentation" />
            </node>
          </node>
        </node>
        <node concept="2iRfu4" id="1tPb0nsiq3O" role="2iSdaV" />
        <node concept="3F0ifn" id="49WTic8f4ui" role="3EZMnx">
          <property role="3F0ifm" value=")" />
          <ref role="1ERwB7" to="m999:2KGel$SrnV0" resolve="deleteFunParens" />
          <node concept="11L4FC" id="49WTic8f4yr" role="3F10Kt">
            <property role="VOm3f" value="true" />
          </node>
          <node concept="Vb9p2" id="3PPOQnmRfyA" role="3F10Kt" />
        </node>
      </node>
      <node concept="_tjkj" id="69zaTr1GaRE" role="3EZMnx">
        <node concept="3EZMnI" id="69zaTr1GaWu" role="_tjki">
          <node concept="3F0ifn" id="69zaTr1GaWB" role="3EZMnx">
            <property role="3F0ifm" value=":" />
          </node>
          <node concept="3F1sOY" id="69zaTr1GaWH" role="3EZMnx">
            <ref role="1NtTu8" to="hm2y:69zaTr1EKHX" resolve="type" />
          </node>
          <node concept="2iRfu4" id="69zaTr1GaWx" role="2iSdaV" />
          <node concept="VPM3Z" id="69zaTr1GaWy" role="3F10Kt">
            <property role="VOm3f" value="false" />
          </node>
          <node concept="11L4FC" id="2KGel$SqWxl" role="3F10Kt">
            <property role="VOm3f" value="true" />
          </node>
        </node>
      </node>
      <node concept="_tjkj" id="KaZMgyebXJ" role="3EZMnx">
        <node concept="3F1sOY" id="KaZMgyec5r" role="_tjki">
          <ref role="1NtTu8" to="hm2y:KaZMgy4Ily" resolve="contract" />
        </node>
        <node concept="ZYGn8" id="KaZMgyec5v" role="ZWbT9">
          <node concept="3clFbS" id="KaZMgyec5w" role="2VODD2">
            <node concept="3clFbF" id="KaZMgyec6b" role="3cqZAp">
              <node concept="Xl_RD" id="KaZMgyec6a" role="3clFbG">
                <property role="Xl_RC" value="where" />
              </node>
            </node>
          </node>
        </node>
      </node>
      <node concept="3F0ifn" id="49WTic8f4uy" role="3EZMnx">
        <property role="3F0ifm" value="as" />
        <ref role="1k5W1q" node="5PmnIeGXqcA" resolve="metajadeComment" />
        <node concept="lj46D" id="5a_u3Oz0aMb" role="3F10Kt">
          <property role="VOm3f" value="true" />
          <node concept="3nzxsE" id="5a_u3Oz0b6Y" role="3n$kyP">
            <node concept="3clFbS" id="5a_u3Oz0b6Z" role="2VODD2">
              <node concept="3clFbF" id="5a_u3Oz0be7" role="3cqZAp">
                <node concept="2OqwBi" id="5a_u3Oz0be8" role="3clFbG">
                  <node concept="2OqwBi" id="5a_u3Oz0be9" role="2Oq$k0">
                    <node concept="pncrf" id="5a_u3Oz0bea" role="2Oq$k0" />
                    <node concept="3TrEf2" id="5a_u3Oz0beb" role="2OqNvi">
                      <ref role="3Tt5mk" to="zzzn:49WTic8eSDm" resolve="body" />
                    </node>
                  </node>
                  <node concept="1mIQ4w" id="5a_u3Oz0bec" role="2OqNvi">
                    <node concept="chp4Y" id="5a_u3Oz1r72" role="cj9EA">
                      <ref role="cht4Q" to="hm2y:YXKE79ImBi" resolve="IWantNewLine" />
                    </node>
                  </node>
                </node>
              </node>
            </node>
          </node>
        </node>
        <node concept="pVoyu" id="5a_u3Oz05ta" role="3F10Kt">
          <property role="VOm3f" value="true" />
          <node concept="3nzxsE" id="5a_u3Oz05Kf" role="3n$kyP">
            <node concept="3clFbS" id="5a_u3Oz05Kg" role="2VODD2">
              <node concept="3clFbF" id="5a_u3Oz05Rr" role="3cqZAp">
                <node concept="2OqwBi" id="5a_u3Oz08iy" role="3clFbG">
                  <node concept="2OqwBi" id="5a_u3Oz06o9" role="2Oq$k0">
                    <node concept="pncrf" id="5a_u3Oz05Rq" role="2Oq$k0" />
                    <node concept="3TrEf2" id="5a_u3Oz07lR" role="2OqNvi">
                      <ref role="3Tt5mk" to="zzzn:49WTic8eSDm" resolve="body" />
                    </node>
                  </node>
                  <node concept="1mIQ4w" id="5a_u3Oz09Mp" role="2OqNvi">
                    <node concept="chp4Y" id="5a_u3Oz1s5e" role="cj9EA">
                      <ref role="cht4Q" to="hm2y:YXKE79ImBi" resolve="IWantNewLine" />
                    </node>
                  </node>
                </node>
              </node>
            </node>
          </node>
        </node>
        <node concept="pkWqt" id="252QIDyl65v" role="pqm2j">
          <node concept="3clFbS" id="252QIDyl65w" role="2VODD2">
            <node concept="3clFbF" id="252QIDyl6eh" role="3cqZAp">
              <node concept="3fqX7Q" id="252QIDyl7gG" role="3clFbG">
                <node concept="2OqwBi" id="252QIDyl7gI" role="3fr31v">
                  <node concept="2OqwBi" id="252QIDyl7gJ" role="2Oq$k0">
                    <node concept="pncrf" id="252QIDyl7gK" role="2Oq$k0" />
                    <node concept="3TrEf2" id="252QIDyl7gL" role="2OqNvi">
                      <ref role="3Tt5mk" to="zzzn:49WTic8eSDm" resolve="body" />
                    </node>
                  </node>
                  <node concept="1mIQ4w" id="252QIDyl7gM" role="2OqNvi">
                    <node concept="chp4Y" id="252QIDyl7gN" role="cj9EA">
                      <ref role="cht4Q" to="zzzn:49WTic8ig5D" resolve="BlockExpression" />
                    </node>
                  </node>
                </node>
              </node>
            </node>
          </node>
        </node>
      </node>
      <node concept="3F1sOY" id="49WTic8f4uO" role="3EZMnx">
        <ref role="1NtTu8" to="zzzn:49WTic8eSDm" resolve="body" />
        <node concept="2w$q5c" id="7DVIKqRxa5v" role="3xwHhi">
          <node concept="2aJ2om" id="7DVIKqRxa6z" role="2w$qW5">
            <ref role="2$4xQ3" node="7cuAgGgXqbY" resolve="PseudocodeLocalValPresentation" />
          </node>
          <node concept="2aJ2om" id="7DVIKqRxa6_" role="2w$qW5">
            <ref role="2$4xQ3" node="wO0wsRnNTe" resolve="PseudocodeListPresentation" />
          </node>
          <node concept="2aJ2om" id="7DVIKqRxa6C" role="2w$qW5">
            <ref role="2$4xQ3" node="2WQ3iBRGNcR" resolve="PseudocodeMapPresentation" />
          </node>
          <node concept="2aJ2om" id="7DVIKqRxa6G" role="2w$qW5">
            <ref role="2$4xQ3" node="2WQ3iBRGN5o" resolve="PseudocodeSetPresentation" />
          </node>
        </node>
      </node>
    </node>
  </node>
  <node concept="2ABfQD" id="4YVd2MAQA34">
    <property role="3GE5qa" value="hints.constant" />
    <property role="TrG5h" value="PseudocodeConstant" />
    <node concept="2BsEeg" id="4YVd2MAQA35" role="2ABdcP">
      <property role="2gpH_U" value="true" />
      <property role="TrG5h" value="PseudocodeConstant" />
      <property role="2BUmq6" value="With Pseudocode Constant Presentation" />
    </node>
  </node>
  <node concept="24kQdi" id="4YVd2MAQA37">
    <property role="3GE5qa" value="hints.constant" />
    <ref role="1XX52x" to="yv47:69zaTr1HgRc" resolve="Constant" />
    <node concept="2aJ2om" id="4YVd2MAQA39" role="CpUAK">
      <ref role="2$4xQ3" node="4YVd2MAQA35" resolve="PseudocodeConstant" />
    </node>
    <node concept="3EZMnI" id="69zaTr1HgSo" role="2wV5jI">
      <node concept="3F0ifn" id="69zaTr1HgSv" role="3EZMnx">
        <property role="3F0ifm" value="val" />
        <ref role="1k5W1q" to="itrz:4rZeNQ6MfR7" resolve="iets3Keyword" />
      </node>
      <node concept="3F0A7n" id="69zaTr1HgS_" role="3EZMnx">
        <ref role="1k5W1q" to="itrz:ub9nkyQsN2" resolve="iets3Identifier" />
        <ref role="1NtTu8" to="tpck:h0TrG11" resolve="name" />
        <node concept="OXEIz" id="UwUtc1oj6u" role="P5bDN">
          <node concept="PvTIS" id="4YVd2MAQADF" role="OY2wv">
            <node concept="MLZmj" id="4YVd2MAQADG" role="PvTIR">
              <node concept="3clFbS" id="4YVd2MAQADH" role="2VODD2">
                <node concept="3clFbF" id="4YVd2MAQADI" role="3cqZAp">
                  <node concept="2YIFZM" id="4YVd2MAQADJ" role="3clFbG">
                    <ref role="37wK5l" to="oq0c:UwUtc1okvZ" resolve="proposals" />
                    <ref role="1Pybhc" to="oq0c:UwUtc1nzGQ" resolve="NC" />
                    <node concept="3GMtW1" id="4YVd2MAQADK" role="37wK5m" />
                    <node concept="2OqwBi" id="4YVd2MAQADL" role="37wK5m">
                      <node concept="3GMtW1" id="4YVd2MAQADM" role="2Oq$k0" />
                      <node concept="3TrcHB" id="4YVd2MAQADN" role="2OqNvi">
                        <ref role="3TsBF5" to="tpck:h0TrG11" resolve="name" />
                      </node>
                    </node>
                  </node>
                </node>
              </node>
            </node>
          </node>
        </node>
      </node>
      <node concept="_tjkj" id="69zaTr1HgSH" role="3EZMnx">
        <node concept="3EZMnI" id="69zaTr1HgSP" role="_tjki">
          <node concept="3F0ifn" id="69zaTr1HgSY" role="3EZMnx">
            <property role="3F0ifm" value="of type" />
            <ref role="1k5W1q" node="5PmnIeGXqcA" resolve="metajadeComment" />
            <node concept="VPM3Z" id="7yDflTr0um8" role="3F10Kt">
              <property role="VOm3f" value="false" />
            </node>
          </node>
          <node concept="3F1sOY" id="69zaTr1HgT4" role="3EZMnx">
            <ref role="1NtTu8" to="hm2y:69zaTr1EKHX" resolve="type" />
          </node>
          <node concept="2iRfu4" id="1MgVVihv2w9" role="2iSdaV" />
        </node>
        <node concept="ZYGn8" id="1MgVVihv2dQ" role="ZWbT9">
          <node concept="3clFbS" id="1MgVVihv2dR" role="2VODD2">
            <node concept="3clFbF" id="1MgVVihv2ey" role="3cqZAp">
              <node concept="Xl_RD" id="1MgVVihv2ex" role="3clFbG">
                <property role="Xl_RC" value="of" />
              </node>
            </node>
          </node>
        </node>
      </node>
      <node concept="3F0ifn" id="69zaTr1HgTo" role="3EZMnx">
        <property role="3F0ifm" value="as" />
        <ref role="1k5W1q" node="5PmnIeGXqcA" resolve="metajadeComment" />
      </node>
      <node concept="3F1sOY" id="69zaTr1HgTI" role="3EZMnx">
        <ref role="1NtTu8" to="yv47:69zaTr1HgRN" resolve="value" />
      </node>
      <node concept="l2Vlx" id="4YVd2MAX_BC" role="2iSdaV" />
      <node concept="18a60v" id="_kNv2QrIUx" role="3EZMnx">
        <node concept="VPM3Z" id="_kNv2QrIUz" role="3F10Kt">
          <property role="VOm3f" value="false" />
        </node>
      </node>
    </node>
  </node>
  <node concept="PKFIW" id="4YVd2MB9$6U">
    <property role="TrG5h" value="AbstractChunkFullImports_Component" />
    <property role="3GE5qa" value="chunk" />
    <ref role="1XX52x" to="os74:2tMu91FTK9z" resolve="AbstractChunk" />
    <node concept="3EZMnI" id="4YVd2MB9$6Y" role="2wV5jI">
      <node concept="3F0ifn" id="4YVd2MB9$70" role="3EZMnx">
        <property role="3F0ifm" value="import" />
        <node concept="VPM3Z" id="4YVd2MB90D5" role="3F10Kt" />
        <node concept="3$7jql" id="4YVd2MB8JG8" role="3F10Kt">
          <property role="3$6WeP" value="0.65" />
        </node>
      </node>
      <node concept="PMmxH" id="4YVd2MB9$71" role="3EZMnx">
        <ref role="PMmxG" node="3PPOQnmJ82V" resolve="AbstractChunkImports_Component" />
      </node>
      <node concept="l2Vlx" id="4YVd2MB9$72" role="2iSdaV" />
    </node>
  </node>
  <node concept="24kQdi" id="2aA5E1e5A0">
    <property role="3GE5qa" value="chunk" />
    <ref role="1XX52x" to="os74:2aA5E1npHs" resolve="IChunkDep" />
    <node concept="3EZMnI" id="DubiFAY4$e" role="2wV5jI">
      <node concept="3EZMnI" id="DubiFBKmqi" role="3EZMnx">
        <node concept="l2Vlx" id="DubiFBKmqj" role="2iSdaV" />
        <node concept="gc7cB" id="DubiFB8AA9" role="3EZMnx">
          <node concept="3VJUX4" id="DubiFB8AAb" role="3YsKMw">
            <node concept="3clFbS" id="DubiFB8AAd" role="2VODD2">
              <node concept="3clFbF" id="DubiFB8AHh" role="3cqZAp">
                <node concept="2ShNRf" id="DubiFB8AHf" role="3clFbG">
                  <node concept="1pGfFk" id="DubiFB8Bnp" role="2ShVmc">
                    <ref role="37wK5l" to="r4b4:DubiFB4e4X" resolve="IconCell" />
                    <node concept="2OqwBi" id="DubiFBKjfp" role="37wK5m">
                      <node concept="pncrf" id="DubiFB8Bpg" role="2Oq$k0" />
                      <node concept="3TrEf2" id="DubiFBKkcN" role="2OqNvi">
                        <ref role="3Tt5mk" to="os74:2aA5E1e5qp" resolve="chunk" />
                      </node>
                    </node>
                    <node concept="3cmrfG" id="DubiFBVEEr" role="37wK5m">
                      <property role="3cmrfH" value="3" />
                    </node>
                  </node>
                </node>
              </node>
            </node>
          </node>
          <node concept="VPM3Z" id="2A5UqXKzOz7" role="3F10Kt">
            <property role="VOm3f" value="false" />
          </node>
        </node>
        <node concept="pkWqt" id="DubiFBKmFc" role="pqm2j">
          <node concept="3clFbS" id="DubiFBKmFd" role="2VODD2">
            <node concept="3clFbF" id="DubiFBKmT9" role="3cqZAp">
              <node concept="3y3z36" id="DubiFBKoO8" role="3clFbG">
                <node concept="10Nm6u" id="DubiFBKoUB" role="3uHU7w" />
                <node concept="2OqwBi" id="DubiFBKn3b" role="3uHU7B">
                  <node concept="pncrf" id="DubiFBKmT8" role="2Oq$k0" />
                  <node concept="3TrEf2" id="DubiFBKo9n" role="2OqNvi">
                    <ref role="3Tt5mk" to="os74:2aA5E1e5qp" resolve="chunk" />
                  </node>
                </node>
              </node>
            </node>
          </node>
        </node>
        <node concept="VPM3Z" id="2A5UqXKmD9O" role="3F10Kt">
          <property role="VOm3f" value="false" />
        </node>
      </node>
      <node concept="1iCGBv" id="DubiFAY4$B" role="3EZMnx">
        <ref role="1NtTu8" to="os74:2aA5E1e5qp" resolve="chunk" />
        <node concept="1sVBvm" id="DubiFAY4$C" role="1sWHZn">
          <node concept="3F0A7n" id="DubiFB14kK" role="2wV5jI">
            <property role="1Intyy" value="true" />
            <ref role="1NtTu8" to="tpck:h0TrG11" resolve="name" />
          </node>
        </node>
      </node>
      <node concept="2iRfu4" id="x1qBlZBqR" role="2iSdaV" />
      <node concept="VPM3Z" id="2A5UqXKmDqO" role="3F10Kt">
        <property role="VOm3f" value="true" />
      </node>
    </node>
  </node>
  <node concept="24kQdi" id="80jriwjJZ">
    <ref role="1XX52x" to="os74:80jriwjIN" resolve="UnitType" />
    <node concept="3F0ifn" id="80jriwjK4" role="2wV5jI">
      <property role="3F0ifm" value="unit" />
    </node>
  </node>
  <node concept="22mcaB" id="1ZLt6euZkOs">
    <ref role="aqKnT" to="os74:1ZLt6euI0yq" resolve="NonStaticFunctionCall" />
    <node concept="22hDWj" id="1ZLt6euZkQ5" role="22hAXT" />
  </node>
  <node concept="3dRTYf" id="3ITt9KrYA5h">
    <property role="TrG5h" value="UnusedExpressions" />
    <node concept="3Tm1VV" id="3ITt9KrYA5i" role="1B3o_S" />
    <node concept="KNhPm" id="3ITt9KrYA6q" role="KNiz3">
      <ref role="2RIln$" to="hm2y:6sdnDbSla17" resolve="Expression" />
    </node>
    <node concept="3lBaaS" id="3ITt9KrYA5k" role="3l$a4r">
      <node concept="3clFbS" id="3ITt9KrYA5l" role="2VODD2">
        <node concept="3clFbJ" id="3ITt9KrYAbk" role="3cqZAp">
          <node concept="3clFbS" id="3ITt9KrYAbm" role="3clFbx">
            <node concept="3clFbF" id="3ITt9KrYDFG" role="3cqZAp">
              <node concept="2OqwBi" id="3ITt9KrYDMq" role="3clFbG">
                <node concept="3lBNjA" id="3ITt9KrYDFF" role="2Oq$k0" />
                <node concept="liA8E" id="3ITt9KrYDWq" role="2OqNvi">
                  <ref role="37wK5l" to="av1m:~EditorMenuItemStyle.hide()" resolve="hide" />
                </node>
              </node>
            </node>
          </node>
          <node concept="2OqwBi" id="3ITt9Ks1PMe" role="3clFbw">
            <node concept="10M0yZ" id="3ITt9Ks2GNH" role="2Oq$k0">
              <ref role="3cqZAo" node="3ITt9Ks2GMb" resolve="unusedExprs" />
              <ref role="1PxDUh" node="3ITt9Ks2DO_" resolve="UnusedExprList" />
            </node>
            <node concept="3JPx81" id="3ITt9Ks1RZc" role="2OqNvi">
              <node concept="2OqwBi" id="3ITt9Ks1SqN" role="25WWJ7">
                <node concept="3lBNg1" id="3ITt9Ks1S7Z" role="2Oq$k0" />
                <node concept="liA8E" id="3ITt9Ks1SEY" role="2OqNvi">
                  <ref role="37wK5l" to="fulz:6MqJAGngeyC" resolve="getOutputConcept" />
                </node>
              </node>
            </node>
          </node>
        </node>
      </node>
    </node>
  </node>
  <node concept="312cEu" id="3ITt9Ks2DO_">
    <property role="TrG5h" value="UnusedExprList" />
    <node concept="Wx3nA" id="3ITt9Ks2GMb" role="jymVt">
      <property role="TrG5h" value="unusedExprs" />
      <node concept="_YKpA" id="3ITt9Ks2GMe" role="1tU5fm">
        <node concept="3bZ5Sz" id="3ITt9Ks2GMf" role="_ZDj9" />
      </node>
      <node concept="2ShNRf" id="3ITt9Ks2GMg" role="33vP2m">
        <node concept="Tc6Ow" id="3ITt9Ks2GMh" role="2ShVmc">
          <node concept="3bZ5Sz" id="3ITt9Ks2GMi" role="HW$YZ" />
          <node concept="35c_gC" id="3ITt9Ks2GMj" role="HW$Y0">
            <ref role="35c_gD" to="hm2y:mQGcCvPueU" resolve="FailExpr" />
          </node>
          <node concept="35c_gC" id="3ITt9Ks2GMk" role="HW$Y0">
            <ref role="35c_gD" to="hm2y:5BNZGjBvVgC" resolve="TryExpression" />
          </node>
          <node concept="35c_gC" id="3ITt9Ks2GMl" role="HW$Y0">
            <ref role="35c_gD" to="hm2y:1Ez$z58Hu7K" resolve="ErrorExpression" />
          </node>
          <node concept="35c_gC" id="3ITt9Ks3RDe" role="HW$Y0">
            <ref role="35c_gD" to="hm2y:7VuYlCQZ3ll" resolve="JoinType" />
          </node>
          <node concept="35c_gC" id="3ITt9Ks3S5B" role="HW$Y0">
            <ref role="35c_gD" to="gv6i:1ZLt6evg52E" resolve="AbstractBehaviourExpression" />
          </node>
          <node concept="35c_gC" id="3ITt9Ks3Sts" role="HW$Y0">
            <ref role="35c_gD" to="wtll:4YhD5cZkcH6" resolve="AbstractRangeExpr" />
          </node>
          <node concept="35c_gC" id="3ITt9Ks3Thm" role="HW$Y0">
            <ref role="35c_gD" to="wtll:5avmkTFl_wR" resolve="AbstractSheetExpr" />
          </node>
          <node concept="35c_gC" id="3ITt9Ks4EaV" role="HW$Y0">
            <ref role="35c_gD" to="yv47:4ptnK4jbqZj" resolve="BuilderExpression" />
          </node>
          <node concept="35c_gC" id="3ITt9Ks5s0u" role="HW$Y0">
            <ref role="35c_gD" to="hm2y:60Qa1k_nMSK" resolve="DefaultValueExpression" />
          </node>
          <node concept="35c_gC" id="3ITt9Ks5sK0" role="HW$Y0">
            <ref role="35c_gD" to="hm2y:5bEkIpehgUq" resolve="SuccessExpression" />
          </node>
          <node concept="35c_gC" id="3ITt9Ks5tfh" role="HW$Y0">
            <ref role="35c_gD" to="hm2y:69zaTr1Yk3m" resolve="SuccessValueExpr" />
          </node>
          <node concept="35c_gC" id="3ITt9Ks6dVm" role="HW$Y0">
            <ref role="35c_gD" to="8lgj:1RzljfOfUoH" resolve="InTxBlock" />
          </node>
          <node concept="35c_gC" id="3ITt9Ks6Zrc" role="HW$Y0">
            <ref role="35c_gD" to="hm2y:4CksDrmwc1V" resolve="OperatorGroup" />
          </node>
          <node concept="35c_gC" id="3ITt9Ks70Qb" role="HW$Y0">
            <ref role="35c_gD" to="8lgj:7bd8pkl7uF5" resolve="LiveExpression" />
          </node>
          <node concept="35c_gC" id="3ITt9Ks71sj" role="HW$Y0">
            <ref role="35c_gD" to="wtll:7HzLUeHESCI" resolve="QuoteExpr" />
          </node>
          <node concept="35c_gC" id="3ITt9Ks728T" role="HW$Y0">
            <ref role="35c_gD" to="wtll:48DDwlwTb_l" resolve="SheetEmbedExpr" />
          </node>
          <node concept="35c_gC" id="3ITt9Ks7NE2" role="HW$Y0">
            <ref role="35c_gD" to="yv47:2zwra1$QhrC" resolve="AllLitList" />
          </node>
          <node concept="35c_gC" id="3ITt9Ks7Q3m" role="HW$Y0">
            <ref role="35c_gD" to="8lgj:4IV0h47Jb3K" resolve="WithContextExpression" />
          </node>
          <node concept="35c_gC" id="3ITt9Ksaz6E" role="HW$Y0">
            <ref role="35c_gD" to="hm2y:78hTg1zmOGb" resolve="CheckTypeConstraintsExpr" />
          </node>
          <node concept="35c_gC" id="3ITt9KsazRt" role="HW$Y0">
            <ref role="35c_gD" to="hm2y:2Qbt$1tNGy4" resolve="CastExpression" />
          </node>
          <node concept="35c_gC" id="3ITt9KsceBz" role="HW$Y0">
            <ref role="35c_gD" to="hm2y:3nVyItrZBN9" resolve="EmptyValue" />
          </node>
          <node concept="35c_gC" id="3ITt9Ksd3jU" role="HW$Y0">
            <ref role="35c_gD" to="wtll:5xEoEMrqNzj" resolve="CoordCellRef" />
          </node>
          <node concept="35c_gC" id="3ITt9Ksd4_D" role="HW$Y0">
            <ref role="35c_gD" to="wtll:5avmkTFTZQz" resolve="LabelExpression" />
          </node>
          <node concept="35c_gC" id="3ITt9KsdTgb" role="HW$Y0">
            <ref role="35c_gD" to="wtll:5avmkTFl_ut" resolve="MakeListExpr" />
          </node>
          <node concept="35c_gC" id="3ITt9KsdUJW" role="HW$Y0">
            <ref role="35c_gD" to="wtll:4YhD5cZo8Ks" resolve="MakeRecordExpr" />
          </node>
          <node concept="35c_gC" id="3ITt9KseJnN" role="HW$Y0">
            <ref role="35c_gD" to="5qo5:4eVSC65JA4O" resolve="BoundsExpression" />
          </node>
          <node concept="35c_gC" id="22Cof6WFG4B" role="HW$Y0">
            <ref role="35c_gD" to="5qo5:7cphKbL6iha" resolve="StringInterpolationExpr" />
          </node>
        </node>
      </node>
      <node concept="3Tm1VV" id="3ITt9Ks2GMd" role="1B3o_S" />
    </node>
    <node concept="3Tm1VV" id="3ITt9Ks2DOA" role="1B3o_S" />
  </node>
  <node concept="3dRTYf" id="4hvwZTOfXz4">
    <property role="TrG5h" value="UnusedTopLevelExpressions" />
    <node concept="3Tm1VV" id="4hvwZTOfXz5" role="1B3o_S" />
    <node concept="KNhPm" id="4hvwZTOfX$5" role="KNiz3">
      <ref role="2RIln$" to="yv47:2uR5X5ayM7T" resolve="IToplevelExprContent" />
    </node>
    <node concept="3lBaaS" id="4hvwZTOfXz7" role="3l$a4r">
      <node concept="3clFbS" id="4hvwZTOfXz8" role="2VODD2">
        <node concept="3clFbJ" id="4hvwZTOfYhm" role="3cqZAp">
          <node concept="3clFbS" id="4hvwZTOfYhn" role="3clFbx">
            <node concept="3clFbF" id="4hvwZTOfYho" role="3cqZAp">
              <node concept="2OqwBi" id="4hvwZTOfYhp" role="3clFbG">
                <node concept="3lBNjA" id="4hvwZTOfYhq" role="2Oq$k0" />
                <node concept="liA8E" id="4hvwZTOfYhr" role="2OqNvi">
                  <ref role="37wK5l" to="av1m:~EditorMenuItemStyle.hide()" resolve="hide" />
                </node>
              </node>
            </node>
          </node>
          <node concept="2OqwBi" id="4hvwZTOfYhs" role="3clFbw">
            <node concept="10M0yZ" id="4hvwZTOg6ba" role="2Oq$k0">
              <ref role="3cqZAo" node="4hvwZTOg3rY" resolve="unusedTopLevelExpr" />
              <ref role="1PxDUh" node="4hvwZTOfZ2m" resolve="UnusedTopLevelExprList" />
            </node>
            <node concept="3JPx81" id="4hvwZTOfYhu" role="2OqNvi">
              <node concept="2OqwBi" id="4hvwZTOfYhv" role="25WWJ7">
                <node concept="3lBNg1" id="4hvwZTOfYhw" role="2Oq$k0" />
                <node concept="liA8E" id="4hvwZTOfYhx" role="2OqNvi">
                  <ref role="37wK5l" to="fulz:6MqJAGngeyC" resolve="getOutputConcept" />
                </node>
              </node>
            </node>
          </node>
        </node>
      </node>
    </node>
  </node>
  <node concept="312cEu" id="4hvwZTOfZ2m">
    <property role="TrG5h" value="UnusedTopLevelExprList" />
    <node concept="Wx3nA" id="4hvwZTOg3rY" role="jymVt">
      <property role="TrG5h" value="unusedTopLevelExpr" />
      <node concept="3Tm1VV" id="4hvwZTOg3iC" role="1B3o_S" />
      <node concept="_YKpA" id="4hvwZTOg3nQ" role="1tU5fm">
        <node concept="3bZ5Sz" id="4hvwZTOg3rV" role="_ZDj9" />
      </node>
      <node concept="2ShNRf" id="4hvwZTOg3yU" role="33vP2m">
        <node concept="Tc6Ow" id="4hvwZTOg3xn" role="2ShVmc">
          <node concept="3bZ5Sz" id="4hvwZTOg3xo" role="HW$YZ" />
          <node concept="35c_gC" id="4hvwZTOg67b" role="HW$Y0">
            <ref role="35c_gD" to="wtll:3_Nra3E2xlO" resolve="TopLevelSheet" />
          </node>
          <node concept="35c_gC" id="4vW7ZgePSr1" role="HW$Y0">
            <ref role="35c_gD" to="yv47:6HHp2WngtTC" resolve="Typedef" />
          </node>
        </node>
      </node>
    </node>
    <node concept="3Tm1VV" id="4hvwZTOfZ2n" role="1B3o_S" />
  </node>
  <node concept="3dRTYf" id="7AVCbhhYml1">
    <property role="TrG5h" value="hideIets3Message" />
    <node concept="3Tm1VV" id="7AVCbhhYml2" role="1B3o_S" />
    <node concept="KNhPm" id="7AVCbhhYml$" role="KNiz3">
      <ref role="2RIln$" to="hm2y:6sdnDbSlaok" resolve="Type" />
    </node>
    <node concept="3lBaaS" id="7AVCbhhYml4" role="3l$a4r">
      <node concept="3clFbS" id="7AVCbhhYml5" role="2VODD2">
        <node concept="3clFbJ" id="7AVCbhhYmm3" role="3cqZAp">
          <node concept="17R0WA" id="7AVCbhhYmXH" role="3clFbw">
            <node concept="2OqwBi" id="7AVCbhhYmyt" role="3uHU7B">
              <node concept="3lBNg1" id="7AVCbhhYmmB" role="2Oq$k0" />
              <node concept="liA8E" id="7AVCbhhYmId" role="2OqNvi">
                <ref role="37wK5l" to="fulz:6MqJAGngeyC" resolve="getOutputConcept" />
              </node>
            </node>
            <node concept="35c_gC" id="7AVCbhhYn7$" role="3uHU7w">
              <ref role="35c_gD" to="hm2y:4AahbtULQzU" resolve="MessageValueType" />
            </node>
          </node>
          <node concept="3clFbS" id="7AVCbhhYmm5" role="3clFbx">
            <node concept="3clFbF" id="7AVCbhhYoef" role="3cqZAp">
              <node concept="2OqwBi" id="7AVCbhhYokP" role="3clFbG">
                <node concept="3lBNjA" id="7AVCbhhYoee" role="2Oq$k0" />
                <node concept="liA8E" id="7AVCbhhYosj" role="2OqNvi">
                  <ref role="37wK5l" to="av1m:~EditorMenuItemStyle.hide()" resolve="hide" />
                </node>
              </node>
            </node>
          </node>
        </node>
      </node>
    </node>
  </node>
  <node concept="24kQdi" id="6OKQOIXjVJS">
    <property role="3GE5qa" value="aid.operations" />
    <ref role="1XX52x" to="os74:6OKQOIXjSYm" resolve="GetLocalName" />
    <node concept="3F0ifn" id="6OKQOIXjVJU" role="2wV5jI">
      <property role="3F0ifm" value="localName" />
    </node>
  </node>
  <node concept="24kQdi" id="6OKQOIXjVKn">
    <property role="3GE5qa" value="aid.operations" />
    <ref role="1XX52x" to="os74:6OKQOIXjVBv" resolve="GetName" />
    <node concept="3F0ifn" id="6OKQOIXjVKp" role="2wV5jI">
      <property role="3F0ifm" value="name" />
    </node>
  </node>
  <node concept="24kQdi" id="6OKQOIXjYIP">
    <property role="3GE5qa" value="aid" />
    <ref role="1XX52x" to="os74:6OKQOIXjSXU" resolve="AIDDeclaration" />
    <node concept="3EZMnI" id="6OKQOIXjYIR" role="2wV5jI">
      <node concept="3F0ifn" id="6OKQOIXjYIY" role="3EZMnx">
        <property role="3F0ifm" value="AID" />
      </node>
      <node concept="3F0ifn" id="6OKQOIXjYJ4" role="3EZMnx">
        <property role="3F0ifm" value="(" />
        <node concept="11L4FC" id="6OKQOIXo_fU" role="3F10Kt">
          <property role="VOm3f" value="true" />
        </node>
        <node concept="11LMrY" id="6OKQOIXo_fZ" role="3F10Kt">
          <property role="VOm3f" value="true" />
        </node>
      </node>
      <node concept="3F1sOY" id="7AVCbhhTTIh" role="3EZMnx">
        <property role="1$x2rV" value="localPlatform" />
        <ref role="1NtTu8" to="os74:7AVCbhhTTHW" resolve="platformId" />
      </node>
      <node concept="3F0ifn" id="6OKQOIXjYJm" role="3EZMnx">
        <property role="3F0ifm" value="@" />
      </node>
      <node concept="3F1sOY" id="7AVCbhhTTII" role="3EZMnx">
        <ref role="1NtTu8" to="os74:7AVCbhhTTHU" resolve="localName" />
      </node>
      <node concept="3F0ifn" id="6OKQOIXjYJK" role="3EZMnx">
        <property role="3F0ifm" value=")" />
        <node concept="11L4FC" id="6OKQOIXo_g3" role="3F10Kt">
          <property role="VOm3f" value="true" />
        </node>
      </node>
      <node concept="2iRfu4" id="6OKQOIXjYIU" role="2iSdaV" />
    </node>
  </node>
  <node concept="24kQdi" id="3EtpyNPSerW">
    <property role="3GE5qa" value="aid" />
    <ref role="1XX52x" to="os74:3EtpyNPSerU" resolve="AIDReference" />
    <node concept="3EZMnI" id="3EtpyNPSeRa" role="2wV5jI">
      <node concept="2iRfu4" id="3EtpyNPSeRb" role="2iSdaV" />
      <node concept="1iCGBv" id="3EtpyNPSeQY" role="3EZMnx">
        <ref role="1NtTu8" to="os74:3EtpyNPSerV" resolve="aidDeclaration" />
        <node concept="1sVBvm" id="3EtpyNPSeR0" role="1sWHZn">
          <node concept="3F1sOY" id="3EtpyNPSeR7" role="2wV5jI">
            <ref role="1NtTu8" to="os74:7AVCbhhTTHU" resolve="localName" />
          </node>
        </node>
      </node>
      <node concept="3F0ifn" id="3EtpyNPSeRK" role="3EZMnx">
        <property role="3F0ifm" value="@" />
      </node>
      <node concept="1iCGBv" id="3EtpyNPSeRp" role="3EZMnx">
        <ref role="1NtTu8" to="os74:3EtpyNPSerV" resolve="aidDeclaration" />
        <node concept="1sVBvm" id="3EtpyNPSeRr" role="1sWHZn">
          <node concept="3F1sOY" id="3EtpyNPSeR_" role="2wV5jI">
            <ref role="1NtTu8" to="os74:7AVCbhhTTHW" resolve="platformId" />
          </node>
        </node>
      </node>
    </node>
  </node>
  <node concept="24kQdi" id="6OKQOIXjVX8">
    <property role="3GE5qa" value="aid" />
    <ref role="1XX52x" to="os74:3JB$QJ8oGPX" resolve="AIDType" />
    <node concept="3F0ifn" id="6OKQOIXjVXa" role="2wV5jI">
      <property role="3F0ifm" value="AID" />
      <ref role="1k5W1q" node="2WQ3iBR5Hx0" resolve="metajadeType" />
    </node>
  </node>
  <node concept="24kQdi" id="28$c8FRSaei">
    <property role="3GE5qa" value="statements" />
    <ref role="1XX52x" to="os74:28$c8FRSadP" resolve="Log" />
    <node concept="3EZMnI" id="28$c8FRSaeq" role="2wV5jI">
      <node concept="l2Vlx" id="28$c8FRSaer" role="2iSdaV" />
      <node concept="3F0ifn" id="28$c8FRSaen" role="3EZMnx">
        <property role="3F0ifm" value="log" />
        <ref role="1k5W1q" node="7kuDSjsqD3B" resolve="metajadeKeyword" />
      </node>
      <node concept="3F1sOY" id="28$c8FRYT78" role="3EZMnx">
        <ref role="1NtTu8" to="os74:28$c8FRYT6O" resolve="value" />
      </node>
    </node>
  </node>
  <node concept="24kQdi" id="7ZzueigWgQp">
    <property role="3GE5qa" value="performative" />
    <ref role="1XX52x" to="os74:6OKQOIXeu_H" resolve="PerformativeType" />
    <node concept="PMmxH" id="7ZzueigWgRH" role="2wV5jI">
      <ref role="PMmxG" to="tpco:2wZex4PafBj" resolve="alias" />
    </node>
  </node>
  <node concept="24kQdi" id="5zd1xVkqXBh">
    <property role="3GE5qa" value="statements" />
    <ref role="1XX52x" to="os74:5zd1xVkqXAQ" resolve="Stop" />
    <node concept="3F0ifn" id="5zd1xVkqXBj" role="2wV5jI">
      <property role="3F0ifm" value="stop" />
      <ref role="1k5W1q" node="7kuDSjsqD3B" resolve="metajadeKeyword" />
    </node>
  </node>
</model>

