<?xml version="1.0" encoding="UTF-8"?>
<model ref="r:a993ac2c-61fd-4d4e-b839-015b1c1f7df1(MetaJade.core.behavior)">
  <persistence version="9" />
  <languages>
    <use id="7866978e-a0f0-4cc7-81bc-4d213d9375e1" name="jetbrains.mps.lang.smodel" version="19" />
    <use id="af65afd8-f0dd-4942-87d9-63a55f2a9db1" name="jetbrains.mps.lang.behavior" version="2" />
    <devkit ref="fbc25dd2-5da4-483a-8b19-70928e1b62d7(jetbrains.mps.devkit.general-purpose)" />
  </languages>
  <imports>
    <import index="os74" ref="r:0a69036a-4d31-45e1-887d-acbe5b8039f5(MetaJade.core.structure)" />
    <import index="pbu6" ref="r:83e946de-2a7f-4a4c-b3c9-4f671aa7f2db(org.iets3.core.expr.base.behavior)" />
    <import index="hwgx" ref="r:fd2980c8-676c-4b19-b524-18c70e02f8b7(com.mbeddr.core.base.behavior)" />
    <import index="vs0r" ref="r:f7764ca4-8c75-4049-922b-08516400a727(com.mbeddr.core.base.structure)" />
    <import index="yv47" ref="r:da65683e-ff6f-430d-ab68-32a77df72c93(org.iets3.core.expr.toplevel.structure)" />
    <import index="oq0c" ref="r:6c6155f0-4bbe-4af5-8c26-244d570e21e4(org.iets3.core.expr.base.plugin)" />
    <import index="3jzb" ref="r:606f7dcd-0d13-4ed2-8b48-a19323636f6b(MetaJade.ontology.structure)" />
    <import index="gv6i" ref="r:9bc9d7aa-ccc3-46bd-805d-a743ad42928e(MetaJade.behaviour.structure)" />
    <import index="tpck" ref="r:00000000-0000-4000-0000-011c89590288(jetbrains.mps.lang.core.structure)" />
    <import index="hm2y" ref="r:66e07cb4-a4b0-4bf3-a36d-5e9ed1ff1bd3(org.iets3.core.expr.base.structure)" />
  </imports>
  <registry>
    <language id="af65afd8-f0dd-4942-87d9-63a55f2a9db1" name="jetbrains.mps.lang.behavior">
      <concept id="6496299201655527393" name="jetbrains.mps.lang.behavior.structure.LocalBehaviorMethodCall" flags="nn" index="BsUDl" />
      <concept id="1225194240794" name="jetbrains.mps.lang.behavior.structure.ConceptBehavior" flags="ng" index="13h7C7">
        <reference id="1225194240799" name="concept" index="13h7C2" />
        <child id="1225194240805" name="method" index="13h7CS" />
        <child id="1225194240801" name="constructor" index="13h7CW" />
      </concept>
      <concept id="1225194413805" name="jetbrains.mps.lang.behavior.structure.ConceptConstructorDeclaration" flags="in" index="13hLZK" />
      <concept id="1225194472830" name="jetbrains.mps.lang.behavior.structure.ConceptMethodDeclaration" flags="ng" index="13i0hz">
        <property id="1225194472832" name="isVirtual" index="13i0it" />
        <property id="1225194472834" name="isAbstract" index="13i0iv" />
        <reference id="1225194472831" name="overriddenMethod" index="13i0hy" />
      </concept>
      <concept id="1225194691553" name="jetbrains.mps.lang.behavior.structure.ThisNodeExpression" flags="nn" index="13iPFW" />
    </language>
    <language id="f3061a53-9226-4cc5-a443-f952ceaf5816" name="jetbrains.mps.baseLanguage">
      <concept id="1080223426719" name="jetbrains.mps.baseLanguage.structure.OrExpression" flags="nn" index="22lmx$" />
      <concept id="4836112446988635817" name="jetbrains.mps.baseLanguage.structure.UndefinedType" flags="in" index="2jxLKc" />
      <concept id="1154032098014" name="jetbrains.mps.baseLanguage.structure.AbstractLoopStatement" flags="nn" index="2LF5Ji">
        <child id="1154032183016" name="body" index="2LFqv$" />
      </concept>
      <concept id="1197027756228" name="jetbrains.mps.baseLanguage.structure.DotExpression" flags="nn" index="2OqwBi">
        <child id="1197027771414" name="operand" index="2Oq$k0" />
        <child id="1197027833540" name="operation" index="2OqNvi" />
      </concept>
      <concept id="1145552977093" name="jetbrains.mps.baseLanguage.structure.GenericNewExpression" flags="nn" index="2ShNRf">
        <child id="1145553007750" name="creator" index="2ShVmc" />
      </concept>
      <concept id="1137021947720" name="jetbrains.mps.baseLanguage.structure.ConceptFunction" flags="in" index="2VMwT0">
        <child id="1137022507850" name="body" index="2VODD2" />
      </concept>
      <concept id="1070475926800" name="jetbrains.mps.baseLanguage.structure.StringLiteral" flags="nn" index="Xl_RD">
        <property id="1070475926801" name="value" index="Xl_RC" />
      </concept>
      <concept id="1070534058343" name="jetbrains.mps.baseLanguage.structure.NullLiteral" flags="nn" index="10Nm6u" />
      <concept id="1070534644030" name="jetbrains.mps.baseLanguage.structure.BooleanType" flags="in" index="10P_77" />
      <concept id="1068431474542" name="jetbrains.mps.baseLanguage.structure.VariableDeclaration" flags="ng" index="33uBYm">
        <child id="1068431790190" name="initializer" index="33vP2m" />
      </concept>
      <concept id="1068498886296" name="jetbrains.mps.baseLanguage.structure.VariableReference" flags="nn" index="37vLTw">
        <reference id="1068581517664" name="variableDeclaration" index="3cqZAo" />
      </concept>
      <concept id="1068498886292" name="jetbrains.mps.baseLanguage.structure.ParameterDeclaration" flags="ir" index="37vLTG" />
      <concept id="1225271177708" name="jetbrains.mps.baseLanguage.structure.StringType" flags="in" index="17QB3L" />
      <concept id="4972933694980447171" name="jetbrains.mps.baseLanguage.structure.BaseVariableDeclaration" flags="ng" index="19Szcq">
        <child id="5680397130376446158" name="type" index="1tU5fm" />
      </concept>
      <concept id="1068580123132" name="jetbrains.mps.baseLanguage.structure.BaseMethodDeclaration" flags="ng" index="3clF44">
        <child id="1068580123133" name="returnType" index="3clF45" />
        <child id="1068580123134" name="parameter" index="3clF46" />
        <child id="1068580123135" name="body" index="3clF47" />
      </concept>
      <concept id="1068580123152" name="jetbrains.mps.baseLanguage.structure.EqualsExpression" flags="nn" index="3clFbC" />
      <concept id="1068580123155" name="jetbrains.mps.baseLanguage.structure.ExpressionStatement" flags="nn" index="3clFbF">
        <child id="1068580123156" name="expression" index="3clFbG" />
      </concept>
      <concept id="1068580123159" name="jetbrains.mps.baseLanguage.structure.IfStatement" flags="nn" index="3clFbJ">
        <child id="1068580123160" name="condition" index="3clFbw" />
        <child id="1068580123161" name="ifTrue" index="3clFbx" />
      </concept>
      <concept id="1068580123136" name="jetbrains.mps.baseLanguage.structure.StatementList" flags="sn" stub="5293379017992965193" index="3clFbS">
        <child id="1068581517665" name="statement" index="3cqZAp" />
      </concept>
      <concept id="1068580123137" name="jetbrains.mps.baseLanguage.structure.BooleanConstant" flags="nn" index="3clFbT">
        <property id="1068580123138" name="value" index="3clFbU" />
      </concept>
      <concept id="1068581242875" name="jetbrains.mps.baseLanguage.structure.PlusExpression" flags="nn" index="3cpWs3" />
      <concept id="1068581242878" name="jetbrains.mps.baseLanguage.structure.ReturnStatement" flags="nn" index="3cpWs6">
        <child id="1068581517676" name="expression" index="3cqZAk" />
      </concept>
      <concept id="1068581242864" name="jetbrains.mps.baseLanguage.structure.LocalVariableDeclarationStatement" flags="nn" index="3cpWs8">
        <child id="1068581242865" name="localVariableDeclaration" index="3cpWs9" />
      </concept>
      <concept id="1068581242863" name="jetbrains.mps.baseLanguage.structure.LocalVariableDeclaration" flags="nr" index="3cpWsn" />
      <concept id="1068581517677" name="jetbrains.mps.baseLanguage.structure.VoidType" flags="in" index="3cqZAl" />
      <concept id="1079359253375" name="jetbrains.mps.baseLanguage.structure.ParenthesizedExpression" flags="nn" index="1eOMI4">
        <child id="1079359253376" name="expression" index="1eOMHV" />
      </concept>
      <concept id="1081516740877" name="jetbrains.mps.baseLanguage.structure.NotExpression" flags="nn" index="3fqX7Q">
        <child id="1081516765348" name="expression" index="3fr31v" />
      </concept>
      <concept id="1204053956946" name="jetbrains.mps.baseLanguage.structure.IMethodCall" flags="ng" index="1ndlxa">
        <reference id="1068499141037" name="baseMethodDeclaration" index="37wK5l" />
        <child id="1068499141038" name="actualArgument" index="37wK5m" />
      </concept>
      <concept id="1212685548494" name="jetbrains.mps.baseLanguage.structure.ClassCreator" flags="nn" index="1pGfFk" />
      <concept id="1107535904670" name="jetbrains.mps.baseLanguage.structure.ClassifierType" flags="in" index="3uibUv">
        <reference id="1107535924139" name="classifier" index="3uigEE" />
      </concept>
      <concept id="1081773326031" name="jetbrains.mps.baseLanguage.structure.BinaryOperation" flags="nn" index="3uHJSO">
        <child id="1081773367579" name="rightExpression" index="3uHU7w" />
        <child id="1081773367580" name="leftExpression" index="3uHU7B" />
      </concept>
      <concept id="1178549954367" name="jetbrains.mps.baseLanguage.structure.IVisible" flags="ng" index="1B3ioH">
        <child id="1178549979242" name="visibility" index="1B3o_S" />
      </concept>
      <concept id="1146644602865" name="jetbrains.mps.baseLanguage.structure.PublicVisibility" flags="nn" index="3Tm1VV" />
    </language>
    <language id="fd392034-7849-419d-9071-12563d152375" name="jetbrains.mps.baseLanguage.closures">
      <concept id="1199569711397" name="jetbrains.mps.baseLanguage.closures.structure.ClosureLiteral" flags="nn" index="1bVj0M">
        <child id="1199569906740" name="parameter" index="1bW2Oz" />
        <child id="1199569916463" name="body" index="1bW5cS" />
      </concept>
    </language>
    <language id="7866978e-a0f0-4cc7-81bc-4d213d9375e1" name="jetbrains.mps.lang.smodel">
      <concept id="1177026924588" name="jetbrains.mps.lang.smodel.structure.RefConcept_Reference" flags="nn" index="chp4Y">
        <reference id="1177026940964" name="conceptDeclaration" index="cht4Q" />
      </concept>
      <concept id="1138411891628" name="jetbrains.mps.lang.smodel.structure.SNodeOperation" flags="nn" index="eCIE_">
        <child id="1144104376918" name="parameter" index="1xVPHs" />
      </concept>
      <concept id="1179409122411" name="jetbrains.mps.lang.smodel.structure.Node_ConceptMethodCall" flags="nn" index="2qgKlT" />
      <concept id="4693937538533521280" name="jetbrains.mps.lang.smodel.structure.OfConceptOperation" flags="ng" index="v3k3i">
        <child id="4693937538533538124" name="requestedConcept" index="v3oSu" />
      </concept>
      <concept id="7453996997717780434" name="jetbrains.mps.lang.smodel.structure.Node_GetSConceptOperation" flags="nn" index="2yIwOk" />
      <concept id="2396822768958367367" name="jetbrains.mps.lang.smodel.structure.AbstractTypeCastExpression" flags="nn" index="$5XWr">
        <child id="6733348108486823193" name="leftExpression" index="1m5AlR" />
        <child id="3906496115198199033" name="conceptArgument" index="3oSUPX" />
      </concept>
      <concept id="1171305280644" name="jetbrains.mps.lang.smodel.structure.Node_GetDescendantsOperation" flags="nn" index="2Rf3mk" />
      <concept id="3562215692195599741" name="jetbrains.mps.lang.smodel.structure.SLinkImplicitSelect" flags="nn" index="13MTOL">
        <reference id="3562215692195600259" name="link" index="13MTZf" />
      </concept>
      <concept id="1139621453865" name="jetbrains.mps.lang.smodel.structure.Node_IsInstanceOfOperation" flags="nn" index="1mIQ4w">
        <child id="1177027386292" name="conceptArgument" index="cj9EA" />
      </concept>
      <concept id="6870613620390542976" name="jetbrains.mps.lang.smodel.structure.ConceptAliasOperation" flags="ng" index="3n3YKJ" />
      <concept id="1144101972840" name="jetbrains.mps.lang.smodel.structure.OperationParm_Concept" flags="ng" index="1xMEDy">
        <child id="1207343664468" name="conceptArgument" index="ri$Ld" />
      </concept>
      <concept id="1140137987495" name="jetbrains.mps.lang.smodel.structure.SNodeTypeCastExpression" flags="nn" index="1PxgMI" />
      <concept id="1138055754698" name="jetbrains.mps.lang.smodel.structure.SNodeType" flags="in" index="3Tqbb2">
        <reference id="1138405853777" name="concept" index="ehGHo" />
      </concept>
      <concept id="1138056022639" name="jetbrains.mps.lang.smodel.structure.SPropertyAccess" flags="nn" index="3TrcHB">
        <reference id="1138056395725" name="property" index="3TsBF5" />
      </concept>
      <concept id="1138056143562" name="jetbrains.mps.lang.smodel.structure.SLinkAccess" flags="nn" index="3TrEf2">
        <reference id="1138056516764" name="link" index="3Tt5mk" />
      </concept>
      <concept id="1138056282393" name="jetbrains.mps.lang.smodel.structure.SLinkListAccess" flags="nn" index="3Tsc0h">
        <reference id="1138056546658" name="link" index="3TtcxE" />
      </concept>
    </language>
    <language id="ceab5195-25ea-4f22-9b92-103b95ca8c0c" name="jetbrains.mps.lang.core">
      <concept id="1133920641626" name="jetbrains.mps.lang.core.structure.BaseConcept" flags="ng" index="2VYdi">
        <property id="1193676396447" name="virtualPackage" index="3GE5qa" />
      </concept>
      <concept id="1169194658468" name="jetbrains.mps.lang.core.structure.INamedConcept" flags="ng" index="TrEIO">
        <property id="1169194664001" name="name" index="TrG5h" />
      </concept>
    </language>
    <language id="83888646-71ce-4f1c-9c53-c54016f6ad4f" name="jetbrains.mps.baseLanguage.collections">
      <concept id="1204796164442" name="jetbrains.mps.baseLanguage.collections.structure.InternalSequenceOperation" flags="nn" index="23sCx2">
        <child id="1204796294226" name="closure" index="23t8la" />
      </concept>
      <concept id="1176903168877" name="jetbrains.mps.baseLanguage.collections.structure.UnionOperation" flags="nn" index="4Tj9Z" />
      <concept id="1176906603202" name="jetbrains.mps.baseLanguage.collections.structure.BinaryOperation" flags="nn" index="56pJg">
        <child id="1176906787974" name="rightExpression" index="576Qk" />
      </concept>
      <concept id="1151689724996" name="jetbrains.mps.baseLanguage.collections.structure.SequenceType" flags="in" index="A3Dl8">
        <child id="1151689745422" name="elementType" index="A3Ik2" />
      </concept>
      <concept id="1151702311717" name="jetbrains.mps.baseLanguage.collections.structure.ToListOperation" flags="nn" index="ANE8D" />
      <concept id="1153943597977" name="jetbrains.mps.baseLanguage.collections.structure.ForEachStatement" flags="nn" index="2Gpval">
        <child id="1153944400369" name="variable" index="2Gsz3X" />
        <child id="1153944424730" name="inputSequence" index="2GsD0m" />
      </concept>
      <concept id="1153944193378" name="jetbrains.mps.baseLanguage.collections.structure.ForEachVariable" flags="nr" index="2GrKxI" />
      <concept id="1153944233411" name="jetbrains.mps.baseLanguage.collections.structure.ForEachVariableReference" flags="nn" index="2GrUjf">
        <reference id="1153944258490" name="variable" index="2Gs0qQ" />
      </concept>
      <concept id="1203518072036" name="jetbrains.mps.baseLanguage.collections.structure.SmartClosureParameterDeclaration" flags="ig" index="Rh6nW" />
      <concept id="1202120902084" name="jetbrains.mps.baseLanguage.collections.structure.WhereOperation" flags="nn" index="3zZkjj" />
    </language>
  </registry>
  <node concept="13h7C7" id="1wDV7BCyfP1">
    <property role="3GE5qa" value="chunk" />
    <ref role="13h7C2" to="os74:2tMu91FTK9z" resolve="AbstractChunk" />
    <node concept="13i0hz" id="7dT_6n17MwW" role="13h7CS">
      <property role="TrG5h" value="allReferenceableContentsInChunk" />
      <ref role="13i0hy" to="hwgx:6clJcrKmVSn" resolve="allReferenceableContentsInChunk" />
      <node concept="3Tm1VV" id="7dT_6n17MwX" role="1B3o_S" />
      <node concept="3clFbS" id="7dT_6n17Mx1" role="3clF47">
        <node concept="3clFbF" id="5VEHrQcWBW6" role="3cqZAp">
          <node concept="2OqwBi" id="1sudaVNnj0y" role="3clFbG">
            <node concept="13iPFW" id="1sudaVNniFF" role="2Oq$k0" />
            <node concept="2Rf3mk" id="1sudaVNnjqU" role="2OqNvi">
              <node concept="1xMEDy" id="1sudaVNnjqW" role="1xVPHs">
                <node concept="chp4Y" id="1sudaVNnjsk" role="ri$Ld">
                  <ref role="cht4Q" to="yv47:2uR5X5ayM7T" resolve="IToplevelExprContent" />
                </node>
              </node>
            </node>
          </node>
        </node>
      </node>
      <node concept="A3Dl8" id="7dT_6n17Mx2" role="3clF45">
        <node concept="3Tqbb2" id="7dT_6n17Mx3" role="A3Ik2" />
      </node>
    </node>
    <node concept="13i0hz" id="7dT_6n17Mx4" role="13h7CS">
      <property role="TrG5h" value="externallyReferenceableContentsInChunk" />
      <ref role="13i0hy" to="hwgx:6clJcrKmX4x" resolve="externallyReferenceableContentsInChunk" />
      <node concept="3Tm1VV" id="7dT_6n17Mx5" role="1B3o_S" />
      <node concept="3clFbS" id="7dT_6n17Mx9" role="3clF47">
        <node concept="3clFbF" id="5VEHrQcWCI0" role="3cqZAp">
          <node concept="BsUDl" id="5VEHrQcWCHZ" role="3clFbG">
            <ref role="37wK5l" to="hwgx:6clJcrKmVSn" resolve="allReferenceableContentsInChunk" />
          </node>
        </node>
      </node>
      <node concept="A3Dl8" id="7dT_6n17Mxa" role="3clF45">
        <node concept="3Tqbb2" id="7dT_6n17Mxb" role="A3Ik2" />
      </node>
    </node>
    <node concept="13i0hz" id="7dT_6n17Mxm" role="13h7CS">
      <property role="TrG5h" value="getUniquelyNamedElements" />
      <ref role="13i0hy" to="hwgx:4qSf1u1TRfj" resolve="getUniquelyNamedElements" />
      <node concept="3Tm1VV" id="7dT_6n17Mxn" role="1B3o_S" />
      <node concept="3clFbS" id="7dT_6n17Mxr" role="3clF47">
        <node concept="3clFbF" id="6HHp2WndiRX" role="3cqZAp">
          <node concept="2OqwBi" id="2c2AzQcGk1q" role="3clFbG">
            <node concept="2OqwBi" id="6HHp2WndiWA" role="2Oq$k0">
              <node concept="13iPFW" id="6HHp2WndiRW" role="2Oq$k0" />
              <node concept="2qgKlT" id="2c2AzQcGh4E" role="2OqNvi">
                <ref role="37wK5l" to="hwgx:6clJcrKmVSn" resolve="allReferenceableContentsInChunk" />
              </node>
            </node>
            <node concept="v3k3i" id="2c2AzQcGkpa" role="2OqNvi">
              <node concept="chp4Y" id="2c2AzQcGky8" role="v3oSu">
                <ref role="cht4Q" to="tpck:h0TrEE$" resolve="INamedConcept" />
              </node>
            </node>
          </node>
        </node>
      </node>
      <node concept="A3Dl8" id="7dT_6n17Mxs" role="3clF45">
        <node concept="3Tqbb2" id="7dT_6n17Mxt" role="A3Ik2">
          <ref role="ehGHo" to="tpck:h0TrEE$" resolve="INamedConcept" />
        </node>
      </node>
    </node>
    <node concept="13i0hz" id="1fqZlb37kQB" role="13h7CS">
      <property role="TrG5h" value="isImplementationArtifact" />
      <ref role="13i0hy" to="hwgx:7Vd878ENIh6" resolve="isImplementationArtifact" />
      <node concept="3Tm1VV" id="1fqZlb37kQC" role="1B3o_S" />
      <node concept="3clFbS" id="1fqZlb37kQH" role="3clF47">
        <node concept="3clFbF" id="1fqZlb37lxt" role="3cqZAp">
          <node concept="3clFbT" id="1fqZlb37lxs" role="3clFbG">
            <property role="3clFbU" value="true" />
          </node>
        </node>
      </node>
      <node concept="10P_77" id="1fqZlb37kQI" role="3clF45" />
    </node>
    <node concept="13i0hz" id="27lcHhomKWk" role="13h7CS">
      <property role="TrG5h" value="dependencies" />
      <ref role="13i0hy" to="hwgx:6clJcrJYPM5" resolve="dependencies" />
      <node concept="3Tm1VV" id="27lcHhomKWl" role="1B3o_S" />
      <node concept="3clFbS" id="27lcHhomKWm" role="3clF47">
        <node concept="3clFbF" id="27lcHhomKWn" role="3cqZAp">
          <node concept="2OqwBi" id="27lcHhomKWo" role="3clFbG">
            <node concept="13iPFW" id="27lcHhomKWp" role="2Oq$k0" />
            <node concept="3Tsc0h" id="27lcHhomKWq" role="2OqNvi">
              <ref role="3TtcxE" to="os74:28q_2hFENgT" resolve="imports" />
            </node>
          </node>
        </node>
      </node>
      <node concept="A3Dl8" id="27lcHhomKWr" role="3clF45">
        <node concept="3Tqbb2" id="27lcHhomKWs" role="A3Ik2">
          <ref role="ehGHo" to="vs0r:6clJcrJZLbn" resolve="IChunkDependency" />
        </node>
      </node>
    </node>
    <node concept="13i0hz" id="27lcHhonYKA" role="13h7CS">
      <property role="TrG5h" value="addGenericChunkDependency" />
      <ref role="13i0hy" to="hwgx:94IdDK$n_l" resolve="addGenericChunkDependency" />
      <node concept="3Tm1VV" id="27lcHhonYKB" role="1B3o_S" />
      <node concept="3clFbS" id="27lcHhonYKC" role="3clF47" />
      <node concept="37vLTG" id="27lcHhonYKD" role="3clF46">
        <property role="TrG5h" value="dep" />
        <node concept="3Tqbb2" id="27lcHhonYKE" role="1tU5fm">
          <ref role="ehGHo" to="vs0r:DubiFAXpld" resolve="DefaultGenericChunkDependency" />
        </node>
      </node>
      <node concept="3cqZAl" id="27lcHhonYKF" role="3clF45" />
    </node>
    <node concept="13i0hz" id="3djTyPjkwcg" role="13h7CS">
      <property role="TrG5h" value="getImportedOntologies" />
      <node concept="3Tm1VV" id="3djTyPjkwch" role="1B3o_S" />
      <node concept="A3Dl8" id="3djTyPjkz1u" role="3clF45">
        <node concept="3Tqbb2" id="3djTyPjkz1F" role="A3Ik2">
          <ref role="ehGHo" to="3jzb:4MI7ZB$Dtqf" resolve="Ontology" />
        </node>
      </node>
      <node concept="3clFbS" id="3djTyPjkwcj" role="3clF47">
        <node concept="2Gpval" id="3djTyPjjwNt" role="3cqZAp">
          <node concept="2GrKxI" id="3djTyPjjwNv" role="2Gsz3X">
            <property role="TrG5h" value="c" />
          </node>
          <node concept="3clFbS" id="3djTyPjjwNz" role="2LFqv$">
            <node concept="3cpWs6" id="1BX5PQI633n" role="3cqZAp">
              <node concept="2OqwBi" id="3djTyPjl2we" role="3cqZAk">
                <node concept="1PxgMI" id="3djTyPjuvdf" role="2Oq$k0">
                  <node concept="chp4Y" id="3djTyPjuvF4" role="3oSUPX">
                    <ref role="cht4Q" to="os74:2tMu91FTK9z" resolve="AbstractChunk" />
                  </node>
                  <node concept="2GrUjf" id="3djTyPjl0HL" role="1m5AlR">
                    <ref role="2Gs0qQ" node="3djTyPjjwNv" resolve="c" />
                  </node>
                </node>
                <node concept="2qgKlT" id="3djTyPjl4i9" role="2OqNvi">
                  <ref role="37wK5l" node="3djTyPjkwcg" resolve="getImportedOntologies" />
                  <node concept="2OqwBi" id="3djTyPjlDNz" role="37wK5m">
                    <node concept="2OqwBi" id="3djTyPjlzeH" role="2Oq$k0">
                      <node concept="2OqwBi" id="3djTyPjlvuR" role="2Oq$k0">
                        <node concept="1PxgMI" id="3djTyPjushw" role="2Oq$k0">
                          <node concept="chp4Y" id="3djTyPjusNA" role="3oSUPX">
                            <ref role="cht4Q" to="os74:2tMu91FTK9z" resolve="AbstractChunk" />
                          </node>
                          <node concept="2GrUjf" id="3djTyPjlv2b" role="1m5AlR">
                            <ref role="2Gs0qQ" node="3djTyPjjwNv" resolve="c" />
                          </node>
                        </node>
                        <node concept="3Tsc0h" id="3djTyPjlxjp" role="2OqNvi">
                          <ref role="3TtcxE" to="os74:28q_2hFENgT" resolve="imports" />
                        </node>
                      </node>
                      <node concept="13MTOL" id="3djTyPjlBEe" role="2OqNvi">
                        <ref role="13MTZf" to="os74:2aA5E1e5qp" resolve="chunk" />
                      </node>
                    </node>
                    <node concept="3zZkjj" id="3djTyPjlEpp" role="2OqNvi">
                      <node concept="1bVj0M" id="3djTyPjlEpr" role="23t8la">
                        <node concept="3clFbS" id="3djTyPjlEps" role="1bW5cS">
                          <node concept="3clFbF" id="3djTyPjlEyZ" role="3cqZAp">
                            <node concept="22lmx$" id="3djTyPjlHZN" role="3clFbG">
                              <node concept="2OqwBi" id="3djTyPjlIXt" role="3uHU7w">
                                <node concept="37vLTw" id="3djTyPjlIry" role="2Oq$k0">
                                  <ref role="3cqZAo" node="3djTyPjlEpt" resolve="it" />
                                </node>
                                <node concept="1mIQ4w" id="3djTyPjlKlM" role="2OqNvi">
                                  <node concept="chp4Y" id="3djTyPjlKM6" role="cj9EA">
                                    <ref role="cht4Q" to="gv6i:2WQ3iBRxHZI" resolve="Behaviour" />
                                  </node>
                                </node>
                              </node>
                              <node concept="2OqwBi" id="3djTyPjlEYS" role="3uHU7B">
                                <node concept="37vLTw" id="3djTyPjlEyY" role="2Oq$k0">
                                  <ref role="3cqZAo" node="3djTyPjlEpt" resolve="it" />
                                </node>
                                <node concept="1mIQ4w" id="3djTyPjlGyi" role="2OqNvi">
                                  <node concept="chp4Y" id="3djTyPjlGVJ" role="cj9EA">
                                    <ref role="cht4Q" to="os74:28q_2hFej6t" resolve="Module" />
                                  </node>
                                </node>
                              </node>
                            </node>
                          </node>
                        </node>
                        <node concept="Rh6nW" id="3djTyPjlEpt" role="1bW2Oz">
                          <property role="TrG5h" value="it" />
                          <node concept="2jxLKc" id="3djTyPjlEpu" role="1tU5fm" />
                        </node>
                      </node>
                    </node>
                  </node>
                  <node concept="2OqwBi" id="1BX5PQI4qBY" role="37wK5m">
                    <node concept="37vLTw" id="1BX5PQI4qBZ" role="2Oq$k0">
                      <ref role="3cqZAo" node="3djTyPjlhBV" resolve="ontologies" />
                    </node>
                    <node concept="4Tj9Z" id="1BX5PQIa5il" role="2OqNvi">
                      <node concept="2OqwBi" id="1BX5PQIdbez" role="576Qk">
                        <node concept="2OqwBi" id="1BX5PQIahb4" role="2Oq$k0">
                          <node concept="2OqwBi" id="1BX5PQIaccD" role="2Oq$k0">
                            <node concept="2OqwBi" id="1BX5PQIa7Hn" role="2Oq$k0">
                              <node concept="1PxgMI" id="1BX5PQIa6n6" role="2Oq$k0">
                                <node concept="chp4Y" id="1BX5PQIa6Nw" role="3oSUPX">
                                  <ref role="cht4Q" to="os74:2tMu91FTK9z" resolve="AbstractChunk" />
                                </node>
                                <node concept="2GrUjf" id="1BX5PQIa5N$" role="1m5AlR">
                                  <ref role="2Gs0qQ" node="3djTyPjjwNv" resolve="c" />
                                </node>
                              </node>
                              <node concept="3Tsc0h" id="1BX5PQIa8HS" role="2OqNvi">
                                <ref role="3TtcxE" to="os74:28q_2hFENgT" resolve="imports" />
                              </node>
                            </node>
                            <node concept="13MTOL" id="1BX5PQIafYR" role="2OqNvi">
                              <ref role="13MTZf" to="os74:2aA5E1e5qp" resolve="chunk" />
                            </node>
                          </node>
                          <node concept="v3k3i" id="1BX5PQIamEV" role="2OqNvi">
                            <node concept="chp4Y" id="1BX5PQIanfo" role="v3oSu">
                              <ref role="cht4Q" to="3jzb:4MI7ZB$Dtqf" resolve="Ontology" />
                            </node>
                          </node>
                        </node>
                        <node concept="ANE8D" id="1BX5PQIdceV" role="2OqNvi" />
                      </node>
                    </node>
                  </node>
                </node>
              </node>
            </node>
          </node>
          <node concept="37vLTw" id="3djTyPjl9KG" role="2GsD0m">
            <ref role="3cqZAo" node="3djTyPjl76$" resolve="chunks" />
          </node>
        </node>
        <node concept="3cpWs6" id="3djTyPjAcxQ" role="3cqZAp">
          <node concept="37vLTw" id="1BX5PQI5_2K" role="3cqZAk">
            <ref role="3cqZAo" node="3djTyPjlhBV" resolve="ontologies" />
          </node>
        </node>
      </node>
      <node concept="37vLTG" id="3djTyPjl76$" role="3clF46">
        <property role="TrG5h" value="chunks" />
        <node concept="A3Dl8" id="3djTyPjl76y" role="1tU5fm">
          <node concept="3Tqbb2" id="3djTyPjl8DQ" role="A3Ik2" />
        </node>
      </node>
      <node concept="37vLTG" id="3djTyPjlhBV" role="3clF46">
        <property role="TrG5h" value="ontologies" />
        <node concept="A3Dl8" id="3djTyPjlhQW" role="1tU5fm">
          <node concept="3Tqbb2" id="3djTyPjli3c" role="A3Ik2">
            <ref role="ehGHo" to="3jzb:4MI7ZB$Dtqf" resolve="Ontology" />
          </node>
        </node>
      </node>
    </node>
    <node concept="13hLZK" id="1wDV7BCyfP2" role="13h7CW">
      <node concept="3clFbS" id="1wDV7BCyfP3" role="2VODD2" />
    </node>
  </node>
  <node concept="13h7C7" id="3PPOQnmN6eK">
    <property role="3GE5qa" value="statements" />
    <ref role="13h7C2" to="os74:1wDV7BCtyf3" resolve="AbstractExpression" />
    <node concept="13i0hz" id="6ngDzsNlH85" role="13h7CS">
      <property role="TrG5h" value="renderReadable" />
      <ref role="13i0hy" to="pbu6:4Y0vh0cfqjE" resolve="renderReadable" />
      <node concept="3Tm1VV" id="6ngDzsNlH86" role="1B3o_S" />
      <node concept="3clFbS" id="6ngDzsNlH8j" role="3clF47">
        <node concept="3cpWs6" id="1dpQ_CuAkNa" role="3cqZAp">
          <node concept="2OqwBi" id="1dpQ_CuAkW9" role="3cqZAk">
            <node concept="2OqwBi" id="1dpQ_CuAkWa" role="2Oq$k0">
              <node concept="13iPFW" id="1dpQ_CuAkWb" role="2Oq$k0" />
              <node concept="2yIwOk" id="1dpQ_CuAkWc" role="2OqNvi" />
            </node>
            <node concept="3n3YKJ" id="1dpQ_CuAkWd" role="2OqNvi" />
          </node>
        </node>
      </node>
      <node concept="17QB3L" id="6ngDzsNlH8k" role="3clF45" />
    </node>
    <node concept="13i0hz" id="6GySMNjYGbw" role="13h7CS">
      <property role="13i0iv" value="false" />
      <property role="13i0it" value="false" />
      <property role="TrG5h" value="effectDescriptor" />
      <ref role="13i0hy" to="pbu6:6GySMNjjWfO" resolve="effectDescriptor" />
      <node concept="3Tm1VV" id="6GySMNjYGbx" role="1B3o_S" />
      <node concept="3clFbS" id="6GySMNjYGbE" role="3clF47">
        <node concept="3clFbF" id="6GySMNjjWxj" role="3cqZAp">
          <node concept="2ShNRf" id="6GySMNjjWxh" role="3clFbG">
            <node concept="1pGfFk" id="6GySMNjk5nJ" role="2ShVmc">
              <ref role="37wK5l" to="oq0c:3ni3WieuVew" resolve="EffectDescriptor" />
              <node concept="3clFbT" id="6GySMNjruqn" role="37wK5m">
                <property role="3clFbU" value="true" />
              </node>
              <node concept="3clFbT" id="51K8u7REK11" role="37wK5m">
                <property role="3clFbU" value="true" />
              </node>
              <node concept="3clFbT" id="6GySMNjk5oc" role="37wK5m" />
            </node>
          </node>
        </node>
      </node>
      <node concept="3uibUv" id="6GySMNjYGbF" role="3clF45">
        <ref role="3uigEE" to="oq0c:3ni3WieuV7z" resolve="EffectDescriptor" />
      </node>
    </node>
    <node concept="13hLZK" id="3PPOQnmN6eL" role="13h7CW">
      <node concept="3clFbS" id="3PPOQnmN6eM" role="2VODD2" />
    </node>
  </node>
  <node concept="13h7C7" id="2aA5E1e5TL">
    <property role="3GE5qa" value="chunk" />
    <ref role="13h7C2" to="os74:2aA5E1npHs" resolve="IChunkDep" />
    <node concept="13hLZK" id="2aA5E1e5TM" role="13h7CW">
      <node concept="3clFbS" id="2aA5E1e5TN" role="2VODD2" />
    </node>
    <node concept="13i0hz" id="2aA5E1e5TW" role="13h7CS">
      <property role="TrG5h" value="isReexported" />
      <ref role="13i0hy" to="hwgx:6clJcrKt_a0" resolve="isReexported" />
      <node concept="3Tm1VV" id="2aA5E1e5TX" role="1B3o_S" />
      <node concept="3clFbS" id="2aA5E1e5U0" role="3clF47">
        <node concept="3clFbF" id="2aA5E1e5U3" role="3cqZAp">
          <node concept="3clFbT" id="2aA5E1e5U2" role="3clFbG" />
        </node>
      </node>
      <node concept="10P_77" id="2aA5E1e5U1" role="3clF45" />
    </node>
    <node concept="13i0hz" id="DubiFAXCLf" role="13h7CS">
      <property role="TrG5h" value="chunk" />
      <property role="13i0it" value="false" />
      <property role="13i0iv" value="false" />
      <ref role="13i0hy" to="hwgx:6clJcrJZN1z" resolve="chunk" />
      <node concept="3Tm1VV" id="DubiFAXCLg" role="1B3o_S" />
      <node concept="3clFbS" id="DubiFAXCLj" role="3clF47">
        <node concept="3clFbF" id="DubiFAXCMG" role="3cqZAp">
          <node concept="2OqwBi" id="DubiFAXCQP" role="3clFbG">
            <node concept="13iPFW" id="DubiFAXCMF" role="2Oq$k0" />
            <node concept="3TrEf2" id="DubiFAXEE5" role="2OqNvi">
              <ref role="3Tt5mk" to="os74:2aA5E1e5qp" resolve="chunk" />
            </node>
          </node>
        </node>
      </node>
      <node concept="3Tqbb2" id="DubiFAXCLk" role="3clF45">
        <ref role="ehGHo" to="vs0r:6clJcrJYOUA" resolve="Chunk" />
      </node>
    </node>
  </node>
  <node concept="13h7C7" id="2aA5E1v8gZ">
    <property role="3GE5qa" value="module" />
    <ref role="13h7C2" to="os74:28q_2hFej6t" resolve="Module" />
    <node concept="13i0hz" id="7dT_6n17Mxu" role="13h7CS">
      <property role="TrG5h" value="asString" />
      <ref role="13i0hy" to="pbu6:6iqfHNBPkjP" resolve="asString" />
      <node concept="3Tm1VV" id="7dT_6n17Mxv" role="1B3o_S" />
      <node concept="3clFbS" id="7dT_6n17Mxy" role="3clF47">
        <node concept="3clFbF" id="6iqfHNBPm8k" role="3cqZAp">
          <node concept="3cpWs3" id="6iqfHNBPmaD" role="3clFbG">
            <node concept="2OqwBi" id="6iqfHNBPmfP" role="3uHU7w">
              <node concept="13iPFW" id="6iqfHNBPmaK" role="2Oq$k0" />
              <node concept="3TrcHB" id="6iqfHNBPmrk" role="2OqNvi">
                <ref role="3TsBF5" to="tpck:h0TrG11" resolve="name" />
              </node>
            </node>
            <node concept="Xl_RD" id="6iqfHNBPm8j" role="3uHU7B">
              <property role="Xl_RC" value="[Module Chunk] " />
            </node>
          </node>
        </node>
      </node>
      <node concept="17QB3L" id="7dT_6n17Mxz" role="3clF45" />
    </node>
    <node concept="13hLZK" id="2aA5E1v8h0" role="13h7CW">
      <node concept="3clFbS" id="2aA5E1v8h1" role="2VODD2" />
    </node>
  </node>
  <node concept="13h7C7" id="6OKQOIXrQ0g">
    <property role="3GE5qa" value="performative" />
    <ref role="13h7C2" to="os74:6OKQOIXeu_H" resolve="PerformativeType" />
    <node concept="13i0hz" id="5L2mTKmA_eR" role="13h7CS">
      <property role="TrG5h" value="isSameAs" />
      <property role="13i0it" value="false" />
      <property role="13i0iv" value="false" />
      <ref role="13i0hy" to="pbu6:fIXgjlt4VE" resolve="isSameAs" />
      <node concept="3Tm1VV" id="5L2mTKmA_eS" role="1B3o_S" />
      <node concept="3clFbS" id="5L2mTKmA_eT" role="3clF47">
        <node concept="3clFbJ" id="5L2mTKmA_eU" role="3cqZAp">
          <node concept="3clFbS" id="5L2mTKmA_eV" role="3clFbx">
            <node concept="3cpWs6" id="5L2mTKmA_eW" role="3cqZAp">
              <node concept="3clFbT" id="5L2mTKmA_eX" role="3cqZAk">
                <property role="3clFbU" value="false" />
              </node>
            </node>
          </node>
          <node concept="3clFbC" id="5L2mTKmA_eY" role="3clFbw">
            <node concept="10Nm6u" id="5L2mTKmA_eZ" role="3uHU7w" />
            <node concept="37vLTw" id="5L2mTKmA_f0" role="3uHU7B">
              <ref role="3cqZAo" node="5L2mTKmA_ff" resolve="other" />
            </node>
          </node>
        </node>
        <node concept="3clFbJ" id="5L2mTKmA_f1" role="3cqZAp">
          <node concept="3clFbS" id="5L2mTKmA_f2" role="3clFbx">
            <node concept="3cpWs6" id="5L2mTKmA_f3" role="3cqZAp">
              <node concept="3clFbT" id="5L2mTKmA_f4" role="3cqZAk">
                <property role="3clFbU" value="false" />
              </node>
            </node>
          </node>
          <node concept="3fqX7Q" id="5L2mTKmA_f5" role="3clFbw">
            <node concept="1eOMI4" id="5L2mTKmA_f6" role="3fr31v">
              <node concept="2OqwBi" id="5L2mTKmA_f7" role="1eOMHV">
                <node concept="37vLTw" id="5L2mTKmA_f8" role="2Oq$k0">
                  <ref role="3cqZAo" node="5L2mTKmA_ff" resolve="other" />
                </node>
                <node concept="1mIQ4w" id="5L2mTKmA_f9" role="2OqNvi">
                  <node concept="chp4Y" id="5L2mTKmAC9q" role="cj9EA">
                    <ref role="cht4Q" to="os74:6OKQOIXeu_H" resolve="PerformativeType" />
                  </node>
                </node>
              </node>
            </node>
          </node>
        </node>
        <node concept="3cpWs8" id="5L2mTKmA_fa" role="3cqZAp">
          <node concept="3cpWsn" id="5L2mTKmA_fb" role="3cpWs9">
            <property role="TrG5h" value="casted" />
            <node concept="3Tqbb2" id="5L2mTKmA_fc" role="1tU5fm">
              <ref role="ehGHo" to="os74:6OKQOIXeu_H" resolve="PerformativeType" />
            </node>
            <node concept="1PxgMI" id="5L2mTKmA_fd" role="33vP2m">
              <node concept="chp4Y" id="6b_jefnKzkn" role="3oSUPX">
                <ref role="cht4Q" to="os74:6OKQOIXeu_H" resolve="PerformativeType" />
              </node>
              <node concept="37vLTw" id="5L2mTKmA_fe" role="1m5AlR">
                <ref role="3cqZAo" node="5L2mTKmA_ff" resolve="other" />
              </node>
            </node>
          </node>
        </node>
        <node concept="3clFbF" id="5L2mTKmAC$l" role="3cqZAp">
          <node concept="3clFbC" id="5L2mTKmADmW" role="3clFbG">
            <node concept="2OqwBi" id="5L2mTKmADAe" role="3uHU7w">
              <node concept="37vLTw" id="5L2mTKmADt6" role="2Oq$k0">
                <ref role="3cqZAo" node="5L2mTKmA_fb" resolve="casted" />
              </node>
              <node concept="2qgKlT" id="6OKQOIXvRKN" role="2OqNvi">
                <ref role="37wK5l" to="pbu6:XhdFKv3UAU" resolve="baseType" />
              </node>
            </node>
            <node concept="2OqwBi" id="5L2mTKmACJP" role="3uHU7B">
              <node concept="13iPFW" id="5L2mTKmAC$b" role="2Oq$k0" />
              <node concept="2qgKlT" id="6OKQOIXvR7$" role="2OqNvi">
                <ref role="37wK5l" to="pbu6:XhdFKv3UAU" resolve="baseType" />
              </node>
            </node>
          </node>
        </node>
      </node>
      <node concept="37vLTG" id="5L2mTKmA_ff" role="3clF46">
        <property role="TrG5h" value="other" />
        <node concept="3Tqbb2" id="5L2mTKmA_fg" role="1tU5fm">
          <ref role="ehGHo" to="hm2y:6sdnDbSlaok" resolve="Type" />
        </node>
      </node>
      <node concept="10P_77" id="5L2mTKmA_fh" role="3clF45" />
    </node>
    <node concept="13hLZK" id="6OKQOIXrQ0h" role="13h7CW">
      <node concept="3clFbS" id="6OKQOIXrQ0i" role="2VODD2" />
    </node>
  </node>
  <node concept="13h7C7" id="6OKQOIXjVLd">
    <property role="3GE5qa" value="aid.operations" />
    <ref role="13h7C2" to="os74:6OKQOIXjSYm" resolve="GetLocalName" />
    <node concept="13i0hz" id="6OKQOIXjVLo" role="13h7CS">
      <property role="TrG5h" value="renderReadable" />
      <ref role="13i0hy" to="pbu6:6kR0qIbI2yi" resolve="renderReadable" />
      <node concept="3Tm1VV" id="6OKQOIXjVLp" role="1B3o_S" />
      <node concept="3clFbS" id="6OKQOIXjVLq" role="3clF47">
        <node concept="3clFbF" id="6OKQOIXjVLr" role="3cqZAp">
          <node concept="Xl_RD" id="6OKQOIXjVLs" role="3clFbG">
            <property role="Xl_RC" value="localName" />
          </node>
        </node>
      </node>
      <node concept="17QB3L" id="6OKQOIXjVLt" role="3clF45" />
    </node>
    <node concept="13hLZK" id="6OKQOIXjVLe" role="13h7CW">
      <node concept="3clFbS" id="6OKQOIXjVLf" role="2VODD2" />
    </node>
  </node>
  <node concept="13h7C7" id="6OKQOIXjVR$">
    <property role="3GE5qa" value="aid.operations" />
    <ref role="13h7C2" to="os74:6OKQOIXjVBv" resolve="GetName" />
    <node concept="13i0hz" id="6OKQOIXjVW4" role="13h7CS">
      <property role="TrG5h" value="renderReadable" />
      <ref role="13i0hy" to="pbu6:6kR0qIbI2yi" resolve="renderReadable" />
      <node concept="3Tm1VV" id="6OKQOIXjVW5" role="1B3o_S" />
      <node concept="3clFbS" id="6OKQOIXjVW6" role="3clF47">
        <node concept="3clFbF" id="6OKQOIXjVW7" role="3cqZAp">
          <node concept="Xl_RD" id="6OKQOIXjVW8" role="3clFbG">
            <property role="Xl_RC" value="name" />
          </node>
        </node>
      </node>
      <node concept="17QB3L" id="6OKQOIXjVW9" role="3clF45" />
    </node>
    <node concept="13hLZK" id="6OKQOIXjVR_" role="13h7CW">
      <node concept="3clFbS" id="6OKQOIXjVRA" role="2VODD2" />
    </node>
  </node>
</model>

