<?xml version="1.0" encoding="UTF-8"?>
<model ref="r:30bec5ea-f881-4baf-ae76-c39eb765f1a5(MetaJade.core.typesystem)">
  <persistence version="9" />
  <languages>
    <use id="7a5dda62-9140-4668-ab76-d5ed1746f2b2" name="jetbrains.mps.lang.typesystem" version="5" />
    <devkit ref="00000000-0000-4000-0000-1de82b3a4936(jetbrains.mps.devkit.aspect.typesystem)" />
  </languages>
  <imports>
    <import index="hm2y" ref="r:66e07cb4-a4b0-4bf3-a36d-5e9ed1ff1bd3(org.iets3.core.expr.base.structure)" />
    <import index="5qo5" ref="r:6d93ddb1-b0b0-4eee-8079-51303666672a(org.iets3.core.expr.simpleTypes.structure)" />
    <import index="os74" ref="r:0a69036a-4d31-45e1-887d-acbe5b8039f5(MetaJade.core.structure)" />
    <import index="yv47" ref="r:da65683e-ff6f-430d-ab68-32a77df72c93(org.iets3.core.expr.toplevel.structure)" implicit="true" />
    <import index="pbu6" ref="r:83e946de-2a7f-4a4c-b3c9-4f671aa7f2db(org.iets3.core.expr.base.behavior)" implicit="true" />
    <import index="zzzn" ref="r:af0af2e7-f7e1-4536-83b5-6bf010d4afd2(org.iets3.core.expr.lambda.structure)" implicit="true" />
    <import index="700h" ref="r:61b1de80-490d-4fee-8e95-b956503290e9(org.iets3.core.expr.collections.structure)" implicit="true" />
  </imports>
  <registry>
    <language id="f3061a53-9226-4cc5-a443-f952ceaf5816" name="jetbrains.mps.baseLanguage">
      <concept id="4836112446988635817" name="jetbrains.mps.baseLanguage.structure.UndefinedType" flags="in" index="2jxLKc" />
      <concept id="1154032098014" name="jetbrains.mps.baseLanguage.structure.AbstractLoopStatement" flags="nn" index="2LF5Ji">
        <child id="1154032183016" name="body" index="2LFqv$" />
      </concept>
      <concept id="1197027756228" name="jetbrains.mps.baseLanguage.structure.DotExpression" flags="nn" index="2OqwBi">
        <child id="1197027771414" name="operand" index="2Oq$k0" />
        <child id="1197027833540" name="operation" index="2OqNvi" />
      </concept>
      <concept id="1070475926800" name="jetbrains.mps.baseLanguage.structure.StringLiteral" flags="nn" index="Xl_RD">
        <property id="1070475926801" name="value" index="Xl_RC" />
      </concept>
      <concept id="1068431474542" name="jetbrains.mps.baseLanguage.structure.VariableDeclaration" flags="ng" index="33uBYm">
        <child id="1068431790190" name="initializer" index="33vP2m" />
      </concept>
      <concept id="1068498886296" name="jetbrains.mps.baseLanguage.structure.VariableReference" flags="nn" index="37vLTw">
        <reference id="1068581517664" name="variableDeclaration" index="3cqZAo" />
      </concept>
      <concept id="4972933694980447171" name="jetbrains.mps.baseLanguage.structure.BaseVariableDeclaration" flags="ng" index="19Szcq">
        <child id="5680397130376446158" name="type" index="1tU5fm" />
      </concept>
      <concept id="1068580123155" name="jetbrains.mps.baseLanguage.structure.ExpressionStatement" flags="nn" index="3clFbF">
        <child id="1068580123156" name="expression" index="3clFbG" />
      </concept>
      <concept id="1068580123157" name="jetbrains.mps.baseLanguage.structure.Statement" flags="nn" index="3clFbH" />
      <concept id="1068580123159" name="jetbrains.mps.baseLanguage.structure.IfStatement" flags="nn" index="3clFbJ">
        <child id="1068580123160" name="condition" index="3clFbw" />
        <child id="1068580123161" name="ifTrue" index="3clFbx" />
      </concept>
      <concept id="1068580123136" name="jetbrains.mps.baseLanguage.structure.StatementList" flags="sn" stub="5293379017992965193" index="3clFbS">
        <child id="1068581517665" name="statement" index="3cqZAp" />
      </concept>
      <concept id="1068581242864" name="jetbrains.mps.baseLanguage.structure.LocalVariableDeclarationStatement" flags="nn" index="3cpWs8">
        <child id="1068581242865" name="localVariableDeclaration" index="3cpWs9" />
      </concept>
      <concept id="1068581242863" name="jetbrains.mps.baseLanguage.structure.LocalVariableDeclaration" flags="nr" index="3cpWsn" />
      <concept id="1081516740877" name="jetbrains.mps.baseLanguage.structure.NotExpression" flags="nn" index="3fqX7Q">
        <child id="1081516765348" name="expression" index="3fr31v" />
      </concept>
      <concept id="1204053956946" name="jetbrains.mps.baseLanguage.structure.IMethodCall" flags="ng" index="1ndlxa">
        <reference id="1068499141037" name="baseMethodDeclaration" index="37wK5l" />
      </concept>
      <concept id="1081773326031" name="jetbrains.mps.baseLanguage.structure.BinaryOperation" flags="nn" index="3uHJSO">
        <child id="1081773367579" name="rightExpression" index="3uHU7w" />
        <child id="1081773367580" name="leftExpression" index="3uHU7B" />
      </concept>
      <concept id="1080120340718" name="jetbrains.mps.baseLanguage.structure.AndExpression" flags="nn" index="1Wc70l" />
    </language>
    <language id="fd392034-7849-419d-9071-12563d152375" name="jetbrains.mps.baseLanguage.closures">
      <concept id="1199569711397" name="jetbrains.mps.baseLanguage.closures.structure.ClosureLiteral" flags="nn" index="1bVj0M">
        <child id="1199569906740" name="parameter" index="1bW2Oz" />
        <child id="1199569916463" name="body" index="1bW5cS" />
      </concept>
    </language>
    <language id="3a13115c-633c-4c5c-bbcc-75c4219e9555" name="jetbrains.mps.lang.quotation">
      <concept id="5455284157993863837" name="jetbrains.mps.lang.quotation.structure.NodeBuilder" flags="nn" index="2pJPEk">
        <child id="5455284157993863838" name="quotedNode" index="2pJPEn" />
      </concept>
      <concept id="5455284157993863840" name="jetbrains.mps.lang.quotation.structure.NodeBuilderNode" flags="nn" index="2pJPED">
        <reference id="5455284157993910961" name="concept" index="2pJxaS" />
      </concept>
    </language>
    <language id="7a5dda62-9140-4668-ab76-d5ed1746f2b2" name="jetbrains.mps.lang.typesystem">
      <concept id="1185788614172" name="jetbrains.mps.lang.typesystem.structure.NormalTypeClause" flags="ng" index="mw_s8">
        <child id="1185788644032" name="normalType" index="mwGJk" />
      </concept>
      <concept id="1175517767210" name="jetbrains.mps.lang.typesystem.structure.ReportErrorStatement" flags="nn" index="2MkqsV">
        <child id="1175517851849" name="errorString" index="2MkJ7o" />
      </concept>
      <concept id="1195213580585" name="jetbrains.mps.lang.typesystem.structure.AbstractCheckingRule" flags="ig" index="18hYwZ">
        <child id="1195213635060" name="body" index="18ibNy" />
      </concept>
      <concept id="1195214364922" name="jetbrains.mps.lang.typesystem.structure.NonTypesystemRule" flags="ig" index="18kY7G" />
      <concept id="3937244445246642777" name="jetbrains.mps.lang.typesystem.structure.AbstractReportStatement" flags="ng" index="1urrMJ">
        <child id="3937244445246642781" name="nodeToReport" index="1urrMF" />
      </concept>
      <concept id="1176544042499" name="jetbrains.mps.lang.typesystem.structure.Node_TypeOperation" flags="nn" index="3JvlWi" />
      <concept id="1174642788531" name="jetbrains.mps.lang.typesystem.structure.ConceptReference" flags="ig" index="1YaCAy">
        <reference id="1174642800329" name="concept" index="1YaFvo" />
      </concept>
      <concept id="1174643105530" name="jetbrains.mps.lang.typesystem.structure.InferenceRule" flags="ig" index="1YbPZF" />
      <concept id="1174648085619" name="jetbrains.mps.lang.typesystem.structure.AbstractRule" flags="ng" index="1YuPPy">
        <child id="1174648101952" name="applicableNode" index="1YuTPh" />
      </concept>
      <concept id="1174650418652" name="jetbrains.mps.lang.typesystem.structure.ApplicableNodeReference" flags="nn" index="1YBJjd">
        <reference id="1174650432090" name="applicableNode" index="1YBMHb" />
      </concept>
      <concept id="1174657487114" name="jetbrains.mps.lang.typesystem.structure.TypeOfExpression" flags="nn" index="1Z2H0r">
        <child id="1174657509053" name="term" index="1Z2MuG" />
      </concept>
      <concept id="1174658326157" name="jetbrains.mps.lang.typesystem.structure.CreateEquationStatement" flags="nn" index="1Z5TYs" />
      <concept id="1174660718586" name="jetbrains.mps.lang.typesystem.structure.AbstractEquationStatement" flags="nn" index="1Zf1VF">
        <child id="1174660783413" name="leftExpression" index="1ZfhK$" />
        <child id="1174660783414" name="rightExpression" index="1ZfhKB" />
      </concept>
    </language>
    <language id="7866978e-a0f0-4cc7-81bc-4d213d9375e1" name="jetbrains.mps.lang.smodel">
      <concept id="1177026924588" name="jetbrains.mps.lang.smodel.structure.RefConcept_Reference" flags="nn" index="chp4Y">
        <reference id="1177026940964" name="conceptDeclaration" index="cht4Q" />
      </concept>
      <concept id="1138411891628" name="jetbrains.mps.lang.smodel.structure.SNodeOperation" flags="nn" index="eCIE_">
        <child id="1144104376918" name="parameter" index="1xVPHs" />
      </concept>
      <concept id="1179409122411" name="jetbrains.mps.lang.smodel.structure.Node_ConceptMethodCall" flags="nn" index="2qgKlT" />
      <concept id="1171305280644" name="jetbrains.mps.lang.smodel.structure.Node_GetDescendantsOperation" flags="nn" index="2Rf3mk" />
      <concept id="1139621453865" name="jetbrains.mps.lang.smodel.structure.Node_IsInstanceOfOperation" flags="nn" index="1mIQ4w">
        <child id="1177027386292" name="conceptArgument" index="cj9EA" />
      </concept>
      <concept id="1144101972840" name="jetbrains.mps.lang.smodel.structure.OperationParm_Concept" flags="ng" index="1xMEDy">
        <child id="1207343664468" name="conceptArgument" index="ri$Ld" />
      </concept>
      <concept id="1138055754698" name="jetbrains.mps.lang.smodel.structure.SNodeType" flags="in" index="3Tqbb2" />
      <concept id="1138056022639" name="jetbrains.mps.lang.smodel.structure.SPropertyAccess" flags="nn" index="3TrcHB">
        <reference id="1138056395725" name="property" index="3TsBF5" />
      </concept>
      <concept id="1138056143562" name="jetbrains.mps.lang.smodel.structure.SLinkAccess" flags="nn" index="3TrEf2">
        <reference id="1138056516764" name="link" index="3Tt5mk" />
      </concept>
    </language>
    <language id="ceab5195-25ea-4f22-9b92-103b95ca8c0c" name="jetbrains.mps.lang.core">
      <concept id="1133920641626" name="jetbrains.mps.lang.core.structure.BaseConcept" flags="ng" index="2VYdi">
        <property id="1193676396447" name="virtualPackage" index="3GE5qa" />
      </concept>
      <concept id="1169194658468" name="jetbrains.mps.lang.core.structure.INamedConcept" flags="ng" index="TrEIO">
        <property id="1169194664001" name="name" index="TrG5h" />
      </concept>
    </language>
    <language id="83888646-71ce-4f1c-9c53-c54016f6ad4f" name="jetbrains.mps.baseLanguage.collections">
      <concept id="1204796164442" name="jetbrains.mps.baseLanguage.collections.structure.InternalSequenceOperation" flags="nn" index="23sCx2">
        <child id="1204796294226" name="closure" index="23t8la" />
      </concept>
      <concept id="1151689724996" name="jetbrains.mps.baseLanguage.collections.structure.SequenceType" flags="in" index="A3Dl8">
        <child id="1151689745422" name="elementType" index="A3Ik2" />
      </concept>
      <concept id="1153943597977" name="jetbrains.mps.baseLanguage.collections.structure.ForEachStatement" flags="nn" index="2Gpval">
        <child id="1153944400369" name="variable" index="2Gsz3X" />
        <child id="1153944424730" name="inputSequence" index="2GsD0m" />
      </concept>
      <concept id="1153944193378" name="jetbrains.mps.baseLanguage.collections.structure.ForEachVariable" flags="nr" index="2GrKxI" />
      <concept id="1153944233411" name="jetbrains.mps.baseLanguage.collections.structure.ForEachVariableReference" flags="nn" index="2GrUjf">
        <reference id="1153944258490" name="variable" index="2Gs0qQ" />
      </concept>
      <concept id="1203518072036" name="jetbrains.mps.baseLanguage.collections.structure.SmartClosureParameterDeclaration" flags="ig" index="Rh6nW" />
      <concept id="1202120902084" name="jetbrains.mps.baseLanguage.collections.structure.WhereOperation" flags="nn" index="3zZkjj" />
      <concept id="1176501494711" name="jetbrains.mps.baseLanguage.collections.structure.IsNotEmptyOperation" flags="nn" index="3GX2aA" />
    </language>
  </registry>
  <node concept="18kY7G" id="3ITt9Ks8DoK">
    <property role="TrG5h" value="check_AbstractChunk" />
    <property role="3GE5qa" value="chunk" />
    <node concept="3clFbS" id="3ITt9Ks8DoL" role="18ibNy">
      <node concept="3cpWs8" id="3ITt9Ks9Mmr" role="3cqZAp">
        <node concept="3cpWsn" id="3ITt9Ks9Mmu" role="3cpWs9">
          <property role="TrG5h" value="functionsWhichReturnJoinType" />
          <node concept="A3Dl8" id="3ITt9Ks9Mmo" role="1tU5fm">
            <node concept="3Tqbb2" id="3ITt9Ks9Mnd" role="A3Ik2" />
          </node>
          <node concept="2OqwBi" id="3ITt9Ks9vcs" role="33vP2m">
            <node concept="2OqwBi" id="3ITt9Ks8DLZ" role="2Oq$k0">
              <node concept="1YBJjd" id="3ITt9Ks8DoR" role="2Oq$k0">
                <ref role="1YBMHb" node="3ITt9Ks8DoN" resolve="abstractChunk" />
              </node>
              <node concept="2Rf3mk" id="3ITt9Ks8Esa" role="2OqNvi">
                <node concept="1xMEDy" id="3ITt9Ks8Esc" role="1xVPHs">
                  <node concept="chp4Y" id="3ITt9Ks8E$3" role="ri$Ld">
                    <ref role="cht4Q" to="yv47:49WTic8f4iz" resolve="Function" />
                  </node>
                </node>
              </node>
            </node>
            <node concept="3zZkjj" id="3ITt9Ks9vMi" role="2OqNvi">
              <node concept="1bVj0M" id="3ITt9Ks9vMk" role="23t8la">
                <node concept="3clFbS" id="3ITt9Ks9vMl" role="1bW5cS">
                  <node concept="3clFbF" id="3ITt9Ks9vXz" role="3cqZAp">
                    <node concept="2OqwBi" id="3ITt9Ks9wd9" role="3clFbG">
                      <node concept="2OqwBi" id="3ITt9KsaoiE" role="2Oq$k0">
                        <node concept="2OqwBi" id="3ITt9Ksad$W" role="2Oq$k0">
                          <node concept="37vLTw" id="3ITt9Ks9vXy" role="2Oq$k0">
                            <ref role="3cqZAo" node="3ITt9Ks9vMm" resolve="it" />
                          </node>
                          <node concept="2qgKlT" id="3ITt9Ksaf7D" role="2OqNvi">
                            <ref role="37wK5l" to="pbu6:5aHkq2w4m8L" resolve="getNodeFromWhichToDeriveType" />
                          </node>
                        </node>
                        <node concept="3JvlWi" id="3ITt9KsaoHR" role="2OqNvi" />
                      </node>
                      <node concept="1mIQ4w" id="3ITt9Ks9x6o" role="2OqNvi">
                        <node concept="chp4Y" id="3ITt9Ks9xgV" role="cj9EA">
                          <ref role="cht4Q" to="hm2y:7VuYlCQZ3ll" resolve="JoinType" />
                        </node>
                      </node>
                    </node>
                  </node>
                </node>
                <node concept="Rh6nW" id="3ITt9Ks9vMm" role="1bW2Oz">
                  <property role="TrG5h" value="it" />
                  <node concept="2jxLKc" id="3ITt9Ks9vMn" role="1tU5fm" />
                </node>
              </node>
            </node>
          </node>
        </node>
      </node>
      <node concept="3clFbJ" id="3ITt9Ks9aZw" role="3cqZAp">
        <node concept="3clFbS" id="3ITt9Ks9aZy" role="3clFbx">
          <node concept="2Gpval" id="3ITt9Ks9KLf" role="3cqZAp">
            <node concept="2GrKxI" id="3ITt9Ks9KLh" role="2Gsz3X">
              <property role="TrG5h" value="f" />
            </node>
            <node concept="3clFbS" id="3ITt9Ks9KLl" role="2LFqv$">
              <node concept="2MkqsV" id="3ITt9Ks9zsc" role="3cqZAp">
                <node concept="Xl_RD" id="3ITt9Ks9PaH" role="2MkJ7o">
                  <property role="Xl_RC" value="Functions cannot return a join type" />
                </node>
                <node concept="2GrUjf" id="3ITt9Ks9Lqq" role="1urrMF">
                  <ref role="2Gs0qQ" node="3ITt9Ks9KLh" resolve="f" />
                </node>
              </node>
            </node>
            <node concept="37vLTw" id="3ITt9Ks9NwD" role="2GsD0m">
              <ref role="3cqZAo" node="3ITt9Ks9Mmu" resolve="functionsWhichReturnJoinType" />
            </node>
          </node>
        </node>
        <node concept="2OqwBi" id="3ITt9Ks9MY4" role="3clFbw">
          <node concept="37vLTw" id="3ITt9Ks9MKa" role="2Oq$k0">
            <ref role="3cqZAo" node="3ITt9Ks9Mmu" resolve="functionsWhichReturnJoinType" />
          </node>
          <node concept="3GX2aA" id="3ITt9Ks9Nmi" role="2OqNvi" />
        </node>
      </node>
      <node concept="3clFbH" id="7pSCmEpRV4P" role="3cqZAp" />
      <node concept="3cpWs8" id="7pSCmEpRV6i" role="3cqZAp">
        <node concept="3cpWsn" id="7pSCmEpRV6l" role="3cpWs9">
          <property role="TrG5h" value="nestedIfs" />
          <node concept="A3Dl8" id="7pSCmEpRV6m" role="1tU5fm">
            <node concept="3Tqbb2" id="7pSCmEpRV6n" role="A3Ik2" />
          </node>
          <node concept="2OqwBi" id="7pSCmEpRV6o" role="33vP2m">
            <node concept="2OqwBi" id="7pSCmEpRV6p" role="2Oq$k0">
              <node concept="1YBJjd" id="7pSCmEpRV6q" role="2Oq$k0">
                <ref role="1YBMHb" node="3ITt9Ks8DoN" resolve="abstractChunk" />
              </node>
              <node concept="2Rf3mk" id="7pSCmEpRV6r" role="2OqNvi">
                <node concept="1xMEDy" id="7pSCmEpRV6s" role="1xVPHs">
                  <node concept="chp4Y" id="7pSCmEpRV6t" role="ri$Ld">
                    <ref role="cht4Q" to="hm2y:6NJfo6_rQ9E" resolve="IfExpression" />
                  </node>
                </node>
              </node>
            </node>
            <node concept="3zZkjj" id="7pSCmEpRV6u" role="2OqNvi">
              <node concept="1bVj0M" id="7pSCmEpRV6v" role="23t8la">
                <node concept="3clFbS" id="7pSCmEpRV6w" role="1bW5cS">
                  <node concept="3clFbF" id="7pSCmEpRV6x" role="3cqZAp">
                    <node concept="2OqwBi" id="7pSCmEpS3E0" role="3clFbG">
                      <node concept="2OqwBi" id="7pSCmEpRWkm" role="2Oq$k0">
                        <node concept="37vLTw" id="7pSCmEpRVRR" role="2Oq$k0">
                          <ref role="3cqZAo" node="7pSCmEpRV6E" resolve="it" />
                        </node>
                        <node concept="2Rf3mk" id="7pSCmEpRXF4" role="2OqNvi">
                          <node concept="1xMEDy" id="7pSCmEpRXF6" role="1xVPHs">
                            <node concept="chp4Y" id="7pSCmEpRY4S" role="ri$Ld">
                              <ref role="cht4Q" to="hm2y:6NJfo6_rQ9E" resolve="IfExpression" />
                            </node>
                          </node>
                        </node>
                      </node>
                      <node concept="3GX2aA" id="7pSCmEpScYi" role="2OqNvi" />
                    </node>
                  </node>
                </node>
                <node concept="Rh6nW" id="7pSCmEpRV6E" role="1bW2Oz">
                  <property role="TrG5h" value="it" />
                  <node concept="2jxLKc" id="7pSCmEpRV6F" role="1tU5fm" />
                </node>
              </node>
            </node>
          </node>
        </node>
      </node>
      <node concept="3clFbJ" id="7pSCmEpSd71" role="3cqZAp">
        <node concept="3clFbS" id="7pSCmEpSd72" role="3clFbx">
          <node concept="2Gpval" id="7pSCmEpSd73" role="3cqZAp">
            <node concept="2GrKxI" id="7pSCmEpSd74" role="2Gsz3X">
              <property role="TrG5h" value="ifNode" />
            </node>
            <node concept="3clFbS" id="7pSCmEpSd75" role="2LFqv$">
              <node concept="2MkqsV" id="7pSCmEpSd76" role="3cqZAp">
                <node concept="Xl_RD" id="7pSCmEpSd77" role="2MkJ7o">
                  <property role="Xl_RC" value="If expressions cannot be nested" />
                </node>
                <node concept="2GrUjf" id="7pSCmEpSd78" role="1urrMF">
                  <ref role="2Gs0qQ" node="7pSCmEpSd74" resolve="ifNode" />
                </node>
              </node>
            </node>
            <node concept="37vLTw" id="7pSCmEpSd79" role="2GsD0m">
              <ref role="3cqZAo" node="7pSCmEpRV6l" resolve="nestedIfs" />
            </node>
          </node>
        </node>
        <node concept="2OqwBi" id="7pSCmEpSd7a" role="3clFbw">
          <node concept="37vLTw" id="7pSCmEpSd7b" role="2Oq$k0">
            <ref role="3cqZAo" node="7pSCmEpRV6l" resolve="nestedIfs" />
          </node>
          <node concept="3GX2aA" id="7pSCmEpSd7c" role="2OqNvi" />
        </node>
      </node>
      <node concept="3clFbH" id="7pSCmEpRV5z" role="3cqZAp" />
      <node concept="3cpWs8" id="20OPlBttrrq" role="3cqZAp">
        <node concept="3cpWsn" id="20OPlBttrrt" role="3cpWs9">
          <property role="TrG5h" value="extensionFunctions" />
          <node concept="A3Dl8" id="20OPlBttrrn" role="1tU5fm">
            <node concept="3Tqbb2" id="20OPlBttrt1" role="A3Ik2" />
          </node>
          <node concept="2OqwBi" id="20OPlBttA64" role="33vP2m">
            <node concept="2OqwBi" id="20OPlBttrR$" role="2Oq$k0">
              <node concept="1YBJjd" id="20OPlBttruc" role="2Oq$k0">
                <ref role="1YBMHb" node="3ITt9Ks8DoN" resolve="abstractChunk" />
              </node>
              <node concept="2Rf3mk" id="20OPlBttsZG" role="2OqNvi">
                <node concept="1xMEDy" id="20OPlBttsZI" role="1xVPHs">
                  <node concept="chp4Y" id="20OPlBtttbP" role="ri$Ld">
                    <ref role="cht4Q" to="yv47:49WTic8f4iz" resolve="Function" />
                  </node>
                </node>
              </node>
            </node>
            <node concept="3zZkjj" id="20OPlBttRqV" role="2OqNvi">
              <node concept="1bVj0M" id="20OPlBttRqX" role="23t8la">
                <node concept="3clFbS" id="20OPlBttRqY" role="1bW5cS">
                  <node concept="3clFbF" id="20OPlBttRYb" role="3cqZAp">
                    <node concept="2OqwBi" id="20OPlBttSMn" role="3clFbG">
                      <node concept="37vLTw" id="20OPlBttRYa" role="2Oq$k0">
                        <ref role="3cqZAo" node="20OPlBttRqZ" resolve="it" />
                      </node>
                      <node concept="3TrcHB" id="20OPlBttVIP" role="2OqNvi">
                        <ref role="3TsBF5" to="zzzn:2uR5X5azvjH" resolve="ext" />
                      </node>
                    </node>
                  </node>
                </node>
                <node concept="Rh6nW" id="20OPlBttRqZ" role="1bW2Oz">
                  <property role="TrG5h" value="it" />
                  <node concept="2jxLKc" id="20OPlBttRr0" role="1tU5fm" />
                </node>
              </node>
            </node>
          </node>
        </node>
      </node>
      <node concept="3clFbJ" id="20OPlBttZ$C" role="3cqZAp">
        <node concept="3clFbS" id="20OPlBttZ$E" role="3clFbx">
          <node concept="2Gpval" id="20OPlBtu0d8" role="3cqZAp">
            <node concept="2GrKxI" id="20OPlBtu0da" role="2Gsz3X">
              <property role="TrG5h" value="f" />
            </node>
            <node concept="37vLTw" id="20OPlBtu0dw" role="2GsD0m">
              <ref role="3cqZAo" node="20OPlBttrrt" resolve="extensionFunctions" />
            </node>
            <node concept="3clFbS" id="20OPlBtu0de" role="2LFqv$">
              <node concept="2MkqsV" id="20OPlBtu0eb" role="3cqZAp">
                <node concept="Xl_RD" id="20OPlBtu0en" role="2MkJ7o">
                  <property role="Xl_RC" value="Extension functions are not supported" />
                </node>
                <node concept="2GrUjf" id="20OPlBtu0hN" role="1urrMF">
                  <ref role="2Gs0qQ" node="20OPlBtu0da" resolve="f" />
                </node>
              </node>
            </node>
          </node>
        </node>
        <node concept="2OqwBi" id="20OPlBttZOI" role="3clFbw">
          <node concept="37vLTw" id="20OPlBttZAF" role="2Oq$k0">
            <ref role="3cqZAo" node="20OPlBttrrt" resolve="extensionFunctions" />
          </node>
          <node concept="3GX2aA" id="20OPlBtu0cO" role="2OqNvi" />
        </node>
      </node>
    </node>
    <node concept="1YaCAy" id="3ITt9Ks8DoN" role="1YuTPh">
      <property role="TrG5h" value="abstractChunk" />
      <ref role="1YaFvo" to="os74:2tMu91FTK9z" resolve="AbstractChunk" />
    </node>
  </node>
  <node concept="1YbPZF" id="6OKQOIXjVS9">
    <property role="TrG5h" value="typeof_GetName" />
    <property role="3GE5qa" value="aid.operations" />
    <node concept="3clFbS" id="6OKQOIXjVSa" role="18ibNy">
      <node concept="1Z5TYs" id="6OKQOIXjVSg" role="3cqZAp">
        <node concept="mw_s8" id="6OKQOIXjVSh" role="1ZfhK$">
          <node concept="1Z2H0r" id="6OKQOIXjVSi" role="mwGJk">
            <node concept="1YBJjd" id="6OKQOIXjVSj" role="1Z2MuG">
              <ref role="1YBMHb" node="6OKQOIXjVSc" resolve="getName" />
            </node>
          </node>
        </node>
        <node concept="mw_s8" id="6OKQOIXjVUy" role="1ZfhKB">
          <node concept="2pJPEk" id="6OKQOIXjVUu" role="mwGJk">
            <node concept="2pJPED" id="6OKQOIXjVUw" role="2pJPEn">
              <ref role="2pJxaS" to="5qo5:4rZeNQ6OYR7" resolve="StringType" />
            </node>
          </node>
        </node>
      </node>
    </node>
    <node concept="1YaCAy" id="6OKQOIXjVSc" role="1YuTPh">
      <property role="TrG5h" value="getName" />
      <ref role="1YaFvo" to="os74:6OKQOIXjVBv" resolve="GetName" />
    </node>
  </node>
  <node concept="1YbPZF" id="6OKQOIXjVMF">
    <property role="TrG5h" value="typeof_GetLocalName" />
    <property role="3GE5qa" value="aid.operations" />
    <node concept="3clFbS" id="6OKQOIXjVMG" role="18ibNy">
      <node concept="1Z5TYs" id="6OKQOIXjVOa" role="3cqZAp">
        <node concept="mw_s8" id="6OKQOIXjVOb" role="1ZfhK$">
          <node concept="1Z2H0r" id="6OKQOIXjVOc" role="mwGJk">
            <node concept="1YBJjd" id="6OKQOIXjVOd" role="1Z2MuG">
              <ref role="1YBMHb" node="6OKQOIXjVMI" resolve="getLocalName" />
            </node>
          </node>
        </node>
        <node concept="mw_s8" id="6OKQOIXejnL" role="1ZfhKB">
          <node concept="2pJPEk" id="6OKQOIXjVQt" role="mwGJk">
            <node concept="2pJPED" id="6OKQOIXjVQv" role="2pJPEn">
              <ref role="2pJxaS" to="5qo5:4rZeNQ6OYR7" resolve="StringType" />
            </node>
          </node>
        </node>
      </node>
    </node>
    <node concept="1YaCAy" id="6OKQOIXjVMI" role="1YuTPh">
      <property role="TrG5h" value="getLocalName" />
      <ref role="1YaFvo" to="os74:6OKQOIXjSYm" resolve="GetLocalName" />
    </node>
  </node>
  <node concept="1YbPZF" id="6OKQOIXjWKc">
    <property role="TrG5h" value="typeof_AIDDeclaration" />
    <property role="3GE5qa" value="aid" />
    <node concept="3clFbS" id="6OKQOIXjWKd" role="18ibNy">
      <node concept="1Z5TYs" id="6OKQOIXjWV8" role="3cqZAp">
        <node concept="mw_s8" id="6OKQOIXjWVs" role="1ZfhKB">
          <node concept="2pJPEk" id="6OKQOIXjWVo" role="mwGJk">
            <node concept="2pJPED" id="6OKQOIXjWVq" role="2pJPEn">
              <ref role="2pJxaS" to="os74:3JB$QJ8oGPX" resolve="AIDType" />
            </node>
          </node>
        </node>
        <node concept="mw_s8" id="6OKQOIXjWVb" role="1ZfhK$">
          <node concept="1Z2H0r" id="6OKQOIXjWKj" role="mwGJk">
            <node concept="1YBJjd" id="6OKQOIXjWMb" role="1Z2MuG">
              <ref role="1YBMHb" node="6OKQOIXjWKf" resolve="aidDeclaration" />
            </node>
          </node>
        </node>
      </node>
    </node>
    <node concept="1YaCAy" id="6OKQOIXjWKf" role="1YuTPh">
      <property role="TrG5h" value="aidDeclaration" />
      <ref role="1YaFvo" to="os74:6OKQOIXjSXU" resolve="AIDDeclaration" />
    </node>
  </node>
  <node concept="1YbPZF" id="28$c8FRSaFu">
    <property role="TrG5h" value="typeof_Log" />
    <property role="3GE5qa" value="statements" />
    <node concept="3clFbS" id="28$c8FRSaFv" role="18ibNy">
      <node concept="1Z5TYs" id="28$c8FRSaF_" role="3cqZAp">
        <node concept="mw_s8" id="28$c8FRSaFA" role="1ZfhKB">
          <node concept="2pJPEk" id="28$c8FRSaFB" role="mwGJk">
            <node concept="2pJPED" id="28$c8FRSaFC" role="2pJPEn">
              <ref role="2pJxaS" to="os74:80jriwjIN" resolve="UnitType" />
            </node>
          </node>
        </node>
        <node concept="mw_s8" id="28$c8FRSaFD" role="1ZfhK$">
          <node concept="1Z2H0r" id="28$c8FRSaFE" role="mwGJk">
            <node concept="1YBJjd" id="28$c8FRSaFF" role="1Z2MuG">
              <ref role="1YBMHb" node="28$c8FRSaFx" resolve="log" />
            </node>
          </node>
        </node>
      </node>
    </node>
    <node concept="1YaCAy" id="28$c8FRSaFx" role="1YuTPh">
      <property role="TrG5h" value="log" />
      <ref role="1YaFvo" to="os74:28$c8FRSadP" resolve="Log" />
    </node>
  </node>
  <node concept="18kY7G" id="5ZGapTENaKJ">
    <property role="TrG5h" value="check_Log" />
    <property role="3GE5qa" value="statements" />
    <node concept="3clFbS" id="5ZGapTENaKK" role="18ibNy">
      <node concept="3clFbJ" id="5ZGapTENaKQ" role="3cqZAp">
        <node concept="1Wc70l" id="6uhyzyZUmRn" role="3clFbw">
          <node concept="3fqX7Q" id="6uhyzyZUmUe" role="3uHU7w">
            <node concept="2OqwBi" id="6uhyzyZUphJ" role="3fr31v">
              <node concept="2OqwBi" id="6uhyzyZUonz" role="2Oq$k0">
                <node concept="2OqwBi" id="6uhyzyZUnjJ" role="2Oq$k0">
                  <node concept="1YBJjd" id="6uhyzyZUmUi" role="2Oq$k0">
                    <ref role="1YBMHb" node="5ZGapTENaKM" resolve="log" />
                  </node>
                  <node concept="3TrEf2" id="6uhyzyZUo9o" role="2OqNvi">
                    <ref role="3Tt5mk" to="os74:28$c8FRYT6O" resolve="value" />
                  </node>
                </node>
                <node concept="3JvlWi" id="6uhyzyZUoSr" role="2OqNvi" />
              </node>
              <node concept="1mIQ4w" id="6uhyzyZUpvx" role="2OqNvi">
                <node concept="chp4Y" id="6uhyzyZUpxL" role="cj9EA">
                  <ref role="cht4Q" to="yv47:7D7uZV2dYz2" resolve="RecordType" />
                </node>
              </node>
            </node>
          </node>
          <node concept="1Wc70l" id="5ZGapTENh17" role="3uHU7B">
            <node concept="3fqX7Q" id="5ZGapTENgAG" role="3uHU7B">
              <node concept="2OqwBi" id="5ZGapTENgAI" role="3fr31v">
                <node concept="2OqwBi" id="5ZGapTENgAJ" role="2Oq$k0">
                  <node concept="2OqwBi" id="5ZGapTENgAK" role="2Oq$k0">
                    <node concept="1YBJjd" id="5ZGapTENgAL" role="2Oq$k0">
                      <ref role="1YBMHb" node="5ZGapTENaKM" resolve="log" />
                    </node>
                    <node concept="3TrEf2" id="5ZGapTENgAM" role="2OqNvi">
                      <ref role="3Tt5mk" to="os74:28$c8FRYT6O" resolve="value" />
                    </node>
                  </node>
                  <node concept="3JvlWi" id="5ZGapTENgAN" role="2OqNvi" />
                </node>
                <node concept="1mIQ4w" id="5ZGapTENgAO" role="2OqNvi">
                  <node concept="chp4Y" id="5ZGapTENgAP" role="cj9EA">
                    <ref role="cht4Q" to="5qo5:4rZeNQ6OYR7" resolve="StringType" />
                  </node>
                </node>
              </node>
            </node>
            <node concept="3fqX7Q" id="5ZGapTENgZr" role="3uHU7w">
              <node concept="2OqwBi" id="5ZGapTENgZt" role="3fr31v">
                <node concept="2OqwBi" id="5ZGapTENgZu" role="2Oq$k0">
                  <node concept="2OqwBi" id="5ZGapTENgZv" role="2Oq$k0">
                    <node concept="1YBJjd" id="5ZGapTENgZw" role="2Oq$k0">
                      <ref role="1YBMHb" node="5ZGapTENaKM" resolve="log" />
                    </node>
                    <node concept="3TrEf2" id="5ZGapTENgZx" role="2OqNvi">
                      <ref role="3Tt5mk" to="os74:28$c8FRYT6O" resolve="value" />
                    </node>
                  </node>
                  <node concept="3JvlWi" id="5ZGapTENgZy" role="2OqNvi" />
                </node>
                <node concept="1mIQ4w" id="5ZGapTENgZz" role="2OqNvi">
                  <node concept="chp4Y" id="5ZGapTENgZ$" role="cj9EA">
                    <ref role="cht4Q" to="700h:6zmBjqUinsw" resolve="ListType" />
                  </node>
                </node>
              </node>
            </node>
          </node>
        </node>
        <node concept="3clFbS" id="5ZGapTENaKS" role="3clFbx">
          <node concept="2MkqsV" id="5ZGapTENh3d" role="3cqZAp">
            <node concept="Xl_RD" id="5ZGapTENhYP" role="2MkJ7o">
              <property role="Xl_RC" value="Only String or List or Record type are supported" />
            </node>
            <node concept="2OqwBi" id="5ZGapTENhif" role="1urrMF">
              <node concept="1YBJjd" id="5ZGapTENh3p" role="2Oq$k0">
                <ref role="1YBMHb" node="5ZGapTENaKM" resolve="log" />
              </node>
              <node concept="3TrEf2" id="5ZGapTENhLQ" role="2OqNvi">
                <ref role="3Tt5mk" to="os74:28$c8FRYT6O" resolve="value" />
              </node>
            </node>
          </node>
        </node>
      </node>
    </node>
    <node concept="1YaCAy" id="5ZGapTENaKM" role="1YuTPh">
      <property role="TrG5h" value="log" />
      <ref role="1YaFvo" to="os74:28$c8FRSadP" resolve="Log" />
    </node>
  </node>
  <node concept="1YbPZF" id="4TWmWFY0m9K">
    <property role="TrG5h" value="typeof_Stop" />
    <property role="3GE5qa" value="statements" />
    <node concept="3clFbS" id="4TWmWFY0m9L" role="18ibNy">
      <node concept="1Z5TYs" id="4TWmWFY0mkU" role="3cqZAp">
        <node concept="mw_s8" id="4TWmWFY0mle" role="1ZfhKB">
          <node concept="2pJPEk" id="4TWmWFY0mla" role="mwGJk">
            <node concept="2pJPED" id="4TWmWFY0mlc" role="2pJPEn">
              <ref role="2pJxaS" to="os74:80jriwjIN" resolve="UnitType" />
            </node>
          </node>
        </node>
        <node concept="mw_s8" id="4TWmWFY0mkX" role="1ZfhK$">
          <node concept="1Z2H0r" id="4TWmWFY0m9R" role="mwGJk">
            <node concept="1YBJjd" id="4TWmWFY0mdr" role="1Z2MuG">
              <ref role="1YBMHb" node="4TWmWFY0m9N" resolve="stop" />
            </node>
          </node>
        </node>
      </node>
    </node>
    <node concept="1YaCAy" id="4TWmWFY0m9N" role="1YuTPh">
      <property role="TrG5h" value="stop" />
      <ref role="1YaFvo" to="os74:5zd1xVkqXAQ" resolve="Stop" />
    </node>
  </node>
</model>

