<?xml version="1.0" encoding="UTF-8"?>
<model ref="r:71aa42ea-15c8-4d7e-ac5c-5f7a0de3a1f5(MetaJade.core.constraints)">
  <persistence version="9" />
  <languages>
    <use id="5dae8159-ab99-46bb-a40d-0cee30ee7018" name="jetbrains.mps.lang.constraints.rules.kinds" version="0" />
    <use id="ea3159bf-f48e-4720-bde2-86dba75f0d34" name="jetbrains.mps.lang.context.defs" version="0" />
    <use id="e51810c5-7308-4642-bcb6-469e61b5dd18" name="jetbrains.mps.lang.constraints.msg.specification" version="0" />
    <use id="134c38d4-e3af-4d9e-b069-1c7df0a4005d" name="jetbrains.mps.lang.constraints.rules.skeleton" version="0" />
    <use id="b3551702-269c-4f05-ba61-58060cef4292" name="jetbrains.mps.lang.rulesAndMessages" version="0" />
    <use id="3f4bc5f5-c6c1-4a28-8b10-c83066ffa4a1" name="jetbrains.mps.lang.constraints" version="6" />
    <use id="13744753-c81f-424a-9c1b-cf8943bf4e86" name="jetbrains.mps.lang.sharedConcepts" version="0" />
    <use id="3ad5badc-1d9c-461c-b7b1-fa2fcd0a0ae7" name="jetbrains.mps.lang.context" version="0" />
    <use id="ad93155d-79b2-4759-b10c-55123e763903" name="jetbrains.mps.lang.messages" version="0" />
    <use id="7a5dda62-9140-4668-ab76-d5ed1746f2b2" name="jetbrains.mps.lang.typesystem" version="5" />
    <devkit ref="00000000-0000-4000-0000-5604ebd4f22c(jetbrains.mps.devkit.aspect.constraints)" />
  </languages>
  <imports>
    <import index="hwgx" ref="r:fd2980c8-676c-4b19-b524-18c70e02f8b7(com.mbeddr.core.base.behavior)" />
    <import index="vs0r" ref="r:f7764ca4-8c75-4049-922b-08516400a727(com.mbeddr.core.base.structure)" />
    <import index="os74" ref="r:0a69036a-4d31-45e1-887d-acbe5b8039f5(MetaJade.core.structure)" />
    <import index="o8zo" ref="r:314576fc-3aee-4386-a0a5-a38348ac317d(jetbrains.mps.scope)" />
    <import index="3jzb" ref="r:606f7dcd-0d13-4ed2-8b48-a19323636f6b(MetaJade.ontology.structure)" />
    <import index="21iy" ref="r:3c601dd3-56a8-40ab-a417-66a36a925be1(MetaJade.core.editor)" />
    <import index="hm2y" ref="r:66e07cb4-a4b0-4bf3-a36d-5e9ed1ff1bd3(org.iets3.core.expr.base.structure)" />
  </imports>
  <registry>
    <language id="f3061a53-9226-4cc5-a443-f952ceaf5816" name="jetbrains.mps.baseLanguage">
      <concept id="1080223426719" name="jetbrains.mps.baseLanguage.structure.OrExpression" flags="nn" index="22lmx$" />
      <concept id="4836112446988635817" name="jetbrains.mps.baseLanguage.structure.UndefinedType" flags="in" index="2jxLKc" />
      <concept id="1197027756228" name="jetbrains.mps.baseLanguage.structure.DotExpression" flags="nn" index="2OqwBi">
        <child id="1197027771414" name="operand" index="2Oq$k0" />
        <child id="1197027833540" name="operation" index="2OqNvi" />
      </concept>
      <concept id="1137021947720" name="jetbrains.mps.baseLanguage.structure.ConceptFunction" flags="in" index="2VMwT0">
        <child id="1137022507850" name="body" index="2VODD2" />
      </concept>
      <concept id="1081236700937" name="jetbrains.mps.baseLanguage.structure.StaticMethodCall" flags="nn" index="2YIFZM">
        <reference id="1144433194310" name="classConcept" index="1Pybhc" />
      </concept>
      <concept id="1070533707846" name="jetbrains.mps.baseLanguage.structure.StaticFieldReference" flags="nn" index="10M0yZ">
        <reference id="1144433057691" name="classifier" index="1PxDUh" />
      </concept>
      <concept id="1068431474542" name="jetbrains.mps.baseLanguage.structure.VariableDeclaration" flags="ng" index="33uBYm">
        <child id="1068431790190" name="initializer" index="33vP2m" />
      </concept>
      <concept id="1068498886296" name="jetbrains.mps.baseLanguage.structure.VariableReference" flags="nn" index="37vLTw">
        <reference id="1068581517664" name="variableDeclaration" index="3cqZAo" />
      </concept>
      <concept id="4972933694980447171" name="jetbrains.mps.baseLanguage.structure.BaseVariableDeclaration" flags="ng" index="19Szcq">
        <child id="5680397130376446158" name="type" index="1tU5fm" />
      </concept>
      <concept id="1068580123155" name="jetbrains.mps.baseLanguage.structure.ExpressionStatement" flags="nn" index="3clFbF">
        <child id="1068580123156" name="expression" index="3clFbG" />
      </concept>
      <concept id="1068580123157" name="jetbrains.mps.baseLanguage.structure.Statement" flags="nn" index="3clFbH" />
      <concept id="1068580123136" name="jetbrains.mps.baseLanguage.structure.StatementList" flags="sn" stub="5293379017992965193" index="3clFbS">
        <child id="1068581517665" name="statement" index="3cqZAp" />
      </concept>
      <concept id="1068581242864" name="jetbrains.mps.baseLanguage.structure.LocalVariableDeclarationStatement" flags="nn" index="3cpWs8">
        <child id="1068581242865" name="localVariableDeclaration" index="3cpWs9" />
      </concept>
      <concept id="1068581242863" name="jetbrains.mps.baseLanguage.structure.LocalVariableDeclaration" flags="nr" index="3cpWsn" />
      <concept id="1079359253375" name="jetbrains.mps.baseLanguage.structure.ParenthesizedExpression" flags="nn" index="1eOMI4">
        <child id="1079359253376" name="expression" index="1eOMHV" />
      </concept>
      <concept id="1081516740877" name="jetbrains.mps.baseLanguage.structure.NotExpression" flags="nn" index="3fqX7Q">
        <child id="1081516765348" name="expression" index="3fr31v" />
      </concept>
      <concept id="1204053956946" name="jetbrains.mps.baseLanguage.structure.IMethodCall" flags="ng" index="1ndlxa">
        <reference id="1068499141037" name="baseMethodDeclaration" index="37wK5l" />
        <child id="1068499141038" name="actualArgument" index="37wK5m" />
      </concept>
      <concept id="1081773326031" name="jetbrains.mps.baseLanguage.structure.BinaryOperation" flags="nn" index="3uHJSO">
        <child id="1081773367579" name="rightExpression" index="3uHU7w" />
        <child id="1081773367580" name="leftExpression" index="3uHU7B" />
      </concept>
      <concept id="1073239437375" name="jetbrains.mps.baseLanguage.structure.NotEqualsExpression" flags="nn" index="3y3z36" />
      <concept id="1080120340718" name="jetbrains.mps.baseLanguage.structure.AndExpression" flags="nn" index="1Wc70l" />
    </language>
    <language id="3f4bc5f5-c6c1-4a28-8b10-c83066ffa4a1" name="jetbrains.mps.lang.constraints">
      <concept id="6702802731807351367" name="jetbrains.mps.lang.constraints.structure.ConstraintFunction_CanBeAChild" flags="in" index="9S07l" />
      <concept id="6702802731807424858" name="jetbrains.mps.lang.constraints.structure.ConstraintFunction_CanBeAnAncestor" flags="in" index="9SQb8" />
      <concept id="1202989658459" name="jetbrains.mps.lang.constraints.structure.ConstraintFunctionParameter_parentNode" flags="nn" index="nLn13" />
      <concept id="8966504967485224688" name="jetbrains.mps.lang.constraints.structure.ConstraintFunctionParameter_contextNode" flags="nn" index="2rP1CM" />
      <concept id="6738154313879680265" name="jetbrains.mps.lang.constraints.structure.ConstraintFunctionParameter_childNode" flags="nn" index="2H4GUG" />
      <concept id="5564765827938091039" name="jetbrains.mps.lang.constraints.structure.ConstraintFunction_ReferentSearchScope_Scope" flags="ig" index="3dgokm" />
      <concept id="1213093968558" name="jetbrains.mps.lang.constraints.structure.ConceptConstraints" flags="ng" index="1M2fIO">
        <reference id="1213093996982" name="concept" index="1M2myG" />
        <child id="6702802731807532730" name="canBeAncestor" index="9SGkC" />
        <child id="6702802731807737306" name="canBeChild" index="9Vyp8" />
        <child id="1213100494875" name="referent" index="1Mr941" />
      </concept>
      <concept id="1148687176410" name="jetbrains.mps.lang.constraints.structure.NodeReferentConstraint" flags="ng" index="1N5Pfh">
        <reference id="1148687202698" name="applicableLink" index="1N5Vy1" />
        <child id="1148687345559" name="searchScopeFactory" index="1N6uqs" />
      </concept>
    </language>
    <language id="fd392034-7849-419d-9071-12563d152375" name="jetbrains.mps.baseLanguage.closures">
      <concept id="1199569711397" name="jetbrains.mps.baseLanguage.closures.structure.ClosureLiteral" flags="nn" index="1bVj0M">
        <child id="1199569906740" name="parameter" index="1bW2Oz" />
        <child id="1199569916463" name="body" index="1bW5cS" />
      </concept>
    </language>
    <language id="7a5dda62-9140-4668-ab76-d5ed1746f2b2" name="jetbrains.mps.lang.typesystem">
      <concept id="1176544042499" name="jetbrains.mps.lang.typesystem.structure.Node_TypeOperation" flags="nn" index="3JvlWi" />
    </language>
    <language id="7866978e-a0f0-4cc7-81bc-4d213d9375e1" name="jetbrains.mps.lang.smodel">
      <concept id="1177026924588" name="jetbrains.mps.lang.smodel.structure.RefConcept_Reference" flags="nn" index="chp4Y">
        <reference id="1177026940964" name="conceptDeclaration" index="cht4Q" />
      </concept>
      <concept id="1138411891628" name="jetbrains.mps.lang.smodel.structure.SNodeOperation" flags="nn" index="eCIE_">
        <child id="1144104376918" name="parameter" index="1xVPHs" />
      </concept>
      <concept id="1179409122411" name="jetbrains.mps.lang.smodel.structure.Node_ConceptMethodCall" flags="nn" index="2qgKlT" />
      <concept id="7453996997717780434" name="jetbrains.mps.lang.smodel.structure.Node_GetSConceptOperation" flags="nn" index="2yIwOk" />
      <concept id="2396822768958367367" name="jetbrains.mps.lang.smodel.structure.AbstractTypeCastExpression" flags="nn" index="$5XWr">
        <child id="6733348108486823193" name="leftExpression" index="1m5AlR" />
        <child id="3906496115198199033" name="conceptArgument" index="3oSUPX" />
      </concept>
      <concept id="1143234257716" name="jetbrains.mps.lang.smodel.structure.Node_GetModelOperation" flags="nn" index="I4A8Y" />
      <concept id="1171407110247" name="jetbrains.mps.lang.smodel.structure.Node_GetAncestorOperation" flags="nn" index="2Xjw5R" />
      <concept id="1182511038748" name="jetbrains.mps.lang.smodel.structure.Model_NodesIncludingImportedOperation" flags="nn" index="1j9C0f">
        <child id="6750920497477143623" name="conceptArgument" index="3MHPCF" />
      </concept>
      <concept id="1139621453865" name="jetbrains.mps.lang.smodel.structure.Node_IsInstanceOfOperation" flags="nn" index="1mIQ4w">
        <child id="1177027386292" name="conceptArgument" index="cj9EA" />
      </concept>
      <concept id="1172008320231" name="jetbrains.mps.lang.smodel.structure.Node_IsNotNullOperation" flags="nn" index="3x8VRR" />
      <concept id="1144100932627" name="jetbrains.mps.lang.smodel.structure.OperationParm_Inclusion" flags="ng" index="1xIGOp" />
      <concept id="1144101972840" name="jetbrains.mps.lang.smodel.structure.OperationParm_Concept" flags="ng" index="1xMEDy">
        <child id="1207343664468" name="conceptArgument" index="ri$Ld" />
      </concept>
      <concept id="1140137987495" name="jetbrains.mps.lang.smodel.structure.SNodeTypeCastExpression" flags="nn" index="1PxgMI" />
      <concept id="1138055754698" name="jetbrains.mps.lang.smodel.structure.SNodeType" flags="in" index="3Tqbb2">
        <reference id="1138405853777" name="concept" index="ehGHo" />
      </concept>
      <concept id="1138056143562" name="jetbrains.mps.lang.smodel.structure.SLinkAccess" flags="nn" index="3TrEf2">
        <reference id="1138056516764" name="link" index="3Tt5mk" />
      </concept>
    </language>
    <language id="ceab5195-25ea-4f22-9b92-103b95ca8c0c" name="jetbrains.mps.lang.core">
      <concept id="1133920641626" name="jetbrains.mps.lang.core.structure.BaseConcept" flags="ng" index="2VYdi">
        <property id="1193676396447" name="virtualPackage" index="3GE5qa" />
      </concept>
      <concept id="1169194658468" name="jetbrains.mps.lang.core.structure.INamedConcept" flags="ng" index="TrEIO">
        <property id="1169194664001" name="name" index="TrG5h" />
      </concept>
    </language>
    <language id="83888646-71ce-4f1c-9c53-c54016f6ad4f" name="jetbrains.mps.baseLanguage.collections">
      <concept id="1204796164442" name="jetbrains.mps.baseLanguage.collections.structure.InternalSequenceOperation" flags="nn" index="23sCx2">
        <child id="1204796294226" name="closure" index="23t8la" />
      </concept>
      <concept id="540871147943773365" name="jetbrains.mps.baseLanguage.collections.structure.SingleArgumentSequenceOperation" flags="nn" index="25WWJ4">
        <child id="540871147943773366" name="argument" index="25WWJ7" />
      </concept>
      <concept id="1151689724996" name="jetbrains.mps.baseLanguage.collections.structure.SequenceType" flags="in" index="A3Dl8">
        <child id="1151689745422" name="elementType" index="A3Ik2" />
      </concept>
      <concept id="1203518072036" name="jetbrains.mps.baseLanguage.collections.structure.SmartClosureParameterDeclaration" flags="ig" index="Rh6nW" />
      <concept id="1202120902084" name="jetbrains.mps.baseLanguage.collections.structure.WhereOperation" flags="nn" index="3zZkjj" />
      <concept id="1172254888721" name="jetbrains.mps.baseLanguage.collections.structure.ContainsOperation" flags="nn" index="3JPx81" />
    </language>
  </registry>
  <node concept="1M2fIO" id="2aA5E1dRZ9">
    <property role="3GE5qa" value="chunk" />
    <ref role="1M2myG" to="os74:2aA5E1npHs" resolve="IChunkDep" />
    <node concept="9S07l" id="2aA5E1dUtG" role="9Vyp8">
      <node concept="3clFbS" id="2aA5E1dUtH" role="2VODD2">
        <node concept="3clFbF" id="3PPOQnm__cJ" role="3cqZAp">
          <node concept="2OqwBi" id="3PPOQnm__p3" role="3clFbG">
            <node concept="nLn13" id="3PPOQnm__cI" role="2Oq$k0" />
            <node concept="1mIQ4w" id="3PPOQnm__AK" role="2OqNvi">
              <node concept="chp4Y" id="3PPOQnm__NT" role="cj9EA">
                <ref role="cht4Q" to="os74:2tMu91FTK9z" resolve="AbstractChunk" />
              </node>
            </node>
          </node>
        </node>
      </node>
    </node>
  </node>
  <node concept="1M2fIO" id="2aA5E1petF">
    <property role="3GE5qa" value="module" />
    <ref role="1M2myG" to="os74:1wDV7BCwUzw" resolve="ModuleDependency" />
    <node concept="1N5Pfh" id="2aA5E1u0cL" role="1Mr941">
      <ref role="1N5Vy1" to="os74:2aA5E1e5qp" resolve="chunk" />
      <node concept="3dgokm" id="2aA5E1u0cP" role="1N6uqs">
        <node concept="3clFbS" id="2aA5E1u0cR" role="2VODD2">
          <node concept="3cpWs8" id="2aA5E17oSa" role="3cqZAp">
            <node concept="3cpWsn" id="2aA5E17oSd" role="3cpWs9">
              <property role="TrG5h" value="availableChunks" />
              <node concept="A3Dl8" id="2aA5E17oS7" role="1tU5fm">
                <node concept="3Tqbb2" id="2aA5E17uMv" role="A3Ik2">
                  <ref role="ehGHo" to="vs0r:6clJcrJYOUA" resolve="Chunk" />
                </node>
              </node>
              <node concept="2OqwBi" id="2aA5E1dS2T" role="33vP2m">
                <node concept="2OqwBi" id="2aA5E1dS2U" role="2Oq$k0">
                  <node concept="2OqwBi" id="2aA5E1dS2V" role="2Oq$k0">
                    <node concept="2rP1CM" id="2aA5E1dS2W" role="2Oq$k0" />
                    <node concept="I4A8Y" id="2aA5E1dS2X" role="2OqNvi" />
                  </node>
                  <node concept="1j9C0f" id="2aA5E1dS2Y" role="2OqNvi">
                    <node concept="chp4Y" id="2aA5E1dS2Z" role="3MHPCF">
                      <ref role="cht4Q" to="vs0r:6clJcrJYOUA" resolve="Chunk" />
                    </node>
                  </node>
                </node>
                <node concept="3zZkjj" id="2aA5E1dS30" role="2OqNvi">
                  <node concept="1bVj0M" id="2aA5E1dS31" role="23t8la">
                    <node concept="3clFbS" id="2aA5E1dS32" role="1bW5cS">
                      <node concept="3clFbF" id="2aA5E1dS33" role="3cqZAp">
                        <node concept="1Wc70l" id="2aA5E1sBAM" role="3clFbG">
                          <node concept="1eOMI4" id="2aA5E1sGX5" role="3uHU7w">
                            <node concept="22lmx$" id="2aA5E1sJw0" role="1eOMHV">
                              <node concept="2OqwBi" id="2aA5E1sHZu" role="3uHU7B">
                                <node concept="37vLTw" id="2aA5E1sHwH" role="2Oq$k0">
                                  <ref role="3cqZAo" node="2aA5E1dS3b" resolve="it" />
                                </node>
                                <node concept="1mIQ4w" id="2aA5E1sIFP" role="2OqNvi">
                                  <node concept="chp4Y" id="2aA5E1sIUz" role="cj9EA">
                                    <ref role="cht4Q" to="os74:28q_2hFej6t" resolve="Module" />
                                  </node>
                                </node>
                              </node>
                              <node concept="2OqwBi" id="2aA5E1sKft" role="3uHU7w">
                                <node concept="37vLTw" id="2aA5E1sJFv" role="2Oq$k0">
                                  <ref role="3cqZAo" node="2aA5E1dS3b" resolve="it" />
                                </node>
                                <node concept="1mIQ4w" id="2aA5E1sLpK" role="2OqNvi">
                                  <node concept="chp4Y" id="2aA5E1sLCT" role="cj9EA">
                                    <ref role="cht4Q" to="3jzb:4MI7ZB$Dtqf" resolve="Ontology" />
                                  </node>
                                </node>
                              </node>
                            </node>
                          </node>
                          <node concept="1Wc70l" id="2aA5E1dS35" role="3uHU7B">
                            <node concept="2OqwBi" id="2aA5E1dS36" role="3uHU7B">
                              <node concept="37vLTw" id="2aA5E1dS37" role="2Oq$k0">
                                <ref role="3cqZAo" node="2aA5E1dS3b" resolve="it" />
                              </node>
                              <node concept="2qgKlT" id="2aA5E1dS38" role="2OqNvi">
                                <ref role="37wK5l" to="hwgx:7aNtjNmcVtH" resolve="importedByDefGenChunkDep" />
                              </node>
                            </node>
                            <node concept="3y3z36" id="2aA5E1dS39" role="3uHU7w">
                              <node concept="37vLTw" id="2aA5E1dS3a" role="3uHU7B">
                                <ref role="3cqZAo" node="2aA5E1dS3b" resolve="it" />
                              </node>
                              <node concept="2rP1CM" id="2aA5E1fQQv" role="3uHU7w" />
                            </node>
                          </node>
                        </node>
                      </node>
                    </node>
                    <node concept="Rh6nW" id="2aA5E1dS3b" role="1bW2Oz">
                      <property role="TrG5h" value="it" />
                      <node concept="2jxLKc" id="2aA5E1dS3c" role="1tU5fm" />
                    </node>
                  </node>
                </node>
              </node>
            </node>
          </node>
          <node concept="3clFbH" id="2aA5E1tZw9" role="3cqZAp" />
          <node concept="3clFbF" id="2aA5E1dS3d" role="3cqZAp">
            <node concept="2YIFZM" id="2aA5E17tgO" role="3clFbG">
              <ref role="1Pybhc" to="o8zo:4IP40Bi3e_R" resolve="ListScope" />
              <ref role="37wK5l" to="o8zo:4IP40Bi3eAf" resolve="forNamedElements" />
              <node concept="37vLTw" id="2aA5E18Qr0" role="37wK5m">
                <ref role="3cqZAo" node="2aA5E17oSd" resolve="availableChunks" />
              </node>
            </node>
          </node>
        </node>
      </node>
    </node>
    <node concept="9S07l" id="2aA5E1petG" role="9Vyp8">
      <node concept="3clFbS" id="2aA5E1petH" role="2VODD2">
        <node concept="3clFbF" id="2aA5E1pdd_" role="3cqZAp">
          <node concept="2OqwBi" id="2aA5E1pdpT" role="3clFbG">
            <node concept="nLn13" id="2aA5E1pdd$" role="2Oq$k0" />
            <node concept="1mIQ4w" id="2aA5E1pdLg" role="2OqNvi">
              <node concept="chp4Y" id="2aA5E1pdUK" role="cj9EA">
                <ref role="cht4Q" to="os74:28q_2hFej6t" resolve="Module" />
              </node>
            </node>
          </node>
        </node>
      </node>
    </node>
  </node>
  <node concept="1M2fIO" id="3ITt9KrZGZI">
    <property role="3GE5qa" value="chunk" />
    <ref role="1M2myG" to="os74:2tMu91FTK9z" resolve="AbstractChunk" />
    <node concept="9SQb8" id="3ITt9KrZGZJ" role="9SGkC">
      <node concept="3clFbS" id="3ITt9KrZGZK" role="2VODD2">
        <node concept="3clFbF" id="3ITt9Ks2Iyy" role="3cqZAp">
          <node concept="3fqX7Q" id="3ITt9Ks2Le$" role="3clFbG">
            <node concept="2OqwBi" id="3ITt9Ks2LeA" role="3fr31v">
              <node concept="10M0yZ" id="3ITt9Ks2LeB" role="2Oq$k0">
                <ref role="3cqZAo" to="21iy:3ITt9Ks2GMb" resolve="unusedExprs" />
                <ref role="1PxDUh" to="21iy:3ITt9Ks2DO_" resolve="UnusedExprList" />
              </node>
              <node concept="3JPx81" id="3ITt9Ks2LeC" role="2OqNvi">
                <node concept="2OqwBi" id="3ITt9Ks2LeD" role="25WWJ7">
                  <node concept="2H4GUG" id="3ITt9Ks2LeE" role="2Oq$k0" />
                  <node concept="2yIwOk" id="3ITt9Ks2Tuz" role="2OqNvi" />
                </node>
              </node>
            </node>
          </node>
        </node>
      </node>
    </node>
  </node>
  <node concept="1M2fIO" id="6OKQOIXjSYP">
    <property role="3GE5qa" value="aid.operations" />
    <ref role="1M2myG" to="os74:6OKQOIXjSYo" resolve="IAgentIdOp" />
    <node concept="9S07l" id="6OKQOIXjTbM" role="9Vyp8">
      <node concept="3clFbS" id="6OKQOIXjTbN" role="2VODD2">
        <node concept="3cpWs8" id="6XBPhggEzun" role="3cqZAp">
          <node concept="3cpWsn" id="6XBPhggEzuo" role="3cpWs9">
            <property role="TrG5h" value="tt" />
            <node concept="3Tqbb2" id="6XBPhggEzup" role="1tU5fm" />
            <node concept="2OqwBi" id="6XBPhggEzuq" role="33vP2m">
              <node concept="2OqwBi" id="6XBPhggEzur" role="2Oq$k0">
                <node concept="1PxgMI" id="6XBPhggEzus" role="2Oq$k0">
                  <node concept="nLn13" id="6XBPhggEzut" role="1m5AlR" />
                  <node concept="chp4Y" id="6XBPhggEzx8" role="3oSUPX">
                    <ref role="cht4Q" to="hm2y:7NJy08a3O99" resolve="DotExpression" />
                  </node>
                </node>
                <node concept="3TrEf2" id="6XBPhggEzuu" role="2OqNvi">
                  <ref role="3Tt5mk" to="hm2y:4rZeNQ6NgXF" resolve="expr" />
                </node>
              </node>
              <node concept="3JvlWi" id="6XBPhggEzuv" role="2OqNvi" />
            </node>
          </node>
        </node>
        <node concept="3clFbF" id="2lACGaVCYf8" role="3cqZAp">
          <node concept="2OqwBi" id="2lACGaVCYpU" role="3clFbG">
            <node concept="37vLTw" id="2lACGaVCYf6" role="2Oq$k0">
              <ref role="3cqZAo" node="6XBPhggEzuo" resolve="tt" />
            </node>
            <node concept="1mIQ4w" id="2lACGaVCY$Y" role="2OqNvi">
              <node concept="chp4Y" id="2lACGaVCYEU" role="cj9EA">
                <ref role="cht4Q" to="os74:3JB$QJ8oGPX" resolve="AIDType" />
              </node>
            </node>
          </node>
        </node>
      </node>
    </node>
  </node>
  <node concept="1M2fIO" id="28$c8FRSaf7">
    <property role="3GE5qa" value="statements" />
    <ref role="1M2myG" to="os74:28$c8FRSadP" resolve="Log" />
    <node concept="9S07l" id="28$c8FRSax_" role="9Vyp8">
      <node concept="3clFbS" id="28$c8FRSaxA" role="2VODD2">
        <node concept="3clFbF" id="28$c8FRSaxE" role="3cqZAp">
          <node concept="2OqwBi" id="28$c8FRSaxF" role="3clFbG">
            <node concept="2OqwBi" id="28$c8FRSaxG" role="2Oq$k0">
              <node concept="nLn13" id="28$c8FRSaxH" role="2Oq$k0" />
              <node concept="2Xjw5R" id="28$c8FRSaxI" role="2OqNvi">
                <node concept="1xMEDy" id="28$c8FRSaxJ" role="1xVPHs">
                  <node concept="chp4Y" id="28$c8FRSaxK" role="ri$Ld">
                    <ref role="cht4Q" to="os74:2tMu91FTK9z" resolve="AbstractChunk" />
                  </node>
                </node>
                <node concept="1xIGOp" id="28$c8FRSaxL" role="1xVPHs" />
              </node>
            </node>
            <node concept="3x8VRR" id="28$c8FRSaxM" role="2OqNvi" />
          </node>
        </node>
      </node>
    </node>
  </node>
  <node concept="1M2fIO" id="5rieTHdJkKk">
    <property role="3GE5qa" value="toplevel" />
    <ref role="1M2myG" to="os74:27lcHhoqvHJ" resolve="ITopLevelStatement" />
    <node concept="9S07l" id="5rieTHdJkVY" role="9Vyp8">
      <node concept="3clFbS" id="5rieTHdJkVZ" role="2VODD2">
        <node concept="3clFbF" id="5rieTHdH8em" role="3cqZAp">
          <node concept="2OqwBi" id="5rieTHdH8qT" role="3clFbG">
            <node concept="nLn13" id="5rieTHdH8el" role="2Oq$k0" />
            <node concept="1mIQ4w" id="5rieTHdH8yA" role="2OqNvi">
              <node concept="chp4Y" id="5rieTHdH8CI" role="cj9EA">
                <ref role="cht4Q" to="os74:3PPOQnmxRe5" resolve="IStatementContainer" />
              </node>
            </node>
          </node>
        </node>
      </node>
    </node>
  </node>
  <node concept="1M2fIO" id="3NjOp6FKP2o">
    <property role="3GE5qa" value="statements" />
    <ref role="1M2myG" to="os74:5zd1xVkqXAQ" resolve="Stop" />
    <node concept="9S07l" id="3NjOp6FKP2p" role="9Vyp8">
      <node concept="3clFbS" id="3NjOp6FKP2q" role="2VODD2">
        <node concept="3clFbF" id="4AcBPh2BEnT" role="3cqZAp">
          <node concept="2OqwBi" id="3NjOp6FKP6o" role="3clFbG">
            <node concept="2OqwBi" id="3NjOp6FKP6p" role="2Oq$k0">
              <node concept="nLn13" id="7_YVLVlbwQs" role="2Oq$k0" />
              <node concept="2Xjw5R" id="3NjOp6FKP6q" role="2OqNvi">
                <node concept="1xMEDy" id="3NjOp6FKP6r" role="1xVPHs">
                  <node concept="chp4Y" id="3NjOp6FKP6s" role="ri$Ld">
                    <ref role="cht4Q" to="os74:2tMu91FTK9z" resolve="AbstractChunk" />
                  </node>
                </node>
                <node concept="1xIGOp" id="3NjOp6FKOJt" role="1xVPHs" />
              </node>
            </node>
            <node concept="3x8VRR" id="3NjOp6FKP6t" role="2OqNvi" />
          </node>
        </node>
      </node>
    </node>
  </node>
</model>

