<?xml version="1.0" encoding="UTF-8"?>
<model ref="r:0c1f0475-69ed-4acb-87fb-d07da620d0a5(MetaJade.genjava.constraints)">
  <persistence version="9" />
  <languages>
    <use id="5dae8159-ab99-46bb-a40d-0cee30ee7018" name="jetbrains.mps.lang.constraints.rules.kinds" version="0" />
    <use id="ea3159bf-f48e-4720-bde2-86dba75f0d34" name="jetbrains.mps.lang.context.defs" version="0" />
    <use id="e51810c5-7308-4642-bcb6-469e61b5dd18" name="jetbrains.mps.lang.constraints.msg.specification" version="0" />
    <use id="134c38d4-e3af-4d9e-b069-1c7df0a4005d" name="jetbrains.mps.lang.constraints.rules.skeleton" version="0" />
    <use id="b3551702-269c-4f05-ba61-58060cef4292" name="jetbrains.mps.lang.rulesAndMessages" version="0" />
    <use id="3f4bc5f5-c6c1-4a28-8b10-c83066ffa4a1" name="jetbrains.mps.lang.constraints" version="6" />
    <use id="13744753-c81f-424a-9c1b-cf8943bf4e86" name="jetbrains.mps.lang.sharedConcepts" version="0" />
    <use id="3ad5badc-1d9c-461c-b7b1-fa2fcd0a0ae7" name="jetbrains.mps.lang.context" version="0" />
    <use id="ad93155d-79b2-4759-b10c-55123e763903" name="jetbrains.mps.lang.messages" version="0" />
    <devkit ref="00000000-0000-4000-0000-5604ebd4f22c(jetbrains.mps.devkit.aspect.constraints)" />
  </languages>
  <imports />
  <registry />
</model>

