<?xml version="1.0" encoding="UTF-8"?>
<model ref="r:93f213d8-0e32-4f8d-9197-815d51cff791(MetaJade.behaviour.editor)">
  <persistence version="9" />
  <languages>
    <use id="18bc6592-03a6-4e29-a83a-7ff23bde13ba" name="jetbrains.mps.lang.editor" version="14" />
    <use id="aee9cad2-acd4-4608-aef2-0004f6a1cdbd" name="jetbrains.mps.lang.actions" version="4" />
    <devkit ref="fbc25dd2-5da4-483a-8b19-70928e1b62d7(jetbrains.mps.devkit.general-purpose)" />
  </languages>
  <imports>
    <import index="tpco" ref="r:00000000-0000-4000-0000-011c89590284(jetbrains.mps.lang.core.editor)" />
    <import index="21iy" ref="r:3c601dd3-56a8-40ab-a417-66a36a925be1(MetaJade.core.editor)" />
    <import index="zzzn" ref="r:af0af2e7-f7e1-4536-83b5-6bf010d4afd2(org.iets3.core.expr.lambda.structure)" />
    <import index="hm2y" ref="r:66e07cb4-a4b0-4bf3-a36d-5e9ed1ff1bd3(org.iets3.core.expr.base.structure)" />
    <import index="gv6i" ref="r:9bc9d7aa-ccc3-46bd-805d-a743ad42928e(MetaJade.behaviour.structure)" implicit="true" />
    <import index="tpck" ref="r:00000000-0000-4000-0000-011c89590288(jetbrains.mps.lang.core.structure)" implicit="true" />
  </imports>
  <registry>
    <language id="18bc6592-03a6-4e29-a83a-7ff23bde13ba" name="jetbrains.mps.lang.editor">
      <concept id="1071666914219" name="jetbrains.mps.lang.editor.structure.ConceptEditorDeclaration" flags="ig" index="24kQdi" />
      <concept id="6822301196700715228" name="jetbrains.mps.lang.editor.structure.ConceptEditorHintDeclarationReference" flags="ig" index="2aJ2om">
        <reference id="5944657839026714445" name="hint" index="2$4xQ3" />
      </concept>
      <concept id="1140524381322" name="jetbrains.mps.lang.editor.structure.CellModel_ListWithRole" flags="ng" index="2czfm3">
        <property id="1140524450557" name="separatorText" index="2czwfO" />
        <child id="1140524464360" name="cellLayout" index="2czzBx" />
        <child id="1140524464359" name="emptyCellModel" index="2czzBI" />
      </concept>
      <concept id="1106270549637" name="jetbrains.mps.lang.editor.structure.CellLayout_Horizontal" flags="nn" index="2iRfu4" />
      <concept id="1106270571710" name="jetbrains.mps.lang.editor.structure.CellLayout_Vertical" flags="nn" index="2iRkQZ" />
      <concept id="1237303669825" name="jetbrains.mps.lang.editor.structure.CellLayout_Indent" flags="nn" index="l2Vlx" />
      <concept id="1237307900041" name="jetbrains.mps.lang.editor.structure.IndentLayoutIndentStyleClassItem" flags="ln" index="lj46D" />
      <concept id="1142886221719" name="jetbrains.mps.lang.editor.structure.QueryFunction_NodeCondition" flags="in" index="pkWqt" />
      <concept id="1142886811589" name="jetbrains.mps.lang.editor.structure.ConceptFunctionParameter_node" flags="nn" index="pncrf" />
      <concept id="4242538589859161874" name="jetbrains.mps.lang.editor.structure.ExplicitHintsSpecification" flags="ng" index="2w$q5c">
        <child id="4242538589859162459" name="hints" index="2w$qW5" />
      </concept>
      <concept id="1080736578640" name="jetbrains.mps.lang.editor.structure.BaseEditorComponent" flags="ig" index="2wURMF">
        <child id="1080736633877" name="cellModel" index="2wV5jI" />
      </concept>
      <concept id="1078939183254" name="jetbrains.mps.lang.editor.structure.CellModel_Component" flags="sg" stub="3162947552742194261" index="PMmxH">
        <reference id="1078939183255" name="editorComponent" index="PMmxG" />
      </concept>
      <concept id="1186414536763" name="jetbrains.mps.lang.editor.structure.BooleanStyleSheetItem" flags="ln" index="VOi$J">
        <property id="1186414551515" name="flag" index="VOm3f" />
        <child id="1223387335081" name="query" index="3n$kyP" />
      </concept>
      <concept id="1186414860679" name="jetbrains.mps.lang.editor.structure.EditableStyleClassItem" flags="ln" index="VPxyj" />
      <concept id="1186414928363" name="jetbrains.mps.lang.editor.structure.SelectableStyleSheetItem" flags="ln" index="VPM3Z" />
      <concept id="1186415722038" name="jetbrains.mps.lang.editor.structure.FontSizeStyleClassItem" flags="ln" index="VSNWy">
        <property id="1221209241505" name="value" index="1lJzqX" />
      </concept>
      <concept id="1233758997495" name="jetbrains.mps.lang.editor.structure.PunctuationLeftStyleClassItem" flags="ln" index="11L4FC" />
      <concept id="1233759184865" name="jetbrains.mps.lang.editor.structure.PunctuationRightStyleClassItem" flags="ln" index="11LMrY" />
      <concept id="1088013125922" name="jetbrains.mps.lang.editor.structure.CellModel_RefCell" flags="sg" stub="730538219795941030" index="1iCGBv">
        <child id="1088186146602" name="editorComponent" index="1sWHZn" />
      </concept>
      <concept id="1381004262292414836" name="jetbrains.mps.lang.editor.structure.ICellStyle" flags="ng" index="1k5N5V">
        <reference id="1381004262292426837" name="parentStyleClass" index="1k5W1q" />
      </concept>
      <concept id="1223387125302" name="jetbrains.mps.lang.editor.structure.QueryFunction_Boolean" flags="in" index="3nzxsE" />
      <concept id="1088185857835" name="jetbrains.mps.lang.editor.structure.InlineEditorComponent" flags="ig" index="1sVBvm" />
      <concept id="1139848536355" name="jetbrains.mps.lang.editor.structure.CellModel_WithRole" flags="ng" index="1$h60E">
        <property id="1140017977771" name="readOnly" index="1Intyy" />
        <reference id="1140103550593" name="relationDeclaration" index="1NtTu8" />
      </concept>
      <concept id="1073389214265" name="jetbrains.mps.lang.editor.structure.EditorCellModel" flags="ng" index="3EYTF0">
        <child id="1142887637401" name="renderingCondition" index="pqm2j" />
      </concept>
      <concept id="1073389446423" name="jetbrains.mps.lang.editor.structure.CellModel_Collection" flags="sn" stub="3013115976261988961" index="3EZMnI">
        <child id="1106270802874" name="cellLayout" index="2iSdaV" />
        <child id="1073389446424" name="childCellModel" index="3EZMnx" />
      </concept>
      <concept id="1073389577006" name="jetbrains.mps.lang.editor.structure.CellModel_Constant" flags="sn" stub="3610246225209162225" index="3F0ifn">
        <property id="1082639509531" name="nullText" index="ilYzB" />
        <property id="1073389577007" name="text" index="3F0ifm" />
      </concept>
      <concept id="1073389658414" name="jetbrains.mps.lang.editor.structure.CellModel_Property" flags="sg" stub="730538219796134133" index="3F0A7n" />
      <concept id="1219418625346" name="jetbrains.mps.lang.editor.structure.IStyleContainer" flags="ng" index="3F0Thp">
        <child id="1219418656006" name="styleItem" index="3F10Kt" />
      </concept>
      <concept id="1073389882823" name="jetbrains.mps.lang.editor.structure.CellModel_RefNode" flags="sg" stub="730538219795960754" index="3F1sOY">
        <child id="16410578721629643" name="emptyCellModel" index="2ruayu" />
        <child id="5861024100072578575" name="addHints" index="3xwHhi" />
      </concept>
      <concept id="1073390211982" name="jetbrains.mps.lang.editor.structure.CellModel_RefNodeList" flags="sg" stub="2794558372793454595" index="3F2HdR">
        <child id="7279578193766667846" name="addHints" index="78xua" />
      </concept>
      <concept id="1198256887712" name="jetbrains.mps.lang.editor.structure.CellModel_Indent" flags="ng" index="3XFhqQ" />
      <concept id="1166049232041" name="jetbrains.mps.lang.editor.structure.AbstractComponent" flags="ng" index="1XWOmA">
        <reference id="1166049300910" name="conceptDeclaration" index="1XX52x" />
      </concept>
    </language>
    <language id="f3061a53-9226-4cc5-a443-f952ceaf5816" name="jetbrains.mps.baseLanguage">
      <concept id="1153422305557" name="jetbrains.mps.baseLanguage.structure.LessThanOrEqualsExpression" flags="nn" index="2dkUwp" />
      <concept id="1197027756228" name="jetbrains.mps.baseLanguage.structure.DotExpression" flags="nn" index="2OqwBi">
        <child id="1197027771414" name="operand" index="2Oq$k0" />
        <child id="1197027833540" name="operation" index="2OqNvi" />
      </concept>
      <concept id="1137021947720" name="jetbrains.mps.baseLanguage.structure.ConceptFunction" flags="in" index="2VMwT0">
        <child id="1137022507850" name="body" index="2VODD2" />
      </concept>
      <concept id="1068580123155" name="jetbrains.mps.baseLanguage.structure.ExpressionStatement" flags="nn" index="3clFbF">
        <child id="1068580123156" name="expression" index="3clFbG" />
      </concept>
      <concept id="1068580123136" name="jetbrains.mps.baseLanguage.structure.StatementList" flags="sn" stub="5293379017992965193" index="3clFbS">
        <child id="1068581517665" name="statement" index="3cqZAp" />
      </concept>
      <concept id="1068580320020" name="jetbrains.mps.baseLanguage.structure.IntegerConstant" flags="nn" index="3cmrfG">
        <property id="1068580320021" name="value" index="3cmrfH" />
      </concept>
      <concept id="1081506762703" name="jetbrains.mps.baseLanguage.structure.GreaterThanExpression" flags="nn" index="3eOSWO" />
      <concept id="1081516740877" name="jetbrains.mps.baseLanguage.structure.NotExpression" flags="nn" index="3fqX7Q">
        <child id="1081516765348" name="expression" index="3fr31v" />
      </concept>
      <concept id="1081773326031" name="jetbrains.mps.baseLanguage.structure.BinaryOperation" flags="nn" index="3uHJSO">
        <child id="1081773367579" name="rightExpression" index="3uHU7w" />
        <child id="1081773367580" name="leftExpression" index="3uHU7B" />
      </concept>
    </language>
    <language id="7866978e-a0f0-4cc7-81bc-4d213d9375e1" name="jetbrains.mps.lang.smodel">
      <concept id="1177026924588" name="jetbrains.mps.lang.smodel.structure.RefConcept_Reference" flags="nn" index="chp4Y">
        <reference id="1177026940964" name="conceptDeclaration" index="cht4Q" />
      </concept>
      <concept id="1139621453865" name="jetbrains.mps.lang.smodel.structure.Node_IsInstanceOfOperation" flags="nn" index="1mIQ4w">
        <child id="1177027386292" name="conceptArgument" index="cj9EA" />
      </concept>
      <concept id="1138056143562" name="jetbrains.mps.lang.smodel.structure.SLinkAccess" flags="nn" index="3TrEf2">
        <reference id="1138056516764" name="link" index="3Tt5mk" />
      </concept>
      <concept id="1138056282393" name="jetbrains.mps.lang.smodel.structure.SLinkListAccess" flags="nn" index="3Tsc0h">
        <reference id="1138056546658" name="link" index="3TtcxE" />
      </concept>
    </language>
    <language id="ceab5195-25ea-4f22-9b92-103b95ca8c0c" name="jetbrains.mps.lang.core">
      <concept id="1133920641626" name="jetbrains.mps.lang.core.structure.BaseConcept" flags="ng" index="2VYdi">
        <property id="1193676396447" name="virtualPackage" index="3GE5qa" />
      </concept>
    </language>
    <language id="83888646-71ce-4f1c-9c53-c54016f6ad4f" name="jetbrains.mps.baseLanguage.collections">
      <concept id="1162935959151" name="jetbrains.mps.baseLanguage.collections.structure.GetSizeOperation" flags="nn" index="34oBXx" />
    </language>
  </registry>
  <node concept="24kQdi" id="2WQ3iBRxJ4S">
    <ref role="1XX52x" to="gv6i:2WQ3iBRxHZI" resolve="Behaviour" />
    <node concept="3EZMnI" id="3JB$QJ8aLaj" role="2wV5jI">
      <node concept="2iRkQZ" id="3JB$QJ8aLak" role="2iSdaV" />
      <node concept="3EZMnI" id="2WQ3iBRxJ4U" role="3EZMnx">
        <node concept="2iRkQZ" id="2WQ3iBRxJ4V" role="2iSdaV" />
        <node concept="3EZMnI" id="2WQ3iBRxJ4W" role="3EZMnx">
          <node concept="3F1sOY" id="2WQ3iBRxU2a" role="3EZMnx">
            <ref role="1NtTu8" to="gv6i:eOcwJt9V3S" resolve="behaviourType" />
            <ref role="1k5W1q" to="21iy:7kuDSjsqD3B" resolve="metajadeKeyword" />
            <node concept="VSNWy" id="28q_2hFvR$c" role="3F10Kt">
              <property role="1lJzqX" value="21" />
            </node>
            <node concept="3F0ifn" id="28q_2hFvXyA" role="2ruayu">
              <property role="ilYzB" value="&lt;behaviour kind&gt;" />
            </node>
          </node>
          <node concept="3F0A7n" id="wO0wsRC$gm" role="3EZMnx">
            <ref role="1NtTu8" to="tpck:h0TrG11" resolve="name" />
            <node concept="VSNWy" id="28q_2hFvR$e" role="3F10Kt">
              <property role="1lJzqX" value="21" />
            </node>
          </node>
          <node concept="l2Vlx" id="28q_2hFw2Ir" role="2iSdaV" />
        </node>
        <node concept="3F0ifn" id="7dT_6n1uszj" role="3EZMnx">
          <node concept="VPM3Z" id="7dT_6n1uszt" role="3F10Kt" />
        </node>
        <node concept="3EZMnI" id="4YVd2MB9$8K" role="3EZMnx">
          <node concept="3XFhqQ" id="4YVd2MB9$9h" role="3EZMnx" />
          <node concept="PMmxH" id="4YVd2MB9$9n" role="3EZMnx">
            <ref role="PMmxG" to="21iy:4YVd2MB9$6U" resolve="AbstractChunkFullImports_Component" />
          </node>
          <node concept="l2Vlx" id="4YVd2MB9$8P" role="2iSdaV" />
        </node>
        <node concept="3F0ifn" id="7dT_6n1vhsB" role="3EZMnx">
          <node concept="VPM3Z" id="7dT_6n1vht0" role="3F10Kt" />
        </node>
        <node concept="3EZMnI" id="3I8nNvsHZnm" role="3EZMnx">
          <node concept="3XFhqQ" id="3I8nNvsHZq6" role="3EZMnx" />
          <node concept="3F0ifn" id="3I8nNvsI5iq" role="3EZMnx">
            <property role="3F0ifm" value="input" />
            <node concept="VPM3Z" id="2o21hVNUcyo" role="3F10Kt" />
          </node>
          <node concept="3F2HdR" id="3I8nNvsHZEG" role="3EZMnx">
            <ref role="1NtTu8" to="gv6i:3I8nNvsHZqc" resolve="inputParams" />
            <node concept="2iRkQZ" id="3I8nNvsHZEM" role="2czzBx" />
            <node concept="3F0ifn" id="3I8nNvsHZEP" role="2czzBI">
              <property role="ilYzB" value="&lt;none&gt;" />
              <node concept="VPxyj" id="3I8nNvsHZER" role="3F10Kt">
                <property role="VOm3f" value="true" />
              </node>
            </node>
            <node concept="2w$q5c" id="6cOMG4RZntG" role="78xua">
              <node concept="2aJ2om" id="6cOMG4RZntI" role="2w$qW5">
                <ref role="2$4xQ3" to="21iy:wO0wsRnNTe" resolve="PseudocodeListPresentation" />
              </node>
              <node concept="2aJ2om" id="6cOMG4RZntK" role="2w$qW5">
                <ref role="2$4xQ3" to="21iy:2WQ3iBRGNcR" resolve="PseudocodeMapPresentation" />
              </node>
              <node concept="2aJ2om" id="6cOMG4RZntN" role="2w$qW5">
                <ref role="2$4xQ3" to="21iy:2WQ3iBRGN5o" resolve="PseudocodeSetPresentation" />
              </node>
            </node>
          </node>
          <node concept="l2Vlx" id="3I8nNvsHZnr" role="2iSdaV" />
        </node>
        <node concept="3F0ifn" id="28q_2hFuO2f" role="3EZMnx">
          <node concept="VPM3Z" id="28q_2hFuOgG" role="3F10Kt" />
        </node>
        <node concept="3EZMnI" id="5rieTHdIyf0" role="3EZMnx">
          <node concept="3XFhqQ" id="5rieTHdIyic" role="3EZMnx" />
          <node concept="3EZMnI" id="1MgVVihpRR9" role="3EZMnx">
            <node concept="2iRkQZ" id="1MgVVihpRRa" role="2iSdaV" />
            <node concept="3EZMnI" id="1MgVVihpSiP" role="3EZMnx">
              <node concept="l2Vlx" id="1MgVVihpSiQ" role="2iSdaV" />
              <node concept="3F0ifn" id="1MgVVihphq7" role="3EZMnx">
                <property role="3F0ifm" value="action" />
                <node concept="VPM3Z" id="2o21hVNUcyq" role="3F10Kt" />
              </node>
              <node concept="3F0ifn" id="1MgVVihpmCe" role="3EZMnx">
                <property role="3F0ifm" value="as" />
                <ref role="1k5W1q" to="21iy:5PmnIeGXqcA" resolve="metajadeComment" />
                <node concept="lj46D" id="5a_u3Oz0aMb" role="3F10Kt">
                  <property role="VOm3f" value="true" />
                  <node concept="3nzxsE" id="5a_u3Oz0b6Y" role="3n$kyP">
                    <node concept="3clFbS" id="5a_u3Oz0b6Z" role="2VODD2">
                      <node concept="3clFbF" id="5a_u3Oz0be7" role="3cqZAp">
                        <node concept="2OqwBi" id="5a_u3Oz0be8" role="3clFbG">
                          <node concept="2OqwBi" id="5a_u3Oz0be9" role="2Oq$k0">
                            <node concept="pncrf" id="5a_u3Oz0bea" role="2Oq$k0" />
                            <node concept="3TrEf2" id="5a_u3Oz0beb" role="2OqNvi">
                              <ref role="3Tt5mk" to="gv6i:1MgVVihphq0" resolve="action" />
                            </node>
                          </node>
                          <node concept="1mIQ4w" id="5a_u3Oz0bec" role="2OqNvi">
                            <node concept="chp4Y" id="5a_u3Oz1r72" role="cj9EA">
                              <ref role="cht4Q" to="hm2y:YXKE79ImBi" resolve="IWantNewLine" />
                            </node>
                          </node>
                        </node>
                      </node>
                    </node>
                  </node>
                </node>
                <node concept="pkWqt" id="1MgVVihpmFY" role="pqm2j">
                  <node concept="3clFbS" id="1MgVVihpmFZ" role="2VODD2">
                    <node concept="3clFbF" id="252QIDyl6eh" role="3cqZAp">
                      <node concept="3fqX7Q" id="252QIDyl7gG" role="3clFbG">
                        <node concept="2OqwBi" id="252QIDyl7gI" role="3fr31v">
                          <node concept="2OqwBi" id="252QIDyl7gJ" role="2Oq$k0">
                            <node concept="pncrf" id="252QIDyl7gK" role="2Oq$k0" />
                            <node concept="3TrEf2" id="1MgVVihpoGR" role="2OqNvi">
                              <ref role="3Tt5mk" to="gv6i:1MgVVihphq0" resolve="action" />
                            </node>
                          </node>
                          <node concept="1mIQ4w" id="252QIDyl7gM" role="2OqNvi">
                            <node concept="chp4Y" id="252QIDyl7gN" role="cj9EA">
                              <ref role="cht4Q" to="zzzn:49WTic8ig5D" resolve="BlockExpression" />
                            </node>
                          </node>
                        </node>
                      </node>
                    </node>
                  </node>
                </node>
              </node>
              <node concept="3F1sOY" id="1MgVVihphqf" role="3EZMnx">
                <ref role="1NtTu8" to="gv6i:1MgVVihphq0" resolve="action" />
                <node concept="2w$q5c" id="1SvJ3Hz9ezW" role="3xwHhi">
                  <node concept="2aJ2om" id="1SvJ3Hz9ezY" role="2w$qW5">
                    <ref role="2$4xQ3" to="21iy:7cuAgGgXqbY" resolve="PseudocodeLocalValPresentation" />
                  </node>
                  <node concept="2aJ2om" id="6cOMG4RZntw" role="2w$qW5">
                    <ref role="2$4xQ3" to="21iy:2WQ3iBRGNcR" resolve="PseudocodeMapPresentation" />
                  </node>
                  <node concept="2aJ2om" id="6cOMG4RZntz" role="2w$qW5">
                    <ref role="2$4xQ3" to="21iy:2WQ3iBRGN5o" resolve="PseudocodeSetPresentation" />
                  </node>
                  <node concept="2aJ2om" id="6cOMG4RZntB" role="2w$qW5">
                    <ref role="2$4xQ3" to="21iy:wO0wsRnNTe" resolve="PseudocodeListPresentation" />
                  </node>
                </node>
              </node>
            </node>
          </node>
          <node concept="l2Vlx" id="5rieTHdIyf1" role="2iSdaV" />
        </node>
        <node concept="3F0ifn" id="1MgVVihpN38" role="3EZMnx">
          <node concept="VPM3Z" id="1MgVVihpN5G" role="3F10Kt" />
        </node>
        <node concept="3EZMnI" id="1MgVVihpI2H" role="3EZMnx">
          <node concept="3XFhqQ" id="1MgVVihpI5l" role="3EZMnx" />
          <node concept="PMmxH" id="1MgVVihpI5r" role="3EZMnx">
            <ref role="PMmxG" to="21iy:3PPOQnmI2QP" resolve="TopLevelExprContainer_Component" />
          </node>
          <node concept="l2Vlx" id="1MgVVihpI2M" role="2iSdaV" />
        </node>
      </node>
    </node>
  </node>
  <node concept="24kQdi" id="28q_2hFylP3">
    <property role="3GE5qa" value="behaviourKind" />
    <ref role="1XX52x" to="gv6i:3ft8RRq803L" resolve="CyclicBehaviour" />
    <node concept="PMmxH" id="28q_2hFylP5" role="2wV5jI">
      <ref role="PMmxG" to="tpco:2wZex4PafBj" resolve="alias" />
      <node concept="VPxyj" id="28q_2hFylP9" role="3F10Kt" />
    </node>
  </node>
  <node concept="24kQdi" id="28q_2hFzq4v">
    <property role="3GE5qa" value="behaviourKind" />
    <ref role="1XX52x" to="gv6i:3ft8RRq803K" resolve="OneShotBehaviour" />
    <node concept="PMmxH" id="28q_2hFzq4$" role="2wV5jI">
      <ref role="PMmxG" to="tpco:2wZex4PafBj" resolve="alias" />
      <node concept="VPxyj" id="28q_2hFzq4A" role="3F10Kt" />
    </node>
  </node>
  <node concept="24kQdi" id="3I8nNvsK_SD">
    <property role="3GE5qa" value="" />
    <ref role="1XX52x" to="gv6i:3I8nNvsK_Sc" resolve="BehaviourArgument" />
    <node concept="3EZMnI" id="49WTic8fvNp" role="2wV5jI">
      <node concept="3F0A7n" id="4FZ6_9NZc0C" role="3EZMnx">
        <ref role="1NtTu8" to="tpck:h0TrG11" resolve="name" />
      </node>
      <node concept="3F0ifn" id="6HHp2WmOBkJ" role="3EZMnx">
        <property role="3F0ifm" value="of type" />
        <ref role="1k5W1q" to="21iy:5PmnIeGXqcA" resolve="metajadeComment" />
      </node>
      <node concept="3F1sOY" id="6HHp2WmOBkT" role="3EZMnx">
        <ref role="1NtTu8" to="zzzn:6zmBjqUkwsc" resolve="type" />
      </node>
      <node concept="l2Vlx" id="4FZ6_9NZkZC" role="2iSdaV" />
    </node>
  </node>
  <node concept="24kQdi" id="3I8nNvsKOGy">
    <property role="3GE5qa" value="" />
    <ref role="1XX52x" to="gv6i:3I8nNvsKOG3" resolve="BehaviourArgRef" />
    <node concept="1iCGBv" id="3I8nNvsKOG$" role="2wV5jI">
      <ref role="1NtTu8" to="gv6i:3I8nNvsKOG6" resolve="arg" />
      <node concept="1sVBvm" id="3I8nNvsKOGA" role="1sWHZn">
        <node concept="3F0A7n" id="3I8nNvsKOGH" role="2wV5jI">
          <property role="1Intyy" value="true" />
          <ref role="1NtTu8" to="tpck:h0TrG11" resolve="name" />
        </node>
      </node>
    </node>
  </node>
  <node concept="24kQdi" id="2aA5E187C2">
    <property role="3GE5qa" value="statements.activation" />
    <ref role="1XX52x" to="gv6i:2aA5E17Yjd" resolve="ActivateSequentialBehaviour" />
    <node concept="3EZMnI" id="2aA5E188rm" role="2wV5jI">
      <node concept="2iRkQZ" id="2aA5E188rn" role="2iSdaV" />
      <node concept="3EZMnI" id="2aA5E188r9" role="3EZMnx">
        <node concept="l2Vlx" id="2aA5E188ra" role="2iSdaV" />
        <node concept="PMmxH" id="2aA5E18opB" role="3EZMnx">
          <ref role="PMmxG" to="tpco:2wZex4PafBj" resolve="alias" />
          <ref role="1k5W1q" to="21iy:7kuDSjsqD3B" resolve="metajadeKeyword" />
          <node concept="VPxyj" id="2aA5E18oqB" role="3F10Kt" />
        </node>
        <node concept="3F0ifn" id="2aA5E188ri" role="3EZMnx">
          <property role="3F0ifm" value="{" />
        </node>
      </node>
      <node concept="3EZMnI" id="2aA5E188rT" role="3EZMnx">
        <node concept="3XFhqQ" id="2aA5E188sa" role="3EZMnx" />
        <node concept="l2Vlx" id="2aA5E188rU" role="2iSdaV" />
        <node concept="3F2HdR" id="2aA5E188rJ" role="3EZMnx">
          <ref role="1NtTu8" to="gv6i:2aA5E180mD" resolve="behaviours" />
          <node concept="2iRkQZ" id="2aA5E188rL" role="2czzBx" />
          <node concept="3F0ifn" id="2aA5E188sf" role="2czzBI">
            <node concept="VPxyj" id="2aA5E188sh" role="3F10Kt">
              <property role="VOm3f" value="true" />
            </node>
          </node>
        </node>
      </node>
      <node concept="3F0ifn" id="2aA5E188ry" role="3EZMnx">
        <property role="3F0ifm" value="}" />
      </node>
    </node>
  </node>
  <node concept="24kQdi" id="3A64HzfQFHK">
    <property role="3GE5qa" value="expression" />
    <ref role="1XX52x" to="gv6i:3A64HzfQE2a" resolve="BehaviourReference" />
    <node concept="3EZMnI" id="3A64HzfQFZm" role="2wV5jI">
      <node concept="2iRkQZ" id="3A64HzfQFZn" role="2iSdaV" />
      <node concept="3EZMnI" id="3A64HzfQFZo" role="3EZMnx">
        <node concept="1iCGBv" id="3A64HzfQFZr" role="3EZMnx">
          <ref role="1NtTu8" to="gv6i:3A64HzfQE2b" resolve="behaviour" />
          <node concept="1sVBvm" id="3A64HzfQFZs" role="1sWHZn">
            <node concept="3F0A7n" id="3A64HzfQFZt" role="2wV5jI">
              <property role="1Intyy" value="true" />
              <ref role="1NtTu8" to="tpck:h0TrG11" resolve="name" />
            </node>
          </node>
        </node>
        <node concept="3EZMnI" id="3A64HzfQFZu" role="3EZMnx">
          <node concept="l2Vlx" id="3A64HzfQFZv" role="2iSdaV" />
          <node concept="3F0ifn" id="3A64HzfQFZw" role="3EZMnx">
            <property role="3F0ifm" value="(" />
            <node concept="11L4FC" id="3A64HzfQFZx" role="3F10Kt">
              <property role="VOm3f" value="true" />
            </node>
            <node concept="11LMrY" id="3A64HzfQFZy" role="3F10Kt">
              <property role="VOm3f" value="true" />
            </node>
          </node>
          <node concept="3F2HdR" id="3A64HzfQFZz" role="3EZMnx">
            <property role="2czwfO" value="," />
            <ref role="1NtTu8" to="gv6i:3A64HzfQE2d" resolve="inputParams" />
            <node concept="2iRfu4" id="3A64HzfQFZ$" role="2czzBx" />
            <node concept="3F0ifn" id="3A64HzfQFZ_" role="2czzBI">
              <node concept="VPxyj" id="3A64HzfQFZA" role="3F10Kt">
                <property role="VOm3f" value="true" />
              </node>
            </node>
          </node>
          <node concept="3F0ifn" id="3A64HzfQFZB" role="3EZMnx">
            <property role="3F0ifm" value=")" />
            <node concept="11L4FC" id="3A64HzfQFZC" role="3F10Kt">
              <property role="VOm3f" value="true" />
            </node>
          </node>
          <node concept="pkWqt" id="3A64HzfQFZD" role="pqm2j">
            <node concept="3clFbS" id="3A64HzfQFZE" role="2VODD2">
              <node concept="3clFbF" id="3A64HzfQFZF" role="3cqZAp">
                <node concept="2dkUwp" id="3A64HzfQFZG" role="3clFbG">
                  <node concept="2OqwBi" id="3A64HzfQFZH" role="3uHU7B">
                    <node concept="2OqwBi" id="3A64HzfQFZI" role="2Oq$k0">
                      <node concept="pncrf" id="3A64HzfQFZJ" role="2Oq$k0" />
                      <node concept="3Tsc0h" id="3A64HzfQFZK" role="2OqNvi">
                        <ref role="3TtcxE" to="gv6i:3A64HzfQE2d" resolve="inputParams" />
                      </node>
                    </node>
                    <node concept="34oBXx" id="3A64HzfQFZL" role="2OqNvi" />
                  </node>
                  <node concept="3cmrfG" id="3A64HzfQFZM" role="3uHU7w">
                    <property role="3cmrfH" value="4" />
                  </node>
                </node>
              </node>
            </node>
          </node>
        </node>
        <node concept="3F0ifn" id="3A64HzfQFZN" role="3EZMnx">
          <property role="3F0ifm" value="{" />
          <node concept="pkWqt" id="3A64HzfQFZO" role="pqm2j">
            <node concept="3clFbS" id="3A64HzfQFZP" role="2VODD2">
              <node concept="3clFbF" id="3A64HzfQFZQ" role="3cqZAp">
                <node concept="3eOSWO" id="3A64HzfQFZR" role="3clFbG">
                  <node concept="3cmrfG" id="3A64HzfQFZS" role="3uHU7w">
                    <property role="3cmrfH" value="4" />
                  </node>
                  <node concept="2OqwBi" id="3A64HzfQFZT" role="3uHU7B">
                    <node concept="2OqwBi" id="3A64HzfQFZU" role="2Oq$k0">
                      <node concept="pncrf" id="3A64HzfQFZV" role="2Oq$k0" />
                      <node concept="3Tsc0h" id="3A64HzfQFZW" role="2OqNvi">
                        <ref role="3TtcxE" to="gv6i:3A64HzfQE2d" resolve="inputParams" />
                      </node>
                    </node>
                    <node concept="34oBXx" id="3A64HzfQFZX" role="2OqNvi" />
                  </node>
                </node>
              </node>
            </node>
          </node>
        </node>
        <node concept="l2Vlx" id="3A64HzfQFZY" role="2iSdaV" />
      </node>
      <node concept="3EZMnI" id="3A64HzfQFZZ" role="3EZMnx">
        <node concept="2iRkQZ" id="3A64HzfQG00" role="2iSdaV" />
        <node concept="3EZMnI" id="3A64HzfQG01" role="3EZMnx">
          <node concept="3XFhqQ" id="3A64HzfQG02" role="3EZMnx" />
          <node concept="l2Vlx" id="3A64HzfQG03" role="2iSdaV" />
          <node concept="3F2HdR" id="3A64HzfQG04" role="3EZMnx">
            <ref role="1NtTu8" to="gv6i:3A64HzfQE2d" resolve="inputParams" />
            <node concept="2iRkQZ" id="3A64HzfQG05" role="2czzBx" />
            <node concept="3F0ifn" id="3A64HzfQG06" role="2czzBI">
              <node concept="VPxyj" id="3A64HzfQG07" role="3F10Kt">
                <property role="VOm3f" value="true" />
              </node>
            </node>
          </node>
        </node>
        <node concept="3F0ifn" id="3A64HzfQG08" role="3EZMnx">
          <property role="3F0ifm" value="}" />
        </node>
        <node concept="pkWqt" id="3A64HzfQG09" role="pqm2j">
          <node concept="3clFbS" id="3A64HzfQG0a" role="2VODD2">
            <node concept="3clFbF" id="3A64HzfQG0b" role="3cqZAp">
              <node concept="3eOSWO" id="3A64HzfQG0c" role="3clFbG">
                <node concept="3cmrfG" id="3A64HzfQG0d" role="3uHU7w">
                  <property role="3cmrfH" value="4" />
                </node>
                <node concept="2OqwBi" id="3A64HzfQG0e" role="3uHU7B">
                  <node concept="2OqwBi" id="3A64HzfQG0f" role="2Oq$k0">
                    <node concept="pncrf" id="3A64HzfQG0g" role="2Oq$k0" />
                    <node concept="3Tsc0h" id="3A64HzfQG0h" role="2OqNvi">
                      <ref role="3TtcxE" to="gv6i:3A64HzfQE2d" resolve="inputParams" />
                    </node>
                  </node>
                  <node concept="34oBXx" id="3A64HzfQG0i" role="2OqNvi" />
                </node>
              </node>
            </node>
          </node>
        </node>
      </node>
    </node>
  </node>
  <node concept="24kQdi" id="3A64HzfQKrG">
    <property role="3GE5qa" value="expression" />
    <ref role="1XX52x" to="gv6i:3A64HzfQE29" resolve="BehaviourType" />
    <node concept="3F0ifn" id="3A64HzfQKrI" role="2wV5jI">
      <property role="3F0ifm" value="behaviour" />
      <ref role="1k5W1q" to="21iy:2WQ3iBR5Hx0" resolve="metajadeType" />
    </node>
  </node>
  <node concept="24kQdi" id="7dT_6n1dxj2">
    <property role="3GE5qa" value="statements" />
    <ref role="1XX52x" to="gv6i:1wDV7BCtyqF" resolve="AbstractBehaviourUnaryExpression" />
    <node concept="3EZMnI" id="7dT_6n1dxj4" role="2wV5jI">
      <node concept="PMmxH" id="7dT_6n1dxje" role="3EZMnx">
        <ref role="1k5W1q" to="21iy:7kuDSjsqD3B" resolve="metajadeKeyword" />
        <ref role="PMmxG" to="tpco:2wZex4PafBj" resolve="alias" />
        <node concept="VPxyj" id="7dT_6n1dBB4" role="3F10Kt" />
      </node>
      <node concept="3F1sOY" id="3A64HzfRfQD" role="3EZMnx">
        <ref role="1NtTu8" to="gv6i:3A64HzfQOAD" resolve="behaviour" />
      </node>
      <node concept="l2Vlx" id="7dT_6n1dxj7" role="2iSdaV" />
    </node>
  </node>
</model>

